-1.972399	-5.361089	-5.294972
-0.867372	-2.033463	0.704138
-0.512152	-1.287104	0.565680
-0.507999	-1.068378	0.639813
-0.637467	-1.063181	0.475984
-0.855181	-1.027905	0.464266
-0.938780	-0.867514	0.618202
-0.922465	-0.964821	0.770317
-0.868983	-1.113281	0.837492
-0.444267	-0.923770	0.950034
-0.500759	-1.068847	0.971831
-0.674605	-1.039606	1.027398
-0.595802	-0.906614	0.948119
-0.741242	-0.802041	1.030744
-0.623285	-0.757104	1.194804
-0.432692	-0.786446	1.151465
-0.462132	-0.726577	1.327061
-0.340311	-0.851005	1.324548
-0.402252	-0.990589	1.220464
-0.371560	-1.054412	1.393318
-0.477009	-0.938964	1.472128
-0.589681	-1.036882	1.368682
-0.679985	-0.890242	1.393718
-0.875620	-0.871118	1.325701
-0.993260	-0.754157	1.261089
-1.115613	-0.842751	1.158222
-1.231849	-0.939617	1.271568
-1.187314	-1.105250	1.256804
-1.185627	-1.082550	1.102726
-1.341729	-1.075860	1.170443
-1.429941	-0.922058	1.096251
-1.621669	-0.951743	1.010786
-1.487137	-0.952808	0.920154
-1.379104	-0.809543	0.886141
-1.509148	-0.681047	0.920478
-1.407559	-0.591409	1.022026
-1.517932	-0.447206	1.030530
-1.523828	-0.535959	1.193347
-1.693466	-0.558985	1.217939
-1.682747	-0.447895	1.356045
-1.686538	-0.618889	1.420759
-1.555287	-0.541672	1.579226
-1.516063	-0.671740	1.542014
-1.314508	-0.590974	1.511720
-1.271551	-0.724818	1.635548
-1.287522	-0.590405	1.706618
-1.110352	-0.532418	1.638874
-0.995655	-0.638166	1.746540
-1.054522	-0.588304	1.952135
-0.917526	-0.516535	1.956050
-0.862260	-0.741155	1.978936
-0.801499	-1.090173	2.688434
-0.564949	-0.611948	1.999526
-0.614150	-0.639685	1.801544
-0.424236	-0.627741	1.790143
-0.424164	-0.423026	1.857566
-0.451157	-0.427950	1.672209
-0.533859	-0.266951	1.726125
-0.659464	-0.367191	1.780388
-0.692625	-0.384744	1.600268
-0.831687	-0.308240	1.573250
-0.892855	-0.271677	1.395378
-1.020017	-0.328093	1.289794
-1.077126	-0.156233	1.261801
-1.243285	-0.185165	1.299737
-1.322793	-0.102256	1.486441
-1.435055	-0.036246	1.708383
-1.264771	-0.058155	1.766937
-1.237264	0.078786	1.819696
-1.060786	0.053294	1.796129
-0.910147	0.115521	1.810477
-0.997035	0.228055	1.875289
-0.910470	0.299702	1.756494
-1.050073	0.241601	1.682412
-0.960713	0.194587	1.572879
-1.040061	0.176366	1.456668
-1.060138	0.365795	1.409259
-1.197245	0.337818	1.440942
-1.238890	0.426557	1.586630
-1.148969	0.556653	1.611993
-1.242154	0.612720	1.501689
-1.358763	0.658580	1.659411
-1.443509	0.579759	1.789396
-1.557836	0.659011	1.684522
-1.597793	0.511332	1.601702
-1.567347	0.603091	1.464169
-1.695559	0.629968	1.359072
-1.568031	0.442947	1.316578
-1.696524	0.393278	1.368342
-1.609011	0.262828	1.391670
-1.619050	0.219886	1.250496
-1.784200	0.119183	1.265849
-1.861627	0.235411	1.156701
-1.774336	0.127037	1.040338
-1.684667	0.257266	0.933395
-1.764994	0.366216	0.830776
-1.781295	0.506544	0.887462
-1.650125	0.539034	0.775458
-1.545703	0.547629	0.918420
-1.518610	0.693492	0.910482
-1.342568	0.683731	0.788766
-1.274832	0.655244	0.956808
-1.209114	0.543781	0.864488
-1.269902	0.396294	0.948170
-1.203788	0.284810	0.854164
-1.234023	0.318784	0.649768
-1.365821	0.243918	0.654819
-1.369997	0.074519	0.575317
-1.429828	-0.041378	0.668907
-1.322521	-0.045534	0.775345
-1.135705	-0.063249	0.747579
-1.100568	-0.067211	0.566685
-1.133917	-0.264870	0.582111
-0.945229	-0.250227	0.560308
-0.869306	-0.266562	0.745534
-0.719200	-0.307925	0.683372
-0.569994	-0.421510	0.653336
-0.519214	-0.378347	0.815913
-0.429869	-0.534270	0.770606
-0.340759	-0.388435	0.755255
-0.348973	-0.376342	0.578829
-0.436194	-0.226526	0.652583
-0.548349	-0.145210	0.519726
-0.665317	0.011147	0.496881
-0.586041	0.052578	0.637098
-0.683860	0.190568	0.632609
-0.813316	0.147474	0.716090
-0.759981	0.266397	0.836208
-0.662212	0.178438	0.940871
-0.735857	0.123395	1.099845
-0.663123	-0.013850	1.056342
-0.493541	-0.014670	1.048640
-0.439571	-0.126083	1.164685
-0.250263	-0.172212	1.090418
-0.137790	-0.322163	1.135257
-0.045513	-0.199150	1.036132
0.033580	-0.200149	1.207083
-0.125318	-0.141714	1.268751
-0.214086	0.054355	1.266246
-0.278639	0.112784	1.446088
-0.436132	0.186043	1.373873
-0.317006	0.328522	1.335946
-0.413408	0.340528	1.173255
-0.309826	0.451326	1.041943
-0.315515	0.339137	0.938240
-0.133873	0.237546	0.986223
-0.098403	0.116311	0.883974
0.032043	0.171103	0.960104
-0.006657	0.317126	0.885748
-0.101872	0.425254	0.790919
-0.199886	0.332976	0.674231
-0.062686	0.179156	0.635364
0.069470	0.078190	0.640316
0.138059	0.231392	0.665728
0.046443	0.311951	0.525832
0.006516	0.503189	0.473156
-0.011183	0.477807	0.308025
-0.178204	0.438670	0.374945
-0.259449	0.614112	0.353707
-0.431615	0.550687	0.409645
-0.513890	0.690917	0.382085
-0.549495	0.682390	0.574886
-0.402121	0.688198	0.671016
-0.251707	0.808740	0.680427
-0.374616	0.929873	0.681540
-0.352845	1.014951	0.510035
-0.237300	1.109183	0.582771
-0.374152	1.207423	0.532870
-0.457528	1.209126	0.696561
-0.571006	1.238471	0.556337
-0.656319	1.063048	0.584810
-0.758198	1.140308	0.675018
-0.829705	1.002660	0.738867
-0.881922	1.108485	0.857549
-0.719927	1.109149	0.928703
-0.788807	0.952948	1.007041
-0.709089	0.814685	0.974082
-0.610210	0.910371	1.043488
-0.548646	0.900621	1.240093
-0.666430	0.944102	1.375035
-0.636274	1.090719	1.304350
-0.460927	1.116315	1.370017
-0.457147	1.278428	1.284063
-0.382643	1.169936	1.166485
-0.172434	1.076862	1.166495
-0.035565	1.118552	1.094851
0.114857	1.267673	1.019102
0.017087	1.372172	1.155594
0.034302	1.282607	1.334510
0.108614	1.404570	1.399016
0.268285	1.268205	1.340881
0.351982	1.423868	1.273731
0.384763	1.630514	1.344048
0.448832	1.512007	1.528967
0.599626	1.402518	1.442322
0.689803	1.603239	1.438392
0.591551	1.719998	1.604268
0.766394	1.590752	1.691925
0.573971	1.556343	1.817475
0.660588	1.359777	1.729934
0.452560	1.296334	1.690889
0.246436	1.283003	1.728161
0.258003	1.046737	1.646664
0.231248	1.056135	1.831825
0.016146	1.086286	1.802994
-0.072085	1.023499	1.630703
-0.186192	0.949452	1.767982
-0.083178	0.781704	1.801341
-0.225304	0.690166	1.845100
-0.313157	0.690099	1.689901
-0.152727	0.580891	1.645835
-0.121947	0.686773	1.524809
0.036075	0.573531	1.457101
0.179565	0.649925	1.495096
0.113632	0.751753	1.343753
0.150998	0.653456	1.188880
0.268079	0.556116	1.227022
0.335909	0.724679	1.270447
0.303128	0.805565	1.121203
0.486192	0.808007	1.077479
0.542904	0.842855	0.886327
0.453852	1.004212	0.883599
0.571181	0.999294	0.733241
0.636536	1.127079	0.866739
0.739687	0.959962	0.887075
0.635427	0.990822	1.045506
0.855884	1.123217	1.102609
1.052779	1.055904	1.055885
1.076319	1.262249	1.081936
1.226744	1.137596	1.189908
1.181133	1.289116	1.330913
0.982452	1.229234	1.335525
1.070782	1.072060	1.459008
0.853580	0.983015	1.376623
0.692524	0.822605	1.411476
0.680935	0.738065	1.558080
0.758875	0.921489	1.607245
0.898538	0.811060	1.546469
1.035396	0.807804	1.359153
1.262632	0.811902	1.377944
1.259953	0.592268	1.353389
1.294158	0.699248	1.164953
1.100888	0.566812	1.146836
0.953133	0.636475	0.989774
0.895403	0.460818	1.015223
0.825910	0.570661	1.167168
0.938273	0.493771	1.323739
0.918841	0.285395	1.267838
0.748275	0.241398	1.226058
0.603300	0.365430	1.355396
0.739928	0.314864	1.540450
0.882074	0.252858	1.665265
0.815332	0.085155	1.567525
0.595343	0.054473	1.484940
0.425247	0.065310	1.423011
0.467150	-0.065570	1.526392
0.538806	0.109279	1.720670
0.422718	0.248993	1.704171
0.282344	0.101871	1.743109
0.343568	0.107102	1.931145
0.508649	-0.023234	1.976795
0.396113	0.030020	2.135379
0.454535	0.236173	2.214081
0.306797	0.370647	2.134488
0.492973	0.368765	2.015640
0.679202	0.237544	2.073373
0.803066	0.287048	2.267818
0.719996	0.474370	2.278620
0.813474	0.514197	2.072890
0.660326	0.690204	2.073345
0.807564	0.806395	2.037590
0.846394	0.826718	2.236794
1.003927	0.728007	2.185987
1.147166	0.856795	2.346615
1.114345	1.067696	2.237833
1.169399	0.960648	2.032656
1.356012	1.094984	2.072910
1.401086	0.959739	2.268415
1.388882	0.736114	2.142050
1.278366	0.522292	2.041157
1.172529	0.549601	1.840482
1.432077	0.602357	1.818196
1.469107	0.834092	1.785414
1.683612	0.699328	1.865235
1.761646	0.592757	1.623923
1.731976	0.848448	1.561573
1.983749	0.819838	1.563988
1.912371	0.973652	1.793219
1.937357	0.916829	2.058347
2.164839	0.830549	1.925330
2.223494	0.642602	1.742769
2.064255	0.432673	1.797053
2.234912	0.467378	2.015693
1.979155	0.572540	2.057639
2.064455	0.514793	2.282351
1.990372	0.251744	2.174007
1.780571	0.391835	2.263049
1.744246	0.318347	1.999867
1.544898	0.188558	2.168876
1.687896	0.018272	2.174273
1.675277	-0.033841	1.908074
1.467610	0.043688	1.876238
1.285811	-0.115865	1.925197
1.196204	-0.163881	2.127192
1.382404	-0.214235	2.243205
1.450735	-0.324372	2.071421
1.286242	-0.445619	2.162501
1.179204	-0.404647	1.975605
0.993209	-0.327559	1.872944
1.062109	-0.497407	1.779138
1.163059	-0.363523	1.636245
1.388935	-0.428634	1.698285
1.467634	-0.630703	1.799913
1.641600	-0.471629	1.750311
1.798400	-0.675584	1.763516
1.744394	-0.727630	1.978053
1.844359	-0.481570	1.998383
2.033938	-0.628220	2.116990
2.115792	-0.391313	2.078632
2.109530	-0.530918	1.857719
2.271591	-0.734338	1.848429
2.152045	-0.730215	1.632972
2.345180	-0.583070	1.595128
2.403135	-0.433677	1.787109
2.215747	-0.267030	1.723323
2.043455	-0.390149	1.546922
2.004109	-0.142743	1.566619
2.187047	-0.221957	1.381564
2.423487	-0.288807	1.373752
2.464766	-0.111119	1.554948
2.297139	0.079205	1.480075
2.467224	0.042948	1.279609
2.270738	0.274741	1.208128
2.175937	0.023514	1.138074
1.971261	0.099028	1.276569
1.827176	0.126972	1.084123
1.633418	0.185414	1.108564
1.695543	0.173817	1.318372
1.700221	-0.055557	1.293884
1.475512	-0.077112	1.280648
1.443074	-0.120984	1.030458
1.314594	-0.253431	1.061324
1.484462	-0.370806	1.182062
1.706117	-0.394793	1.238445
1.795247	-0.298968	1.039295
1.781946	-0.244971	0.826755
1.602845	-0.406378	0.802241
1.825975	-0.516307	0.844037
2.009878	-0.628418	0.755693
2.208167	-0.661926	0.844082
2.131947	-0.473988	0.893841
2.033409	-0.626317	1.030414
2.022842	-0.839255	0.964788
1.814634	-0.813905	0.854014
1.678201	-0.755270	1.030652
1.748370	-0.954166	1.187173
1.665728	-1.031221	1.013406
1.486921	-0.906283	0.883956
1.344625	-0.748199	0.938179
1.377159	-0.917491	1.157860
1.428261	-1.078892	1.291652
1.363061	-1.186362	1.094481
1.208959	-1.111640	0.951880
1.133756	-1.148838	1.160079
1.072327	-0.932322	1.173211
0.839172	-0.954738	0.991367
0.928551	-0.854687	0.887107
1.019728	-0.684793	1.038580
0.838259	-0.698311	1.162875
0.715399	-0.663102	1.009706
0.821093	-0.466745	0.921105
0.648003	-0.393084	0.828627
0.768947	-0.338626	0.659986
0.620865	-0.334324	0.529168
0.656514	-0.501661	0.571053
0.762506	-0.674536	0.501986
0.837529	-0.574697	0.390808
1.045227	-0.527302	0.506478
1.042698	-0.719651	0.476871
1.226684	-0.727600	0.448320
1.411221	-0.960442	0.425095
1.624386	-1.053414	0.459006
1.488837	-1.248751	0.436226
1.555796	-1.182901	0.209131
1.357271	-1.289555	0.112959
1.192527	-1.195817	0.247535
1.270267	-1.033193	0.100030
1.301838	-1.072852	-0.147671
1.058575	-1.026847	-0.137636
0.897628	-0.852713	-0.404661
1.216668	-0.806242	-0.215451
1.121048	-0.768162	0.014298
1.321302	-0.728230	0.041143
1.551273	-0.867151	-0.062758
1.769091	-0.990483	-0.013142
1.903779	-0.798899	-0.023727
1.927568	-0.857914	0.203195
1.726942	-0.730722	0.185431
1.604218	-0.504259	0.270660
1.474823	-0.338616	0.275625
1.505405	-0.373606	0.069146
1.717680	-0.454800	-0.042591
1.778496	-0.302290	0.109103
1.959769	-0.259920	-0.052962
2.042537	-0.378276	0.160651
2.258561	-0.297889	0.322927
2.319480	-0.557716	0.307847
2.551206	-0.421488	0.341449
2.588467	-0.670122	0.237661
2.626009	-0.525235	0.014542
2.388986	-0.623814	-0.038565
2.399586	-0.396586	-0.228112
2.393635	-0.274809	-0.019325
2.648380	-0.172445	-0.138243
2.401459	0.056583	0.136090
2.668094	0.062783	0.194330
2.616819	-0.004385	0.463070
2.370862	0.127991	0.489772
2.485752	0.348184	0.633715
2.745947	0.326390	0.537795
2.743587	0.457050	0.284157
2.574977	0.630418	0.450036
2.438559	0.422102	0.292006
2.472932	0.636516	0.107003
2.255187	0.489013	0.048353
2.194776	0.681313	0.250611
2.134221	0.560713	0.471593
2.100492	0.342169	0.312842
1.871994	0.470440	0.243464
1.832445	0.257908	0.165112
1.799421	0.309783	0.468063
1.648485	0.183754	0.389807
1.460964	0.377288	0.548630
1.332655	0.151012	0.471598
1.105003	0.067131	0.526654
1.061244	0.015616	0.318978
0.889417	0.048395	0.278903
0.865696	0.225855	0.309663
0.787224	0.277951	0.170832
1.005738	0.307106	0.148125
1.107175	0.416164	0.209066
1.249825	0.309662	0.107429
1.425981	0.361353	0.056723
1.427120	0.189502	-0.082584
1.272019	0.097422	-0.126068
1.087216	0.156665	-0.192644
1.235536	0.260302	-0.306861
1.292736	0.431163	-0.239861
1.094036	0.447269	-0.260523
0.903056	0.447356	-0.263756
0.888970	0.576300	-0.119826
0.855841	0.716956	-0.258041
0.843086	0.892993	-0.190299
0.996033	0.854933	-0.308175
1.098421	0.806502	-0.097961
1.171546	1.008692	-0.075659
1.238122	0.890687	0.086120
1.372240	0.776036	-0.009705
1.520535	0.940668	0.000435
1.449323	0.950317	-0.226302
1.506018	1.119865	-0.250138
1.675139	0.988228	-0.240292
1.715793	0.790881	-0.215242
1.709733	0.791804	-0.431350
1.573160	0.675213	-0.400800
1.500063	0.811258	-0.582124
1.330131	0.726521	-0.646372
1.491027	0.634163	-0.739762
1.443108	0.463578	-0.650996
1.587351	0.381210	-0.807122
1.424087	0.227478	-0.902744
1.799772	0.246075	-0.581900
1.950105	0.138193	-0.443324
2.010389	0.367649	-0.420222
2.168478	0.275639	-0.572983
2.035600	0.187729	-0.764314
1.991349	0.446103	-0.745904
2.165121	0.566768	-0.910709
2.019890	0.820238	-0.950884
1.998281	0.992496	-1.282497
2.452595	1.677570	-0.910686
2.329689	1.377546	-1.348459
3.389996	1.245120	-1.199197
2.722062	1.120900	-0.784816
2.485836	-0.152391	-1.095177
2.839402	0.362503	-1.314732
2.288758	-0.183101	-0.965428
2.672664	0.538786	-1.259347
1.343624	0.128254	-1.001001
3.517612	-1.462256	-1.319718
3.278107	-1.152550	-1.146068
-0.819494	3.670307	-3.136262
-0.529888	3.333733	-3.643572
1.020716	-1.821836	-1.082398
1.225321	-2.137104	-1.112933
0.705939	-0.789358	-0.550588
2.242023	-0.617072	-3.260607
-0.210993	-3.395805	-0.861354
0.042974	-2.851355	-0.278526
-0.277671	-2.412773	-0.325949
-0.151829	-1.965001	-0.404092
-0.338786	-1.778531	-0.424142
-0.513949	-1.875318	-0.471674
1.862276	-1.299652	-1.345461
1.792402	-0.822616	-1.411115
1.605172	-0.808027	-1.089858
1.428882	-0.575595	-1.241418
1.338287	-0.396061	-1.058525
1.265195	-0.222031	-1.210674
1.312997	-0.013588	-1.080523
1.605695	-0.110864	-1.615615
1.661887	-0.402839	-1.875726
2.058090	-0.501174	-2.257275
2.364230	1.407542	-2.006121
-0.219161	-2.581264	-1.113677
1.668090	-1.730856	-1.100292
1.702430	-1.859507	-1.830136
0.348029	-1.509127	-0.265431
0.264079	-1.382717	-0.117674
0.012090	-1.331693	-0.151259
0.051288	-1.199675	0.006895
-0.037748	-1.087983	-0.098985
0.117260	-1.037842	-0.217486
0.281661	-0.964303	-0.219033
0.256332	-0.821948	-0.130092
0.361045	-0.784202	-0.259628
0.484756	-0.640159	-0.304803
0.644251	-0.643123	-0.427517
0.582379	-0.437192	-0.411983
0.637849	-0.419504	-0.603211
0.459874	-0.408429	-0.615988
0.443963	-0.638592	-0.599034
0.228567	-0.665109	-0.564955
0.068160	-0.525237	-0.603107
0.093937	-0.517622	-0.400278
-0.032377	-0.643471	-0.394488
-0.154764	-0.543685	-0.344949
-0.157932	-0.627860	-0.234330
-0.252484	-0.721331	-0.322320
-0.426518	-0.681874	-0.492870
-0.430732	-0.814497	-0.400272
-0.410301	-0.941703	-0.540365
-0.279062	-1.009806	-0.492750
-0.159166	-0.967729	-0.584980
-0.095112	-0.926587	-0.711631
-0.005237	-1.017248	-0.790251
0.023426	-1.157417	-0.927659
-0.033154	-1.328584	-0.987986
0.044051	-1.369751	-1.166859
0.156579	-1.493247	-1.042874
0.261924	-1.372706	-0.980568
0.257746	-1.493819	-1.279504
0.420628	-1.536465	-1.154226
0.493109	-1.432576	-1.322981
0.395832	-1.246595	-1.170793
0.380451	-1.126400	-1.321791
0.226287	-1.096971	-1.235522
0.378661	-1.049550	-1.116209
0.306049	-1.024772	-0.943763
0.379299	-0.879801	-0.925458
0.544891	-0.884398	-0.909733
0.609917	-0.888890	-0.746778
0.526847	-1.067512	-0.743240
0.638968	-1.164829	-0.814192
0.808620	-1.169160	-0.952299
0.827592	-0.989647	-1.057447
0.813436	-0.838521	-1.159326
0.929805	-0.926088	-1.264394
0.732406	-0.991828	-1.327013
0.837577	-1.131010	-1.437614
0.940623	-1.031971	-1.562973
0.752706	-1.073649	-1.661035
0.825909	-1.120849	-1.859747
0.723972	-1.028210	-2.005770
0.580432	-1.164007	-1.972461
0.608518	-1.251808	-1.790427
0.461077	-1.149033	-1.689865
0.532366	-1.015804	-1.805303
0.687848	-0.870237	-1.818740
0.757608	-0.796737	-1.658028
0.586281	-0.798195	-1.580729
0.637004	-0.643124	-1.500816
0.606035	-0.609831	-1.723759
0.778147	-0.540983	-1.686673
0.654079	-0.386859	-1.747328
0.546142	-0.378925	-1.562784
0.658684	-0.390904	-1.406986
0.525711	-0.313762	-1.308050
0.496386	-0.481003	-1.252330
0.417280	-0.476360	-1.085304
0.262998	-0.414972	-1.161361
0.217330	-0.491510	-1.319356
0.178260	-0.662117	-1.265284
0.033044	-0.584664	-1.194720
0.000447	-0.715422	-1.297378
0.065943	-0.601455	-1.442989
0.206802	-0.705503	-1.543298
0.239146	-0.536964	-1.652293
0.262215	-0.477968	-1.877724
0.345302	-0.654491	-1.932541
0.189585	-0.621665	-2.063134
0.118467	-0.676219	-1.871550
0.150775	-0.873087	-1.950462
0.082430	-0.905488	-1.753171
-0.039439	-0.942760	-1.581403
-0.127527	-1.080554	-1.688671
-0.268401	-1.230914	-1.647438
-0.211374	-1.176030	-1.496591
-0.344933	-1.043527	-1.493965
-0.531863	-1.149309	-1.422569
-0.628995	-1.021416	-1.448118
-0.504172	-0.998524	-1.287510
-0.564940	-0.827468	-1.284326
-0.350625	-0.855486	-1.277054
-0.410130	-0.808767	-1.459409
-0.556278	-0.804371	-1.669834
-0.460206	-0.927376	-1.757863
-0.326987	-0.743434	-1.702869
-0.273664	-0.810767	-1.899462
-0.230386	-0.658969	-1.986115
-0.191485	-0.765694	-2.131627
-0.373370	-0.815070	-2.115502
-0.494790	-0.683701	-2.028180
-0.361938	-0.612655	-2.242275
-0.209421	-0.495770	-2.204453
-0.366558	-0.452672	-2.103040
-0.451100	-0.286749	-2.131455
-0.280516	-0.254089	-2.083005
-0.229159	-0.369263	-1.943211
-0.422418	-0.358816	-1.906189
-0.642871	-0.419596	-1.895399
-0.640910	-0.260776	-1.812132
-0.744039	-0.345485	-1.684007
-0.627499	-0.458938	-1.630371
-0.662420	-0.314800	-1.497443
-0.537330	-0.228941	-1.586042
-0.370118	-0.345691	-1.590470
-0.404074	-0.395287	-1.415150
-0.441239	-0.314865	-1.254075
-0.285558	-0.247464	-1.280123
-0.364912	-0.055189	-1.210990
-0.417513	-0.050923	-1.368066
-0.270228	0.000072	-1.394689
-0.255839	-0.056529	-1.561992
-0.150301	0.049987	-1.679744
-0.169748	-0.071422	-1.792485
-0.074246	-0.182657	-1.658410
0.055522	-0.091624	-1.702094
0.070612	-0.083423	-1.509485
0.016528	-0.078968	-1.340746
-0.022991	-0.052099	-1.154643
0.129047	0.025296	-1.193530
0.051070	0.179257	-1.233896
0.074684	0.225608	-1.402111
0.255239	0.145120	-1.390822
0.364979	0.229501	-1.261799
0.301926	0.343492	-1.363992
0.445130	0.210407	-1.525655
0.297545	0.273883	-1.630413
0.386295	0.461719	-1.649341
0.505847	0.351661	-1.701787
0.459374	0.126003	-1.808876
0.418998	0.275297	-1.910351
0.176186	0.238131	-1.892050
-0.005024	0.334974	-1.901326
0.123580	0.432337	-1.986873
0.062652	0.205127	-2.165527
0.275858	0.122595	-2.200529
0.164609	-0.062467	-2.203512
0.125631	0.023757	-2.404089
0.318396	-0.083684	-2.428147
0.466294	0.081142	-2.375998
0.324942	0.185278	-2.552750
0.441537	0.348167	-2.419549
0.233049	0.357263	-2.354647
0.272113	0.583981	-2.340040
0.212762	0.544018	-2.559224
0.013752	0.546499	-2.391797
-0.045339	0.548231	-2.607886
0.033452	0.320330	-2.570551
-0.156635	0.252873	-2.416167
-0.239053	0.099730	-2.571728
-0.381815	0.300572	-2.638535
-0.527256	0.121800	-2.554724
-0.469894	0.135214	-2.335079
-0.595562	0.331953	-2.412657
-0.398170	0.457818	-2.399422
-0.377367	0.367871	-2.192382
-0.516653	0.354031	-2.000083
-0.414889	0.392867	-1.825507
-0.394920	0.574501	-1.925704
-0.446496	0.709826	-2.112059
-0.622754	0.726490	-1.992852
-0.673849	0.642185	-2.176928
-0.671966	0.863959	-2.201808
-0.521363	0.794300	-2.357790
-0.494046	1.022476	-2.348920
-0.282964	0.917465	-2.299333
-0.258689	1.142265	-2.268004
-0.420106	1.234007	-2.132031
-0.493059	1.054901	-2.025895
-0.257073	0.986532	-2.025493
-0.173192	1.152023	-1.892279
-0.335604	1.176992	-1.742654
-0.339226	0.970370	-1.742093
-0.088937	0.853624	-1.763232
-0.182506	0.796940	-1.565614
-0.092007	1.003075	-1.533955
0.152968	0.888609	-1.535612
0.090298	0.854272	-1.362466
0.144786	1.077886	-1.373266
0.328491	0.999844	-1.307304
-0.017365	1.374910	-1.073403
-0.182501	1.153783	-0.999603
-0.163007	1.115046	-1.205074
0.012712	1.067441	-1.090958
-0.105396	0.877755	-1.042711
0.012243	0.803484	-0.905693
0.012470	0.659962	-1.005244
-0.146342	0.652318	-1.052437
-0.177531	0.680812	-0.843054
-0.125384	0.556536	-0.740321
-0.256870	0.518114	-0.784876
-0.229187	0.358209	-0.817893
-0.335212	0.256991	-0.757252
-0.232424	0.172128	-0.723802
-0.166739	0.177942	-0.582764
-0.176546	0.289437	-0.490392
-0.222368	0.184380	-0.388911
-0.373643	0.225110	-0.455108
-0.422077	0.100608	-0.341542
-0.403674	-0.014619	-0.442528
-0.538527	-0.061486	-0.419567
-0.521774	-0.031082	-0.585630
-0.646942	0.012929	-0.608392
-0.621301	0.152889	-0.628457
-0.758224	0.172214	-0.516080
-0.699078	0.198518	-0.394622
-0.784073	0.307330	-0.362530
-0.652766	0.372327	-0.315385
-0.634212	0.424840	-0.449874
-0.721230	0.475590	-0.592469
-0.799845	0.563640	-0.502876
-0.692103	0.737364	-0.434746
-0.593434	0.696373	-0.556407
-0.526419	0.829443	-0.538820
-0.560791	0.843505	-0.705981
-0.679952	0.933505	-0.657342
-0.780227	0.797735	-0.759188
-0.713984	0.811658	-0.934205
-0.852051	0.894471	-1.034012
-0.787013	1.074353	-1.053651
-0.842429	1.083672	-1.226869
-0.695564	1.199699	-1.245512
-0.675554	1.055097	-1.345752
-0.601948	0.993559	-1.179477
-0.712007	0.859493	-1.242718
-0.550495	0.751662	-1.220128
-0.606181	0.661438	-1.387414
-0.680533	0.558478	-1.266551
-0.678503	0.372413	-1.315924
-0.527139	0.410585	-1.356256
-0.560074	0.423043	-1.182069
-0.684057	0.465409	-1.036112
-0.781416	0.334814	-1.063805
-0.844070	0.268930	-0.926434
-0.937660	0.445952	-0.944654
-1.030795	0.349863	-1.016860
-1.015525	0.343535	-1.181030
-1.057248	0.510739	-1.172150
-1.004769	0.510915	-1.386987
-0.904771	0.557272	-1.568143
-0.856775	0.727120	-1.623079
-0.993740	0.665798	-1.723782
-1.065461	0.698325	-1.552411
-1.052384	0.769559	-1.348019
-1.126259	0.892392	-1.454045
-0.991020	0.994665	-1.599182
-1.159645	1.058096	-1.638892
-1.106104	0.937155	-1.787319
-1.289207	0.850733	-1.649444
-1.297505	0.749949	-1.838705
-1.453214	0.892374	-1.872230
-1.332422	0.892714	-2.056238
-1.288760	0.690048	-2.090312
-1.511221	0.703278	-2.099307
-1.566757	0.628292	-1.917456
-1.631633	0.503930	-2.068675
-1.560620	0.360033	-1.949415
-1.402896	0.439501	-2.102638
-1.340333	0.483103	-1.915956
-1.358462	0.144595	-1.794381
-1.274422	0.000006	-1.758642
-1.213649	0.119430	-1.636194
-1.105039	0.126321	-1.783999
-1.195446	0.215517	-1.920162
-1.217814	0.337931	-1.771567
-1.388110	0.365063	-1.665921
-1.400686	0.345484	-1.459282
-1.512932	0.528434	-1.537692
-1.606229	0.452800	-1.408564
-1.669631	0.349665	-1.560891
-1.812669	0.422041	-1.617254
-1.849991	0.303363	-1.473878
-1.932200	0.196991	-1.613966
-1.916256	0.074776	-1.490089
-1.769413	0.088007	-1.615377
-1.700971	0.129573	-1.459910
-1.698083	0.211426	-1.249736
-1.843828	0.073931	-1.191422
-1.712644	-0.014004	-1.244978
-1.718280	-0.164044	-1.170285
-1.686968	-0.047638	-1.042841
-1.640769	0.060703	-0.916552
-1.476166	0.129271	-1.036595
-1.436874	-0.026099	-1.072880
-1.401785	-0.016269	-1.288354
-1.428176	-0.176769	-1.276509
-1.238011	-0.165642	-1.344772
-1.166658	-0.081084	-1.154174
-0.990118	-0.106790	-1.050815
-1.115639	-0.188074	-1.041248
-1.170323	-0.051929	-0.885570
-1.266782	-0.120770	-0.764978
-1.348473	-0.250580	-0.831707
-1.401094	-0.282919	-0.695372
-1.470576	-0.430623	-0.763761
-1.337101	-0.453122	-0.839545
-1.252448	-0.456874	-0.664292
-1.135078	-0.397340	-0.762078
-1.044792	-0.384710	-0.614769
-1.102896	-0.252616	-0.568366
-1.086474	-0.353288	-0.394834
-1.055721	-0.266229	-0.263594
-1.085200	-0.398365	-0.236817
-1.244505	-0.405065	-0.331579
-1.334942	-0.319008	-0.203812
-1.487472	-0.252568	-0.185231
-1.493605	-0.335260	-0.310164
-1.387614	-0.200046	-0.335066
-1.295475	-0.088130	-0.240757
-1.308525	0.012438	-0.366649
-1.262536	0.107466	-0.257439
-1.405574	0.086775	-0.141841
-1.503559	0.065581	-0.255857
-1.596800	0.070794	-0.410013
-1.745084	0.006528	-0.397097
-1.722612	0.087057	-0.261192
-1.725835	0.210120	-0.389808
-1.739810	0.328730	-0.283083
-1.589072	0.298376	-0.261618
-1.527949	0.347944	-0.453702
-1.581711	0.403319	-0.605169
-1.462808	0.282949	-0.607823
-1.352493	0.374018	-0.525005
-1.382937	0.489629	-0.419136
-1.250781	0.534161	-0.290883
-1.351672	0.582354	-0.206602
-1.344391	0.662229	-0.334586
-1.241401	0.719473	-0.470108
-1.431169	0.736739	-0.556890
-1.326715	0.668139	-0.670918
-1.451673	0.762936	-0.796269
-1.504222	0.641879	-0.894827
-1.588995	0.819245	-0.950719
-1.431647	0.889834	-1.039871
-1.508939	0.796885	-1.186092
-1.656935	0.903425	-1.163986
-1.522800	1.043008	-1.241059
-1.675961	1.179285	-1.164200
-1.740173	1.158805	-1.360453
-1.624482	1.322329	-1.409532
-1.776686	1.401145	-1.268865
-1.606115	1.529659	-1.283890
-1.449812	1.385022	-1.234186
-1.577413	1.439460	-1.070252
-1.389096	1.449749	-0.997203
-1.445463	1.262964	-1.008063
-1.530581	1.146160	-0.821942
-1.478667	1.258989	-0.670649
-1.619261	1.325801	-0.774405
-1.786750	1.211102	-0.850751
-1.880938	1.388246	-0.860218
-1.838061	1.338084	-0.681122
-1.725471	1.111221	-0.561754
-1.861600	1.027177	-0.624614
-1.968113	1.119273	-0.465701
-2.088515	1.238473	-0.543442
-2.122462	1.100544	-0.689617
-2.206934	1.034306	-0.536597
-2.035447	0.751966	-0.247360
-1.906240	0.759812	-0.368409
-2.057512	0.717770	-0.483381
-1.978282	0.695990	-0.678035
-2.050096	0.537064	-0.673886
-2.209785	0.621693	-0.777595
-2.415218	0.716411	-0.779473
-2.591928	0.422441	-0.966030
-2.373513	0.457562	-0.886242
-2.157788	0.426759	-0.931384
-2.214025	0.581811	-1.021229
-2.006848	0.641493	-0.987673
-2.077480	0.828238	-1.023765
-2.226375	0.881909	-1.156579
-2.063745	1.004423	-1.187029
-2.230784	1.157158	-1.178861
-2.326556	1.043734	-1.347538
-2.137474	1.171977	-1.419898
-2.262877	1.110863	-1.625825
-2.075419	0.881097	-1.522090
-1.992191	0.757291	-1.375313
