-0.060212	6.495746	-2.479258
-1.091055	-0.658980	0.249398
-0.986022	-0.546691	0.173792
-1.130693	-0.513094	0.263471
-1.212079	-0.552713	0.118073
-1.252471	-0.725238	0.168518
-0.941081	-0.886740	0.223083
-1.051987	-0.865869	0.097245
-1.159712	-0.966324	0.126875
-0.906724	-1.021290	0.347071
-0.905635	-1.113937	0.255625
-1.022675	-1.111845	0.350389
-1.033215	-0.977912	0.383020
-0.989162	-0.843148	0.477530
-0.805222	-0.832107	0.490765
-0.761322	-0.967909	0.392122
-0.637234	-0.876970	0.453939
-0.577731	-0.999290	0.407139
-0.623963	-1.122471	0.479609
-0.489024	-1.097991	0.552897
-0.562262	-0.982862	0.624468
-0.655846	-1.102083	0.667473
-0.766776	-1.009290	0.639886
-0.914214	-1.063920	0.545062
-1.015730	-1.056406	0.679921
-1.145468	-0.979706	0.715589
-1.274462	-1.019368	0.794391
-1.296803	-1.140125	0.714896
-1.319981	-1.076460	0.600307
-1.405611	-1.030996	0.696174
-1.420858	-0.877675	0.662511
-1.574665	-0.824498	0.610467
-1.472642	-0.805878	0.526024
-1.336335	-0.726577	0.515224
-1.415509	-0.594482	0.542853
-1.382239	-0.557483	0.673689
-1.514237	-0.511473	0.733064
-1.479473	-0.617030	0.838606
-1.479059	-0.611602	0.982468
-1.411392	-0.741659	1.005608
-1.293732	-0.653883	1.054829
-1.203652	-0.542780	0.947537
-1.180662	-0.650067	0.902416
-1.058475	-0.592913	0.777444
-0.906461	-0.635855	0.789965
-0.934848	-0.599277	0.907120
-0.950588	-0.749708	0.976033
-0.843353	-0.869874	0.964035
-0.902947	-0.982847	1.091725
-0.796697	-0.959694	1.157521
-0.758192	-1.140846	1.102790
-0.537321	-1.615684	1.635827
-0.428947	-1.155294	1.151005
-0.481290	-0.981283	1.187917
-0.515597	-0.973267	1.026378
-0.345378	-0.956769	0.959189
-0.292795	-0.857812	1.075565
-0.389410	-0.763476	0.980349
-0.425021	-0.728514	1.121045
-0.561625	-0.736835	1.054472
-0.635475	-0.625238	1.031185
-0.655560	-0.567949	1.184549
-0.790662	-0.515139	1.214426
-0.816523	-0.619619	1.333170
-0.957789	-0.638856	1.289182
-1.077091	-0.692816	1.435775
-1.118248	-0.621712	1.645087
-1.097526	-0.474639	1.604403
-0.973311	-0.455672	1.610560
-0.926778	-0.335846	1.531793
-0.856122	-0.246771	1.605546
-0.973950	-0.213562	1.655903
-0.926739	-0.092376	1.602329
-1.010582	-0.145295	1.502330
-0.923163	-0.131940	1.414276
-0.965683	-0.103791	1.307839
-1.043853	-0.237648	1.241706
-1.146555	-0.171669	1.241819
-1.221278	-0.220177	1.359690
-1.269866	-0.341610	1.332498
-1.355089	-0.285870	1.251085
-1.449900	-0.297208	1.389639
-1.583625	-0.265688	1.341678
-1.580164	-0.214186	1.476383
-1.487490	-0.104613	1.505967
-1.551052	-0.024276	1.404385
-1.551484	0.115877	1.434980
-1.387712	0.069676	1.355947
-1.316099	0.104267	1.448769
-1.327334	0.232255	1.400369
-1.252852	0.224186	1.301990
-1.299830	0.351227	1.216178
-1.359446	0.253007	1.126069
-1.484304	0.322171	1.147723
-1.516700	0.291684	0.992497
-1.630904	0.205703	0.973770
-1.653109	0.109570	1.047271
-1.549932	0.029546	0.988442
-1.623365	-0.071240	0.910314
-1.657797	-0.010985	0.806056
-1.590090	-0.016738	0.640851
-1.483548	0.079171	0.694099
-1.408929	-0.028674	0.676676
-1.356759	-0.105641	0.793387
-1.221563	-0.090847	0.800545
-1.211816	0.025557	0.922093
-1.112395	0.094035	0.883217
-1.107392	0.237571	0.825404
-1.191634	0.296943	0.736385
-1.185286	0.218379	0.634988
-1.047920	0.199068	0.555135
-1.058384	0.051406	0.510869
-0.929439	0.041466	0.614278
-0.947723	-0.119434	0.581614
-0.834273	-0.140502	0.463122
-0.698891	-0.121937	0.498929
-0.622576	-0.255480	0.453672
-0.514182	-0.206182	0.371292
-0.466009	-0.144722	0.497590
-0.406673	-0.270457	0.478328
-0.476689	-0.396527	0.532938
-0.523339	-0.283374	0.632242
-0.668659	-0.267712	0.702225
-0.713616	-0.243655	0.857019
-0.798583	-0.136610	0.838801
-0.694732	-0.041553	0.847116
-0.735546	0.061721	0.921154
-0.710924	-0.009508	1.047305
-0.580275	-0.043756	1.070688
-0.546814	-0.159804	1.160795
-0.477830	-0.214582	1.063854
-0.382262	-0.195234	0.962358
-0.286696	-0.302701	0.975432
-0.193815	-0.312395	0.831316
-0.069222	-0.360982	0.740564
-0.088476	-0.204881	0.723490
0.057067	-0.220286	0.794874
-0.025857	-0.271233	0.917622
-0.104496	-0.126761	1.000933
-0.085291	-0.072793	1.156993
-0.213111	-0.117746	1.231841
-0.265584	0.034845	1.249827
-0.286248	0.081477	1.100604
-0.371072	0.200047	1.024006
-0.275131	0.252298	0.951686
-0.163664	0.158792	0.849619
-0.117638	0.235580	0.747863
-0.118106	0.104073	0.710237
-0.257749	0.107832	0.730300
-0.386342	0.187361	0.757211
-0.435609	0.182936	0.616989
-0.303050	0.258140	0.530379
-0.244826	0.359976	0.457151
-0.239295	0.405998	0.594239
-0.391467	0.406051	0.586458
-0.539373	0.401078	0.655720
-0.628041	0.370454	0.550757
-0.595251	0.521155	0.519675
-0.588553	0.647855	0.619712
-0.740517	0.683024	0.642143
-0.850201	0.602064	0.632708
-0.877800	0.607523	0.794271
-0.789324	0.502947	0.851201
-0.659947	0.539252	0.938885
-0.647462	0.683568	0.951046
-0.706438	0.826336	0.918532
-0.660035	0.880055	1.036960
-0.806896	0.896274	1.027330
-0.902657	0.782592	1.051399
-0.853558	0.825877	1.189648
-0.771883	0.682416	1.205037
-0.874710	0.615646	1.247445
-0.828485	0.571168	1.371017
-0.855952	0.443653	1.321556
-0.742643	0.411051	1.235405
-0.678493	0.376174	1.372187
-0.557941	0.315954	1.347149
-0.531743	0.437525	1.332860
-0.452839	0.512819	1.463421
-0.484585	0.630700	1.559806
-0.489477	0.685772	1.435584
-0.344788	0.696215	1.372465
-0.378234	0.748817	1.235489
-0.326170	0.616554	1.205859
-0.228112	0.628387	1.038771
-0.240723	0.715264	0.938999
-0.280407	0.892865	0.864077
-0.171393	0.824095	0.752207
-0.027096	0.763637	0.819268
0.010833	0.835513	0.925552
0.056989	0.959082	0.814600
-0.059075	1.050774	0.868660
-0.038774	1.181162	0.737117
0.005249	1.252192	0.910841
0.166501	1.231490	0.891786
0.195021	1.374946	0.997120
0.088302	1.458824	0.878248
-0.039100	1.470011	1.014677
0.044723	1.412674	1.171671
-0.075519	1.269027	1.124622
0.076232	1.164932	1.126834
0.129849	0.999675	1.127403
0.106960	0.984327	1.329337
-0.024327	0.938613	1.265313
0.045827	0.771463	1.277368
0.026625	0.739429	1.440252
-0.000022	0.590979	1.386421
0.096126	0.519126	1.487582
-0.001476	0.449207	1.569395
-0.052372	0.347122	1.475410
0.086760	0.263698	1.487445
0.077328	0.241529	1.355723
0.232063	0.296991	1.305147
0.225388	0.239684	1.177510
0.151179	0.384969	1.149755
0.187249	0.396589	0.997443
0.319368	0.388932	1.007682
0.262400	0.542478	1.020021
0.322406	0.531246	1.150994
0.466209	0.601432	1.132863
0.560758	0.622872	1.272855
0.463656	0.672103	1.371407
0.598079	0.747970	1.387914
0.492545	0.855114	1.344998
0.438323	0.805061	1.210745
0.590613	0.782378	1.184854
0.623615	0.971006	1.157714
0.517343	1.102905	1.105226
0.614777	1.193764	1.209322
0.763098	1.164304	1.126824
0.665530	1.273659	1.015779
0.728556	1.129818	0.931543
0.561133	1.130622	0.872451
0.571756	0.937103	0.883162
0.545821	0.760742	0.835026
0.672274	0.715647	0.873198
0.678993	0.771439	0.714528
0.744277	0.871871	0.805635
0.653846	1.001570	0.683139
0.715438	1.170434	0.622637
0.643065	1.188431	0.461742
0.522445	1.240967	0.583293
0.467766	1.072469	0.518635
0.446114	0.985449	0.357518
0.321044	0.944824	0.433209
0.454310	0.863903	0.493018
0.363823	0.907384	0.633856
0.284966	0.751054	0.622381
0.351576	0.623391	0.614181
0.174271	0.572733	0.541857
0.260363	0.614706	0.378941
0.320525	0.561024	0.243517
0.417814	0.496237	0.361612
0.276635	0.352588	0.392329
0.237087	0.218654	0.411613
0.367960	0.234989	0.359781
0.417045	0.327625	0.546056
0.358237	0.265264	0.659364
0.472886	0.143427	0.627013
0.578771	0.225648	0.712296
0.634011	0.383913	0.678257
0.761695	0.297556	0.723703
0.795162	0.199407	0.573851
0.714540	0.135370	0.442134
0.699858	0.314081	0.441182
0.858145	0.391030	0.488108
0.941339	0.287124	0.337190
0.945206	0.420765	0.236636
0.783401	0.385049	0.173449
0.733606	0.550801	0.127064
0.703740	0.636899	0.251113
0.845302	0.695066	0.285332
0.835368	0.769743	0.149311
1.047074	0.773508	0.160288
1.102154	0.847623	0.000044
0.948817	0.970300	0.016758
1.090664	1.060377	0.119901
0.940357	1.015999	0.244979
1.119498	0.960906	0.342767
1.036904	0.846344	0.494342
1.050217	0.664954	0.549061
1.244863	0.741740	0.516188
1.308110	0.665396	0.355349
1.411643	0.842758	0.415556
1.434680	0.951746	0.230754
1.542634	0.765603	0.201536
1.681950	0.920260	0.227116
1.677738	0.803770	0.432855
1.879383	0.886548	0.421103
1.751857	1.014791	0.557411
1.819764	1.154084	0.387352
1.595601	1.175824	0.384583
1.670927	1.352283	0.485687
1.675190	1.244406	0.675332
1.494830	1.343956	0.678302
1.364488	1.296933	0.494648
1.259490	1.233270	0.652653
1.405530	1.081177	0.623313
1.497426	0.951308	0.786941
1.322930	0.963816	0.827197
1.462800	1.126977	0.964992
1.284487	1.160113	0.997251
1.198833	0.989244	1.076569
1.346651	0.901637	1.132695
1.452392	0.999104	1.248120
1.296088	1.041491	1.315250
1.323380	0.866090	1.356489
1.171905	0.830817	1.272757
1.129229	0.659663	1.288060
1.075160	0.708879	1.144438
1.184774	0.610857	1.047865
1.370349	0.606821	1.076199
1.514472	0.641196	0.950279
1.578226	0.663650	1.128594
1.605019	0.486452	1.225713
1.577710	0.578762	1.373571
1.773705	0.514154	1.372741
1.809026	0.731318	1.304306
1.981507	0.640416	1.328907
1.894107	0.570248	1.157096
1.882748	0.719072	1.008183
2.071704	0.698895	1.030033
2.081430	0.498518	1.034986
1.986332	0.547870	0.858522
1.825386	0.451069	0.932731
1.891378	0.292108	1.070443
1.720206	0.228227	0.992594
1.828348	0.230437	0.820633
1.972409	0.110573	0.881379
2.093273	0.241824	0.786105
1.990675	0.332709	0.614309
1.939813	0.133717	0.558458
1.860095	0.312238	0.365204
1.727473	0.370644	0.566902
1.635835	0.185058	0.596605
1.501171	0.052613	0.599591
1.366931	0.101702	0.523664
1.412241	0.261767	0.572040
1.419738	0.224868	0.753402
1.244895	0.210447	0.768128
1.130200	0.055016	0.810836
1.210001	-0.069358	0.773565
1.255584	-0.069388	0.954574
1.433582	-0.016000	0.947822
1.373029	0.127412	1.070040
1.230352	0.226371	1.065757
1.063226	0.123786	1.112739
1.147472	0.152167	1.276806
1.069895	0.295646	1.365303
0.975869	0.175293	1.446367
1.001613	0.299990	1.547905
1.175205	0.307413	1.525731
1.212121	0.134987	1.516776
1.352613	0.202218	1.410813
1.390572	0.036898	1.350163
1.546164	-0.016628	1.492995
1.525599	-0.126844	1.369062
1.352574	-0.189603	1.296244
1.176637	-0.192083	1.326788
1.270966	-0.209960	1.515031
1.394137	-0.253050	1.629473
1.260329	-0.161540	1.724547
1.091102	-0.136388	1.676852
1.123357	-0.314093	1.690019
1.015374	-0.316489	1.540033
0.806055	-0.325904	1.607136
0.782891	-0.351045	1.473800
0.819078	-0.152711	1.461174
0.847122	-0.219046	1.292682
0.704315	-0.141506	1.269474
0.610449	-0.315189	1.245405
0.575243	-0.305575	1.077414
0.687383	-0.294850	0.940015
0.828505	-0.373490	0.941179
0.727974	-0.476887	0.969545
0.679578	-0.596981	1.105535
0.790650	-0.665564	1.073702
0.875139	-0.631336	1.248482
0.985333	-0.583835	1.152853
1.111555	-0.576632	1.231753
1.343716	-0.591209	1.304456
1.485865	-0.548171	1.430929
1.569028	-0.649586	1.301709
1.593573	-0.776787	1.446085
1.453995	-0.787481	1.583902
1.281577	-0.741017	1.545185
1.333900	-0.846340	1.394339
1.379640	-1.029729	1.424677
1.218596	-1.038726	1.531345
1.203375	-1.112725	1.355975
1.108667	-0.935302	1.365381
1.093909	-1.000775	1.181521
1.192257	-0.876325	1.158984
1.367693	-1.012717	1.139360
1.566243	-1.018972	1.132019
1.587842	-0.856941	1.040213
1.571887	-0.973829	0.886866
1.407954	-0.881740	0.911270
1.349120	-0.662227	0.949354
1.225978	-0.635713	0.840410
1.333757	-0.512041	0.791107
1.476069	-0.641104	0.713906
1.553013	-0.499812	0.775544
1.624095	-0.449023	0.944670
1.739104	-0.593282	0.889823
1.944890	-0.661357	0.838110
1.964442	-0.863079	0.904436
2.157960	-0.776079	0.935464
2.030005	-0.746221	1.117818
2.168287	-0.573330	1.114894
1.980269	-0.480774	1.127735
2.002335	-0.389532	0.899619
2.167296	-0.333172	0.972285
2.260934	-0.467714	0.793882
2.023407	-0.443603	0.526233
2.150344	-0.628176	0.542028
1.933856	-0.703752	0.511914
2.043614	-0.888883	0.443178
2.226639	-0.797699	0.309177
2.072020	-0.890282	0.166899
2.168387	-0.710047	0.046102
2.195561	-0.526660	0.179802
1.987999	-0.616067	0.231803
1.901909	-0.412869	0.166273
1.889475	-0.524498	-0.026710
1.801023	-0.717291	0.018896
1.724003	-0.781303	0.207168
1.683806	-0.581510	0.264273
1.549965	-0.558763	0.092191
1.407597	-0.628038	0.173267
1.487963	-0.392273	0.227611
1.361174	-0.434318	0.329227
1.221007	-0.311923	0.100575
1.129849	-0.383949	0.277672
0.952190	-0.342754	0.304397
0.871910	-0.414675	0.439558
0.724318	-0.428669	0.424870
0.692004	-0.477877	0.283592
0.615075	-0.592032	0.275942
0.775544	-0.645032	0.243726
0.814775	-0.760733	0.191160
0.977405	-0.714962	0.195354
1.054862	-0.847076	0.167495
1.144889	-0.847561	0.325621
1.121237	-0.783541	0.457284
0.956440	-0.751533	0.484438
0.957120	-0.932352	0.468375
0.995136	-0.953888	0.620779
0.844453	-0.901528	0.627918
0.713170	-0.814395	0.609201
0.645272	-0.889296	0.483404
0.498401	-0.887142	0.553047
0.383928	-0.989172	0.520308
0.424202	-0.981419	0.675159
0.576258	-1.091697	0.645268
0.618660	-1.200877	0.525223
0.552853	-1.294591	0.645531
0.653507	-1.274028	0.774848
0.741163	-1.422891	0.707171
0.871526	-1.288558	0.675342
0.971544	-1.345137	0.763786
0.944741	-1.457574	0.630098
1.010686	-1.370640	0.504991
0.937396	-1.483852	0.396490
0.795768	-1.465163	0.373726
0.859298	-1.299239	0.294714
0.813359	-1.320479	0.139790
0.978454	-1.360061	0.132725
1.044075	-1.214764	0.113556
1.204875	-1.304608	0.081930
1.224272	-1.253927	0.241178
1.434767	-1.222638	0.302224
1.616601	-1.202206	0.360697
1.616584	-1.276241	0.176227
1.621980	-1.429569	0.304864
1.445382	-1.470082	0.235109
1.424067	-1.440576	0.438947
1.388474	-1.637143	0.490362
1.307485	-1.815824	0.362221
1.231165	-2.111829	0.274103
1.564928	-2.537725	0.357535
1.492841	-2.308672	0.814225
2.035474	-2.783031	0.791019
2.353548	-2.592548	0.129398
1.992880	-1.948114	0.115317
1.864175	-1.929905	-0.137951
6.086857	-1.305222	-1.703952
3.068074	-1.480192	-0.866741
2.730220	-1.410822	-0.790431
-2.595490	3.522913	-2.658010
-1.705658	3.448437	-2.987398
1.363212	-1.068753	-1.046466
1.605721	-1.155195	-1.226861
1.577457	6.260290	0.413996
1.588791	2.251533	-1.808499
-1.040072	-2.746970	-1.530227
-0.633925	-2.442080	-1.118387
-0.629380	-2.065532	-0.515878
-0.368292	-1.772390	-0.471550
-0.391818	-1.573208	-0.568792
-0.497460	-1.577719	-0.701341
0.806446	-2.213576	-0.558271
0.953219	-1.863023	-0.825522
1.023815	-1.621424	-1.037096
0.816382	-1.468792	-0.793736
0.653600	-1.441925	-0.932873
0.534098	-1.567657	-0.839521
0.469086	-1.580185	-1.000635
0.365803	-1.933888	-1.117423
0.192868	-1.943728	-0.753139
0.118080	-2.303678	-0.652281
0.253143	-3.134995	-1.358523
0.089675	-2.588717	-1.557342
0.720512	-2.331417	-1.725400
0.907443	-2.283627	-1.169595
0.082640	-1.490733	-0.161275
-0.065589	-1.402521	-0.201387
-0.080290	-1.261808	-0.042983
-0.155249	-1.141456	-0.132446
-0.084922	-1.040907	-0.057199
0.026884	-1.004603	-0.168223
0.175842	-1.020327	-0.152564
0.236792	-0.925777	-0.228132
0.260088	-1.039248	-0.305357
0.366917	-1.079917	-0.411975
0.406639	-1.219163	-0.440222
0.465288	-1.163055	-0.577838
0.352481	-1.257293	-0.645298
0.334194	-1.133153	-0.723270
0.194699	-1.101979	-0.628558
0.071907	-1.089007	-0.522239
-0.106819	-1.127525	-0.576326
-0.092125	-0.960241	-0.595511
-0.149912	-0.933717	-0.462495
-0.279966	-0.890665	-0.473707
-0.241234	-0.780901	-0.484918
-0.224635	-0.762010	-0.358570
-0.277504	-0.676082	-0.184714
-0.206444	-0.595046	-0.260697
-0.057244	-0.627466	-0.206435
0.008123	-0.551797	-0.287295
0.034715	-0.597863	-0.416314
0.125465	-0.649235	-0.489096
0.239152	-0.684170	-0.543178
0.394938	-0.731530	-0.610384
0.483873	-0.815289	-0.723326
0.635413	-0.839958	-0.652437
0.672463	-0.817658	-0.812933
0.660944	-0.678910	-0.799429
0.854559	-0.771300	-0.715221
0.881901	-0.695209	-0.868633
0.933121	-0.589084	-0.751377
0.764607	-0.550583	-0.662433
0.746440	-0.575491	-0.499168
0.758902	-0.427294	-0.517501
0.614020	-0.472893	-0.588747
0.462604	-0.466240	-0.559355
0.445308	-0.467724	-0.421868
0.442997	-0.336652	-0.389542
0.320868	-0.325506	-0.340022
0.233860	-0.331415	-0.455056
0.194618	-0.217499	-0.510637
0.299036	-0.057607	-0.524929
0.384511	-0.107924	-0.671258
0.528779	-0.112351	-0.638974
0.537962	-0.192634	-0.752659
0.578741	-0.046422	-0.821145
0.743557	-0.075255	-0.792343
0.810716	-0.211713	-0.821240
0.861131	-0.117506	-0.961444
0.986025	-0.101813	-1.116126
0.873396	0.037820	-1.117616
0.844711	-0.058328	-1.251655
0.685608	-0.001229	-1.247284
0.644111	0.018975	-1.087573
0.683696	-0.123357	-1.110211
0.805183	-0.238407	-1.146327
0.799742	-0.377447	-1.076956
0.658298	-0.370481	-1.043760
0.595517	-0.494965	-1.090808
0.696353	-0.509466	-1.224359
0.696376	-0.382306	-1.308781
0.539173	-0.419036	-1.349769
0.480370	-0.331646	-1.218582
0.374624	-0.407566	-1.149364
0.360590	-0.306735	-1.044636
0.324106	-0.409731	-0.951011
0.221695	-0.397810	-0.848874
0.151094	-0.527074	-0.885014
0.249260	-0.622392	-0.948639
0.181192	-0.644338	-1.077566
0.060136	-0.691983	-1.044155
0.143539	-0.770233	-0.977673
0.242301	-0.794749	-1.086296
0.397120	-0.774921	-1.121535
0.399123	-0.709578	-1.267574
0.463377	-0.866492	-1.346850
0.594289	-0.767723	-1.371138
0.539416	-0.815978	-1.526707
0.454491	-0.675821	-1.487292
0.323511	-0.775631	-1.553446
0.225803	-0.725318	-1.415798
0.119803	-0.865229	-1.408735
0.067097	-0.934094	-1.279601
-0.072356	-0.999846	-1.198832
-0.104520	-0.965280	-1.322168
-0.117296	-0.815197	-1.291578
-0.228137	-0.705512	-1.199848
-0.295971	-0.814589	-1.180232
-0.322136	-0.780839	-1.330795
-0.270538	-0.773672	-1.468241
-0.283729	-0.628611	-1.395135
-0.139290	-0.622585	-1.417006
-0.138366	-0.577749	-1.622680
-0.023180	-0.670304	-1.626776
0.018851	-0.535014	-1.499930
0.157322	-0.465847	-1.573672
0.268693	-0.453236	-1.670824
0.237080	-0.444377	-1.813467
0.093973	-0.443803	-1.771705
0.034656	-0.319121	-1.696141
0.181602	-0.245570	-1.785629
0.336657	-0.229743	-1.757269
0.277892	-0.235041	-1.614333
0.286582	-0.186697	-1.466261
0.326879	-0.076139	-1.554204
0.197220	-0.046734	-1.636575
0.119289	-0.130656	-1.535244
0.021963	-0.240903	-1.434789
-0.079704	-0.139618	-1.462647
-0.213452	-0.200032	-1.455118
-0.191786	-0.316352	-1.385597
-0.266771	-0.208618	-1.291749
-0.143492	-0.163000	-1.246161
-0.036240	-0.277171	-1.202436
-0.147928	-0.340334	-1.124737
-0.209452	-0.258352	-1.016206
-0.102954	-0.277276	-0.935763
-0.084978	-0.120049	-0.844146
-0.070005	-0.085095	-0.971469
0.056803	-0.108919	-0.959382
0.105147	-0.040231	-1.073385
0.172169	-0.047324	-1.211706
0.254873	0.060526	-1.185810
0.116145	0.134907	-1.161088
0.083934	0.120876	-1.288707
-0.066475	0.107547	-1.234805
-0.124644	0.140642	-1.108167
-0.264074	0.137235	-1.054420
-0.182189	0.146242	-0.936201
-0.143517	0.280712	-0.931675
-0.064029	0.282713	-0.812378
0.063368	0.234898	-0.893721
0.146882	0.311977	-0.793270
0.184145	0.334157	-0.920661
0.097013	0.495021	-0.905564
0.010991	0.457508	-1.025309
-0.042488	0.617395	-1.030792
0.079994	0.617664	-1.079547
0.243136	0.549655	-1.121742
0.164526	0.465388	-1.206060
-0.013300	0.447813	-1.281584
-0.151998	0.407989	-1.351641
-0.118308	0.545815	-1.375344
0.011396	0.435984	-1.520723
0.164263	0.516559	-1.490120
0.208162	0.361034	-1.561105
0.346560	0.460573	-1.541457
0.298349	0.616200	-1.607463
0.285771	0.494457	-1.742183
0.107327	0.508991	-1.729081
0.143906	0.681002	-1.785786
0.053663	0.714824	-1.632961
-0.059751	0.771033	-1.777747
-0.166901	0.730161	-1.635958
-0.199323	0.557018	-1.679450
-0.270102	0.649815	-1.810724
-0.097013	0.569098	-1.852183
0.007188	0.454959	-1.989499
-0.167560	0.437284	-2.066252
-0.109275	0.258973	-2.112339
0.022836	0.187928	-1.992739
-0.126936	0.097753	-1.941535
-0.114629	0.265454	-1.851958
-0.290063	0.291532	-1.931570
-0.301992	0.260388	-1.757855
-0.296907	0.156937	-1.600702
-0.444461	0.198606	-1.559608
-0.481402	0.047213	-1.640630
-0.478945	0.006568	-1.815933
-0.381204	-0.110657	-1.757538
-0.507418	-0.181287	-1.831230
-0.399999	-0.120137	-1.959354
-0.568382	-0.080344	-2.010204
-0.474829	0.070957	-2.059980
-0.639006	0.082123	-2.148417
-0.577160	0.250161	-2.089365
-0.745124	0.277048	-2.020886
-0.655551	0.220105	-1.876373
-0.772573	0.080845	-1.956413
-0.890441	0.130660	-1.833439
-0.798574	0.052594	-1.704241
-0.802439	-0.084271	-1.789833
-0.987746	-0.144901	-1.905822
-1.042571	-0.100075	-1.740015
-0.971249	-0.261230	-1.706801
-0.950906	-0.212872	-1.506727
-1.095991	-0.245290	-1.503857
-1.045061	-0.395510	-1.415193
-1.113228	-0.466728	-1.556622
-0.852932	-0.672060	-1.603744
-0.790878	-0.526674	-1.457658
-0.771687	-0.436841	-1.599249
-0.648797	-0.386042	-1.507845
-0.740131	-0.317737	-1.367093
-0.679672	-0.237284	-1.251438
-0.661866	-0.378764	-1.220467
-0.795219	-0.369291	-1.182662
-0.705224	-0.295421	-1.060818
-0.701901	-0.393947	-0.964654
-0.608022	-0.333022	-0.931326
-0.658591	-0.259779	-0.825556
-0.606869	-0.144820	-0.790796
-0.505975	-0.185031	-0.753590
-0.486282	-0.257866	-0.646987
-0.449191	-0.240095	-0.534308
-0.528525	-0.139614	-0.502865
-0.650606	-0.205680	-0.520987
-0.670259	-0.288544	-0.398217
-0.645741	-0.408031	-0.445023
-0.668443	-0.440140	-0.559538
-0.782801	-0.488304	-0.497898
-0.858312	-0.523003	-0.583385
-0.880743	-0.410444	-0.638234
-0.968010	-0.359758	-0.530618
-0.931245	-0.257249	-0.500579
-0.890996	-0.191060	-0.593153
-0.978938	-0.103696	-0.565931
-1.049678	-0.148680	-0.655716
-1.190596	-0.184674	-0.644548
-1.193736	-0.306809	-0.671733
-1.213620	-0.346632	-0.854259
-1.094993	-0.286589	-0.866284
-1.086643	-0.244456	-0.983932
-1.061464	-0.112741	-0.943805
-1.185795	-0.080898	-0.944643
-1.186667	-0.101909	-1.105474
-1.073977	-0.010805	-1.162599
-1.141810	0.128512	-1.185281
-1.189740	0.112354	-1.330145
-1.163298	0.170322	-1.462352
-1.135427	0.297251	-1.376829
-1.018277	0.264091	-1.452494
-0.988734	0.130675	-1.383811
-0.949392	0.224249	-1.272504
-0.837562	0.114353	-1.237191
-0.744485	0.197979	-1.143423
-0.839207	0.172130	-1.043345
-0.981147	0.218154	-1.009703
-0.918474	0.315927	-0.950970
-0.907676	0.183978	-0.890317
-0.778953	0.094871	-0.869718
-0.683250	0.188164	-0.848308
-0.643327	0.192951	-0.720953
-0.742166	0.322126	-0.737492
-0.633015	0.373796	-0.782351
-0.673063	0.453657	-0.881126
-0.567762	0.394188	-0.957475
-0.614839	0.498728	-1.084026
-0.566326	0.651547	-1.123901
-0.546000	0.608561	-1.267247
-0.621055	0.739216	-1.265809
-0.720937	0.642479	-1.216822
-0.800592	0.506021	-1.193664
-0.777084	0.493884	-1.324232
-0.826841	0.513003	-1.488773
-0.684481	0.551298	-1.489188
-0.729102	0.704770	-1.503692
-0.878511	0.691202	-1.400862
-0.886784	0.875538	-1.445634
-0.917161	0.826211	-1.605654
-1.051743	0.708863	-1.617536
-1.106211	0.867957	-1.563568
-1.124961	0.746848	-1.431337
-1.273172	0.720883	-1.488112
-1.305866	0.883362	-1.462062
-1.289239	0.851859	-1.301400
-1.162192	0.967752	-1.367711
-1.077566	0.877848	-1.270347
-1.151210	0.808980	-1.063446
-1.111046	0.875982	-0.956046
-1.100191	0.744698	-0.913213
-0.982611	0.776106	-1.006108
-1.026755	0.638949	-1.034714
-1.050230	0.704550	-1.168928
-1.185170	0.620891	-1.185278
-1.246647	0.531255	-1.058519
-1.362613	0.478378	-1.166588
-1.415376	0.607526	-1.192183
-1.432896	0.632961	-1.037923
-1.466707	0.740808	-0.968686
-1.594585	0.676472	-1.034853
-1.607379	0.623294	-0.887553
-1.711094	0.536961	-0.901939
-1.672053	0.520361	-1.043679
-1.556799	0.462664	-0.986148
-1.462659	0.466386	-0.828637
-1.562157	0.341936	-0.771536
-1.486062	0.273348	-0.855222
-1.348248	0.261192	-0.839296
-1.406348	0.201927	-0.722840
-1.438574	0.198197	-0.586775
-1.250490	0.216592	-0.596316
-1.211349	0.341255	-0.624815
-1.205492	0.476861	-0.736007
-1.141757	0.539823	-0.643273
-1.266097	0.647778	-0.650360
-1.348086	0.540591	-0.538575
-1.436779	0.455075	-0.430717
-1.359361	0.545686	-0.398747
-1.203366	0.475675	-0.378919
-1.204178	0.354271	-0.310782
-1.170906	0.378585	-0.178904
-1.276473	0.433269	-0.143531
-1.263918	0.340089	-0.025477
-1.360136	0.293954	-0.103321
-1.264893	0.164135	-0.085976
-1.310672	0.136462	-0.215551
-1.165765	0.110139	-0.242556
-1.152900	0.000899	-0.181834
-1.008562	0.048236	-0.115351
-0.895258	0.000149	-0.148152
-0.895253	0.047037	-0.043708
-0.930959	0.189121	-0.084590
-0.898953	0.214122	-0.229458
-0.894444	0.261041	-0.357938
-0.798500	0.182240	-0.341380
-0.788582	0.313326	-0.274334
-0.749343	0.346362	-0.148565
-0.643303	0.307627	-0.084744
-0.617504	0.203922	-0.146725
-0.552831	0.235600	-0.279454
-0.538002	0.352431	-0.247773
-0.469036	0.471413	-0.198610
-0.360795	0.398900	-0.243730
-0.358272	0.523151	-0.285829
-0.444839	0.460605	-0.382100
-0.472230	0.579687	-0.435262
-0.588384	0.533311	-0.386412
-0.568610	0.671837	-0.280617
-0.539822	0.804167	-0.319412
-0.491554	0.763738	-0.198376
-0.618502	0.746439	-0.149653
-0.727532	0.742583	-0.222369
-0.812703	0.639776	-0.152293
-0.874980	0.723604	-0.107669
-0.894115	0.717171	-0.229182
-0.908690	0.641385	-0.357198
-0.886196	0.799009	-0.416281
-0.846579	0.710545	-0.517324
-0.800400	0.840098	-0.598591
-0.670672	0.811330	-0.612156
-0.685889	0.970617	-0.668211
-0.719621	0.944815	-0.818216
-0.560308	0.942557	-0.820034
-0.603085	1.050846	-0.918205
-0.565627	1.148033	-0.780170
-0.703553	1.236350	-0.844936
-0.604476	1.378339	-0.835334
-0.598041	1.328947	-1.004833
-0.754505	1.290003	-1.064139
-0.752055	1.457311	-1.013891
-0.820661	1.464663	-0.855139
-0.939952	1.393366	-0.945612
-0.942927	1.228151	-0.944438
-0.923284	1.284670	-0.800515
-0.968784	1.142380	-0.692897
-0.965286	1.099785	-0.546328
-0.860529	1.193224	-0.583638
-0.776684	1.332092	-0.568814
-0.857872	1.471742	-0.561504
-0.936693	1.362629	-0.490465
-0.794605	1.251023	-0.363705
-0.858851	1.155294	-0.293859
-1.011800	1.213611	-0.266023
-0.954309	1.260277	-0.129809
-0.968812	1.405737	-0.207366
-1.116273	1.377935	-0.174197
-1.221350	1.024001	0.043174
-1.126809	0.968567	-0.053149
-1.216255	1.041301	-0.152235
-1.315515	0.943444	-0.246498
-1.260088	1.017718	-0.352975
-1.393993	1.119125	-0.353378
-1.484728	1.270908	-0.284704
-1.783812	1.139553	-0.380521
-1.596941	1.055445	-0.385531
-1.514757	1.150879	-0.519471
-1.462068	1.006616	-0.531085
-1.304228	1.069362	-0.579358
-1.334182	1.114211	-0.732999
-1.287507	1.237115	-0.843412
-1.450672	1.270959	-0.802549
-1.438092	1.335533	-0.983880
-1.470743	1.477574	-0.869760
-1.282428	1.480307	-0.949077
-1.334827	1.679013	-0.922467
-1.274902	1.549822	-0.690061
-1.267291	1.392672	-0.616610
