4.260900	4.784365	-3.755861
2.039905	-1.158617	7.026733
-1.846513	-0.275206	1.052142
-1.267571	-0.067573	0.700292
-1.212959	-0.017789	0.574674
-1.096086	0.001246	0.633617
-1.024083	0.084823	0.530058
-0.999729	0.245688	0.545625
-1.120861	0.280139	0.526104
-1.215949	0.260236	0.595698
-1.286783	0.528174	0.649485
-1.306176	0.363164	0.760973
-1.343544	0.477134	0.703698
-1.232585	0.456968	0.682927
-1.124533	0.389042	0.742825
-1.070870	0.348452	0.871268
-1.166416	0.333639	0.964524
-1.080560	0.260548	1.009804
-1.033388	0.376410	1.025098
-1.084720	0.352365	1.141566
-1.198219	0.398747	1.115612
-1.113173	0.492062	1.108385
-1.178468	0.504942	1.000554
-1.068612	0.523270	0.944940
-1.004775	0.553001	0.815615
-0.959139	0.560086	0.700107
-1.028612	0.644761	0.634818
-1.114177	0.731340	0.584740
-1.232731	0.748448	0.555392
-1.231999	0.732008	0.667218
-1.251660	0.611607	0.600606
-1.158863	0.625262	0.446604
-1.043163	0.561375	0.370120
-1.119345	0.635578	0.316462
-1.098591	0.765361	0.341774
-0.981314	0.748502	0.278363
-0.914272	0.741073	0.377238
-0.807722	0.787520	0.318554
-0.851237	0.880169	0.401281
-0.874221	0.978355	0.327605
-0.982693	1.021321	0.376357
-0.892915	1.045263	0.471628
-0.995468	1.085218	0.577309
-1.002729	0.984430	0.577634
-0.886266	0.969553	0.679830
-0.944640	1.022221	0.788915
-0.987657	0.923059	0.774546
-0.866804	0.851306	0.813624
-0.910243	0.821336	0.939972
-0.874401	0.914054	1.054185
-0.983045	0.882261	1.071809
-0.942530	0.929998	1.214934
-1.114250	0.986196	1.535713
-0.873640	0.764530	1.363014
-0.947306	0.651568	1.307363
-0.874553	0.681056	1.197492
-0.766595	0.620545	1.305536
-0.801102	0.529123	1.213807
-0.683520	0.579847	1.174280
-0.703324	0.701458	1.153103
-0.744922	0.644053	1.036929
-0.678275	0.698140	0.951443
-0.697956	0.638887	0.825357
-0.610194	0.689002	0.749165
-0.690325	0.687301	0.643633
-0.598751	0.652219	0.564119
-0.551040	0.798604	0.512465
-0.453305	0.911504	0.597334
-0.553982	0.977050	0.641253
-0.511663	0.962540	0.742270
-0.567921	1.043258	0.821949
-0.591793	1.150238	0.784823
-0.596132	1.157566	0.898961
-0.519197	1.236475	0.867206
-0.450996	1.137717	0.887617
-0.379755	1.187211	0.822226
-0.338296	1.115681	0.756639
-0.320721	1.187932	0.641487
-0.424511	1.200495	0.624644
-0.414244	1.324888	0.658139
-0.513797	1.360007	0.610746
-0.442788	1.380257	0.526284
-0.537021	1.296656	0.461045
-0.635430	1.360322	0.418522
-0.537382	1.374651	0.335731
-0.576004	1.266767	0.283978
-0.455687	1.251568	0.274195
-0.462997	1.211404	0.159795
-0.512528	1.092383	0.244493
-0.459740	1.084363	0.333752
-0.429955	0.984354	0.280151
-0.333867	1.029721	0.268450
-0.335161	0.992647	0.132878
-0.214527	0.995246	0.157098
-0.230248	1.114962	0.119376
-0.116196	1.148350	0.188067
-0.129866	1.254553	0.248804
-0.164872	1.212667	0.344873
-0.092305	1.304608	0.389302
-0.063760	1.223800	0.484240
0.040130	1.251976	0.478671
0.127494	1.184286	0.367885
0.133929	1.099851	0.465457
0.112451	1.030875	0.370504
-0.011302	1.008869	0.405762
-0.021607	0.892905	0.382414
-0.148492	0.898306	0.465558
-0.102087	0.832931	0.542223
-0.049325	0.910966	0.641201
0.046861	0.846131	0.646742
0.113018	0.927816	0.681336
0.050135	0.999599	0.789898
0.129931	0.948088	0.884641
0.073213	0.814209	0.883983
-0.040011	0.886287	0.934453
-0.008759	0.848611	1.072021
-0.117363	0.892527	1.110719
-0.226954	0.885285	1.188761
-0.178218	0.861002	1.297922
-0.150227	0.751802	1.243178
-0.239100	0.736679	1.315330
-0.347135	0.796746	1.273985
-0.297236	0.736013	1.166936
-0.231846	0.729203	1.048164
-0.298579	0.791760	0.938577
-0.319371	0.677165	0.908435
-0.218088	0.702948	0.837823
-0.240125	0.621853	0.759835
-0.118775	0.581764	0.789364
-0.137819	0.515394	0.889276
-0.028132	0.510935	0.960318
-0.099451	0.465314	1.043681
-0.214848	0.454477	1.086249
-0.206719	0.407207	1.202527
-0.336247	0.378341	1.274015
-0.465367	0.341993	1.261539
-0.425721	0.300830	1.378973
-0.463256	0.192600	1.299423
-0.334438	0.220064	1.282318
-0.324442	0.229457	1.126318
-0.195740	0.215374	1.062025
-0.269227	0.172006	0.955653
-0.225337	0.289977	0.902261
-0.303389	0.269027	0.784639
-0.404850	0.378410	0.793121
-0.459572	0.380946	0.889268
-0.528705	0.280528	0.975881
-0.518475	0.166347	0.961084
-0.616609	0.193223	1.017133
-0.641029	0.246934	0.909635
-0.586262	0.271669	0.794479
-0.659429	0.210113	0.716623
-0.670581	0.079651	0.799835
-0.587999	0.009762	0.860380
-0.610645	-0.033904	0.748338
-0.535221	0.069329	0.712335
-0.468124	0.138355	0.604880
-0.526196	0.084069	0.509608
-0.566518	0.209024	0.500754
-0.517436	0.334760	0.491393
-0.427054	0.310133	0.387419
-0.328625	0.316519	0.462419
-0.344096	0.457621	0.462321
-0.362288	0.492826	0.339865
-0.245715	0.462643	0.263966
-0.180718	0.538534	0.343483
-0.098540	0.435793	0.382729
-0.090384	0.449092	0.498360
-0.025103	0.541694	0.440401
0.092854	0.501684	0.477243
0.083535	0.503681	0.343676
0.102718	0.363525	0.384594
0.149736	0.356434	0.282051
0.058995	0.332705	0.206705
0.115859	0.227012	0.195677
0.057467	0.186098	0.301395
-0.024681	0.141359	0.210026
-0.122117	0.206436	0.199253
-0.126486	0.156982	0.297585
-0.236865	0.057498	0.299688
-0.191891	-0.046974	0.229254
-0.248028	-0.087574	0.328904
-0.125295	-0.096658	0.395658
-0.086495	-0.005726	0.480222
-0.207887	-0.020224	0.515263
-0.245138	-0.157393	0.603258
-0.336005	-0.222352	0.643575
-0.428010	-0.330191	0.726905
-0.298288	-0.394851	0.711631
-0.209071	-0.303770	0.787589
-0.163566	-0.381719	0.861786
-0.299879	-0.347939	0.925752
-0.264628	-0.466429	0.983325
-0.414219	-0.527891	0.971333
-0.390814	-0.467977	1.123890
-0.474087	-0.351089	1.096836
-0.553013	-0.468726	1.181554
-0.514137	-0.356229	1.285063
-0.436986	-0.496387	1.325119
-0.360560	-0.365249	1.380759
-0.271872	-0.427041	1.258080
-0.298965	-0.286086	1.186408
-0.288374	-0.170183	1.086411
-0.119520	-0.134006	1.059756
-0.186412	-0.105098	0.945402
-0.043249	-0.042245	0.912552
-0.034927	-0.081662	0.772853
0.066686	0.009256	0.779903
-0.006550	0.107928	0.715587
0.061910	0.199894	0.771512
0.087734	0.237163	0.650859
0.192807	0.135047	0.647392
0.258450	0.225125	0.694920
0.346624	0.141470	0.777763
0.284293	0.075777	0.858814
0.279195	0.211041	0.907761
0.345425	0.156592	1.015931
0.283755	0.234653	1.073847
0.186722	0.147532	1.036063
0.244095	0.045371	1.078972
0.148915	0.026656	1.179413
0.248516	0.029915	1.292595
0.257231	0.031802	1.420370
0.143082	0.104299	1.383164
0.111472	-0.012607	1.459471
0.050683	-0.028041	1.333390
0.167947	-0.100873	1.323775
0.146804	-0.222364	1.452028
0.003743	-0.274235	1.474276
0.087435	-0.308494	1.600038
-0.003337	-0.432278	1.550652
0.143522	-0.478834	1.569387
0.148770	-0.418146	1.436198
0.064046	-0.537786	1.388616
0.040785	-0.478281	1.236195
0.078648	-0.418875	1.076993
0.113384	-0.298771	1.071566
0.031615	-0.306801	1.194523
0.156933	-0.355696	1.216007
0.228900	-0.504435	1.229957
0.309959	-0.592988	1.342370
0.409180	-0.482752	1.397328
0.444699	-0.533398	1.257105
0.407029	-0.374462	1.245556
0.453489	-0.212941	1.257015
0.361838	-0.218670	1.149464
0.492188	-0.255056	1.100946
0.446073	-0.395849	1.063988
0.331357	-0.343322	0.974774
0.326543	-0.227863	0.913033
0.465064	-0.222326	0.823409
0.431038	-0.383772	0.783943
0.366006	-0.504521	0.755492
0.251782	-0.412725	0.772328
0.270745	-0.269982	0.669087
0.280830	-0.178699	0.578012
0.364887	-0.272620	0.569627
0.260822	-0.421269	0.552085
0.136435	-0.382277	0.585154
0.145319	-0.331664	0.442412
0.107625	-0.471634	0.424119
-0.042375	-0.478553	0.437873
0.013181	-0.563896	0.545256
0.009184	-0.678178	0.427593
0.142593	-0.666413	0.345785
0.179716	-0.674325	0.503393
0.104270	-0.817853	0.495109
-0.017495	-0.817055	0.622111
0.093892	-0.901501	0.676625
0.166773	-0.774990	0.740926
0.073453	-0.656904	0.811890
-0.026600	-0.733769	0.874877
0.085396	-0.773945	0.960916
0.019554	-0.896001	0.933745
0.048833	-0.904793	1.123003
0.004266	-1.061567	1.066014
0.114994	-1.065763	1.198934
0.183317	-1.151701	1.065291
0.204415	-1.012297	0.980306
0.282575	-0.942757	1.144489
0.319671	-0.793523	1.043711
0.393072	-0.785832	0.896364
0.493308	-0.880087	1.038523
0.472204	-1.005191	0.927124
0.621945	-1.019340	1.038598
0.511638	-1.121850	1.153306
0.545328	-1.228455	0.996982
0.615607	-1.303687	1.144314
0.762013	-1.214802	1.029137
0.849509	-1.111877	1.155173
0.842294	-1.288713	1.234152
0.697150	-1.251244	1.361941
0.867010	-1.147675	1.401614
0.732696	-1.097604	1.525676
0.573439	-1.050917	1.427346
0.704794	-1.000731	1.316272
0.847633	-0.896659	1.406577
0.700706	-0.825393	1.477107
0.651381	-0.803207	1.298231
0.826418	-0.791184	1.180491
0.740710	-0.658188	1.158968
0.797227	-0.595741	1.353800
0.926108	-0.589731	1.263253
0.843938	-0.433988	1.168737
0.829575	-0.313515	1.273302
0.963129	-0.378424	1.355529
0.991407	-0.229573	1.320675
1.037481	-0.314933	1.195436
0.935427	-0.229830	1.113111
0.836195	-0.146096	1.023358
0.823788	-0.283106	0.967813
0.948069	-0.256262	0.875315
1.034872	-0.394738	0.935694
1.004257	-0.562213	0.973493
1.130051	-0.501494	1.060326
1.304239	-0.478529	1.086063
1.297171	-0.498402	0.925336
1.265338	-0.662140	1.014629
1.187507	-0.753060	1.160142
1.334492	-0.683414	1.224165
1.357363	-0.843738	1.132733
1.499014	-0.739258	1.049228
1.516449	-0.919503	1.043415
1.546527	-0.856993	0.879337
1.409398	-0.763128	0.838484
1.338379	-0.922959	0.913245
1.201377	-0.841682	0.829924
1.066742	-0.913289	0.901421
1.180619	-1.056102	0.954170
1.137547	-1.100052	0.789853
1.311067	-1.137797	0.785994
1.331250	-0.983364	0.667330
1.307864	-1.106865	0.540497
1.102014	-1.190961	0.557345
1.106391	-0.981334	0.586633
1.183472	-0.812764	0.566825
1.204202	-0.646426	0.626323
1.100507	-0.537927	0.612173
1.087184	-0.649364	0.491520
1.000971	-0.704353	0.632479
0.892633	-0.629639	0.532446
0.828226	-0.473201	0.595213
0.706556	-0.533137	0.566487
0.752654	-0.631989	0.707233
0.793653	-0.784976	0.748840
0.789987	-0.874456	0.603576
0.630806	-0.853794	0.614684
0.621898	-0.746731	0.466765
0.658326	-0.908151	0.424982
0.530412	-1.010436	0.397511
0.523009	-0.911456	0.271983
0.489898	-1.051415	0.239408
0.646648	-1.046771	0.252604
0.691762	-1.114551	0.397888
0.824515	-1.022005	0.362211
0.849403	-0.872544	0.302395
0.959538	-0.988978	0.181236
1.013257	-0.854080	0.202916
0.931930	-0.697854	0.212573
0.789985	-0.637562	0.215660
0.797126	-0.791782	0.081446
0.895043	-0.851444	-0.023847
0.744970	-0.829898	-0.085782
0.793287	-0.665745	-0.078275
0.644122	-0.701154	-0.114966
0.613454	-0.682154	0.042893
0.651114	-0.479374	0.114363
0.538066	-0.495402	0.168744
0.464745	-0.546802	0.012078
0.546848	-0.421165	-0.056211
0.437095	-0.357358	0.017701
0.497664	-0.203209	0.024300
0.484443	-0.192144	0.175709
0.565955	-0.058559	0.187053
0.642728	-0.123907	0.295448
0.691178	-0.153889	0.181375
0.775547	-0.054194	0.088028
0.743962	-0.129775	-0.004432
0.867792	-0.232265	0.086409
0.892013	-0.233879	-0.051521
0.944078	-0.363700	-0.046464
1.093160	-0.531650	-0.061204
1.185918	-0.660477	-0.016902
1.317859	-0.655817	-0.116269
1.180691	-0.676086	-0.217433
1.283589	-0.562204	-0.309585
1.130459	-0.478699	-0.302370
1.247006	-0.423326	-0.187772
1.320324	-0.333034	-0.321150
1.447482	-0.360861	-0.205100
1.381248	-0.204123	-0.197881
1.196103	-0.209799	-0.223830
1.241604	-0.148943	-0.061032
1.181200	-0.277017	-0.029960
1.360491	-0.345480	0.021291
1.469255	-0.478279	0.065405
1.392146	-0.597840	0.153996
1.417559	-0.494072	0.274463
1.274130	-0.445479	0.206839
1.131085	-0.322600	0.262200
1.130136	-0.169290	0.261871
1.131011	-0.217254	0.413488
1.291494	-0.306917	0.439014
1.322898	-0.156778	0.409015
1.414014	-0.139178	0.262669
1.517674	-0.228140	0.371763
1.661600	-0.339752	0.430047
1.745128	-0.488012	0.503370
1.758441	-0.513249	0.318792
1.897436	-0.389961	0.377841
1.886761	-0.377614	0.186784
1.734981	-0.285809	0.154881
1.759249	-0.122663	0.285247
1.915504	-0.144834	0.226989
1.959151	-0.139898	0.434660
1.753985	-0.074550	0.565475
1.794667	-0.221772	0.692474
1.594429	-0.163564	0.712840
1.681395	-0.186131	0.891683
1.622951	0.005112	0.960941
1.730556	0.028505	0.798116
1.880635	-0.037131	0.919742
1.941125	0.088662	0.773872
1.830988	0.181035	0.956416
1.836908	0.290509	0.785950
1.647148	0.268375	0.863741
1.665439	0.370968	0.700320
1.683835	0.218358	0.596745
1.519777	0.169264	0.666379
1.412252	0.327545	0.678764
1.309265	0.493204	0.751563
1.315517	0.207414	0.810627
1.225816	0.166613	0.695063
1.069222	0.250847	0.860242
1.006096	0.221107	0.688380
0.846916	0.190358	0.657931
0.816728	0.331078	0.604380
0.702911	0.333692	0.539783
0.704542	0.246186	0.442079
0.697193	0.309134	0.337617
0.834161	0.234908	0.332783
0.895022	0.153131	0.390900
1.008980	0.149251	0.302699
1.110191	0.168925	0.397715
1.209757	0.250357	0.303139
1.125145	0.298582	0.208249
0.995845	0.373339	0.195029
1.042485	0.384832	0.348775
1.147299	0.466407	0.357685
1.032357	0.540283	0.308883
0.904356	0.593098	0.274080
0.857721	0.601413	0.404682
0.944345	0.718227	0.439639
0.915587	0.747100	0.572842
1.003883	0.639219	0.560697
1.199961	0.653616	0.652474
1.167224	0.776185	0.510013
1.275605	0.695981	0.452872
1.335019	0.839170	0.422544
1.225679	0.812948	0.284446
1.311802	0.671653	0.239931
1.436356	0.717434	0.238835
1.351048	0.807248	0.142213
1.355334	0.704752	0.034007
1.217527	0.770391	-0.000153
1.144453	0.674952	0.049982
1.192153	0.621677	-0.103977
1.121959	0.496127	-0.087458
1.266450	0.473166	-0.130518
1.245270	0.338983	-0.077763
1.405539	0.330959	-0.114348
1.410329	0.368391	0.034739
1.584362	0.272221	0.074690
1.649547	0.326556	0.221395
1.774530	0.282586	0.110166
1.768924	0.453275	0.112136
1.626794	0.486153	0.040226
1.686832	0.381670	-0.087898
1.680675	0.500968	-0.238776
1.687013	0.714193	-0.224890
1.755743	0.764955	-0.467173
2.099298	0.771964	-0.109979
1.818573	1.119957	-0.085257
2.266952	1.187070	-0.116151
2.265980	0.848756	-0.584138
2.378733	0.426383	-0.295588
2.233000	0.268537	-0.517650
2.534345	6.325155	-2.300367
1.259736	0.591929	0.725731
3.756151	-0.185619	-0.521704
3.173025	-0.063971	-0.397308
3.566578	-0.151960	-0.479029
2.245026	0.831137	-1.996918
1.760005	1.966872	-2.134622
0.909536	0.357422	-0.796296
1.485899	0.416593	-1.018507
0.766255	0.353933	-0.793546
1.623560	1.198017	-1.444736
2.650971	2.483260	0.174968
0.612882	2.369395	-0.109243
0.474855	1.855237	-0.254252
0.457335	1.502359	-0.291226
0.531473	1.362974	-0.183522
0.641012	1.451462	-0.109867
0.647173	1.808044	-1.012426
0.947465	1.327845	-1.131651
0.774305	1.401491	-0.983068
0.703602	1.229168	-0.830218
0.851760	1.115488	-0.857326
0.881732	1.137608	-0.687637
1.013914	1.088999	-0.747479
1.170883	1.357192	-0.644746
0.943230	1.436085	-0.501813
1.364591	1.956495	-0.749542
1.289041	2.259011	-0.274281
0.988987	1.977443	-0.106051
0.453181	2.375758	-1.160160
0.286877	1.766133	-0.865729
0.185676	1.274199	-0.578745
0.075905	1.220893	-0.479091
0.059112	1.046606	-0.503585
0.016790	0.978388	-0.389019
0.116969	1.035939	-0.330993
0.209033	0.934336	-0.389046
0.330729	0.990446	-0.404843
0.352893	0.921494	-0.508127
0.463152	0.938067	-0.449627
0.599381	0.904659	-0.464820
0.682549	0.877668	-0.558578
0.768521	0.852352	-0.448811
0.778990	0.736279	-0.531027
0.788432	0.682207	-0.414614
0.640930	0.697804	-0.387229
0.504055	0.691054	-0.344688
0.521426	0.661054	-0.189304
0.457109	0.787894	-0.195774
0.339846	0.740603	-0.222867
0.290850	0.777925	-0.118836
0.279928	0.678585	-0.099030
0.182550	0.682722	-0.157931
0.043365	0.675142	-0.252102
0.072284	0.574721	-0.200398
0.146336	0.532767	-0.307384
0.194307	0.450309	-0.247173
0.301809	0.434342	-0.289284
0.390918	0.416755	-0.352493
0.476654	0.391919	-0.422110
0.586697	0.352144	-0.532249
0.721970	0.337844	-0.670750
0.749989	0.226759	-0.555489
0.653481	0.119884	-0.556852
0.604018	0.174155	-0.659293
0.750621	0.058060	-0.703915
0.662139	0.035176	-0.817604
0.627121	-0.058366	-0.716468
0.489513	0.047917	-0.719937
0.432303	0.003591	-0.590387
0.341779	0.010739	-0.682513
0.383327	0.147980	-0.661446
0.357494	0.212437	-0.541630
0.254482	0.264208	-0.575768
0.294061	0.351573	-0.647509
0.188385	0.408073	-0.625366
0.249750	0.507556	-0.566251
0.341821	0.568533	-0.611436
0.464946	0.642054	-0.682004
0.584065	0.599701	-0.773409
0.624535	0.687471	-0.862928
0.728322	0.620527	-0.889117
0.657209	0.617111	-1.020393
0.764543	0.578856	-1.116626
0.854600	0.487248	-1.067282
0.769340	0.398193	-1.168364
0.881749	0.308852	-1.221349
0.835555	0.182478	-1.271765
0.838263	0.271292	-1.385654
0.785948	0.407608	-1.357670
0.642370	0.406873	-1.331978
0.669239	0.270464	-1.354265
0.678475	0.243399	-1.208841
0.670573	0.204457	-1.080128
0.553346	0.148206	-1.085091
0.463022	0.232546	-1.024813
0.483682	0.273119	-1.165674
0.487815	0.398058	-1.133938
0.591585	0.381748	-1.039667
0.645950	0.360709	-0.881437
0.480721	0.400757	-0.901242
0.353821	0.399654	-0.937273
0.344499	0.525593	-0.902082
0.217107	0.536662	-0.854104
0.215102	0.669720	-0.857028
0.254319	0.686578	-0.980680
0.249974	0.817784	-0.994789
0.331503	0.911313	-0.986830
0.350299	0.820812	-0.900139
0.397336	0.767437	-1.023365
0.395465	0.794816	-1.165375
0.379958	0.647842	-1.189296
0.392357	0.583815	-1.334357
0.452888	0.634906	-1.451774
0.511805	0.707508	-1.331011
0.397510	0.785027	-1.380373
0.263895	0.738282	-1.428185
0.208855	0.718172	-1.285038
0.115575	0.834587	-1.239197
0.050486	0.759915	-1.139364
0.013463	0.911418	-1.087768
-0.024537	0.822111	-1.010759
-0.129735	0.825328	-1.098986
-0.189022	0.706098	-0.989413
-0.283853	0.756233	-1.037240
-0.199884	0.668879	-1.128056
-0.305561	0.652317	-1.200838
-0.270518	0.788594	-1.223938
-0.154233	0.741136	-1.278588
-0.168084	0.622953	-1.408028
-0.054674	0.690276	-1.430117
-0.041540	0.580083	-1.303039
0.077889	0.537131	-1.397985
0.172006	0.476364	-1.463050
0.132296	0.472146	-1.584669
0.017630	0.440518	-1.530049
0.002699	0.366549	-1.408729
0.117813	0.303006	-1.521179
0.250826	0.308983	-1.535693
0.236303	0.313579	-1.401091
0.289396	0.220290	-1.314318
0.250328	0.154257	-1.415824
0.130706	0.179279	-1.362751
0.146195	0.273535	-1.269211
0.126195	0.393489	-1.165616
0.007430	0.339950	-1.167219
-0.075846	0.382745	-1.076144
0.000589	0.474643	-1.041816
-0.042799	0.393216	-0.930473
0.075982	0.348531	-0.958834
0.100075	0.221548	-1.012321
-0.021147	0.203899	-0.960075
0.013214	0.201342	-0.831565
-0.080087	0.127051	-0.822632
0.026655	0.016956	-0.770678
-0.013340	-0.027536	-0.874215
0.090963	0.017781	-0.908906
0.097821	-0.043073	-1.018285
0.176079	0.020082	-1.115301
0.182604	-0.095861	-1.152992
0.088899	-0.028531	-1.234123
0.008027	-0.084595	-1.169026
-0.044956	0.046739	-1.177808
-0.131425	0.010136	-1.085437
-0.220432	0.034387	-0.984103
-0.278413	0.040869	-1.100095
-0.259814	0.168335	-1.081638
-0.219440	0.170713	-1.205280
-0.355633	0.186493	-1.219006
-0.306831	0.320109	-1.184551
-0.407473	0.314178	-1.244857
-0.290411	0.284276	-1.370170
-0.392919	0.351469	-1.432000
-0.448625	0.204345	-1.428352
-0.405839	0.233928	-1.538316
-0.264750	0.280576	-1.596839
-0.220535	0.185327	-1.522369
-0.301324	0.040435	-1.488539
-0.282595	-0.072448	-1.402867
-0.161772	-0.020283	-1.431061
-0.154675	-0.057058	-1.603219
-0.010229	-0.113516	-1.644568
0.012795	0.036038	-1.652330
0.022020	-0.026790	-1.795049
-0.120334	0.062075	-1.770858
-0.128673	-0.025698	-1.903268
-0.126852	-0.153940	-1.804899
-0.277505	-0.066562	-1.774970
-0.288413	-0.193536	-1.872456
-0.393260	-0.227164	-1.748032
-0.306546	-0.228373	-1.616304
-0.313287	-0.385993	-1.668997
-0.206554	-0.374650	-1.779039
-0.141976	-0.306417	-1.637279
0.023377	-0.368251	-1.678715
-0.036180	-0.501538	-1.593044
0.128588	-0.500511	-1.544090
0.193776	-0.342327	-1.527324
0.173200	-0.394347	-1.371531
0.035054	-0.322405	-1.440102
0.001026	-0.482472	-1.381267
-0.124882	-0.375597	-1.379861
-0.131723	-0.303390	-1.232310
-0.265754	-0.253910	-1.199317
-0.235240	-0.370890	-1.108815
-0.182886	-0.505059	-1.029872
-0.041380	-0.468588	-1.071955
-0.056448	-0.617641	-1.057088
-0.131945	-0.576105	-1.192117
-0.259377	-0.645063	-1.116486
-0.185070	-0.770329	-1.186486
-0.202193	-0.708398	-1.335675
-0.351709	-0.765597	-1.282315
-0.378085	-0.669241	-1.414704
-0.322331	-0.546225	-1.330416
-0.444131	-0.605180	-1.220693
-0.555473	-0.551632	-1.320796
-0.496696	-0.414779	-1.250161
-0.500456	-0.397843	-1.396216
-0.685673	-0.360159	-1.429507
-0.661996	-0.285657	-1.285324
-0.605846	-0.180416	-1.387723
-0.718583	-0.041784	-1.425266
-0.762194	-0.075359	-1.301146
-0.624512	0.009547	-1.266493
-0.652338	-0.068075	-1.144552
-0.935803	0.231350	-1.433712
-0.829906	0.315867	-1.288273
-0.754059	0.197088	-1.342860
-0.854818	0.151551	-1.235828
-0.731774	0.213021	-1.143716
-0.675013	0.330366	-1.088025
-0.757272	0.281190	-0.988642
-0.654636	0.195181	-0.986577
-0.591708	0.326551	-0.936109
-0.627321	0.343746	-0.820727
-0.545253	0.280341	-0.813273
-0.515261	0.312436	-0.703713
-0.402783	0.348828	-0.704840
-0.427947	0.444736	-0.724396
-0.506584	0.514528	-0.680963
-0.531787	0.508788	-0.577731
-0.479133	0.611264	-0.578891
-0.371714	0.552926	-0.562739
-0.392801	0.598286	-0.443794
-0.409762	0.493986	-0.407866
-0.342090	0.498059	-0.328105
-0.265179	0.471747	-0.415749
-0.244701	0.375391	-0.402738
-0.262085	0.349418	-0.504327
-0.343355	0.257246	-0.476354
-0.421988	0.304038	-0.436087
-0.469225	0.226403	-0.392071
-0.428287	0.265025	-0.297058
-0.348541	0.198666	-0.297213
-0.394257	0.080996	-0.299369
-0.303665	0.057805	-0.245460
-0.192604	0.033727	-0.345178
-0.277595	-0.022059	-0.402740
-0.258942	0.026600	-0.502231
-0.172059	-0.065718	-0.516568
-0.259632	-0.100375	-0.580754
-0.256787	-0.196965	-0.468170
-0.354050	-0.267617	-0.533041
-0.272952	-0.314600	-0.636020
-0.275188	-0.447214	-0.599379
-0.271724	-0.471473	-0.728234
-0.348457	-0.577918	-0.693214
-0.410934	-0.491998	-0.763749
-0.440291	-0.456269	-0.634863
-0.446912	-0.345928	-0.699849
-0.386330	-0.275141	-0.803371
-0.511556	-0.253405	-0.860343
-0.532039	-0.175413	-0.762395
-0.585052	-0.070573	-0.831069
-0.473125	-0.062010	-0.865651
-0.486566	-0.041520	-0.740701
-0.612236	-0.014415	-0.672134
-0.551814	-0.066232	-0.582139
-0.597814	0.006056	-0.493643
-0.567369	-0.122761	-0.435590
-0.678297	-0.129422	-0.462509
-0.663577	-0.238087	-0.509469
-0.739245	-0.191490	-0.595678
-0.752885	-0.336117	-0.637902
-0.710175	-0.474692	-0.627382
-0.808355	-0.530846	-0.693657
-0.691453	-0.573275	-0.738093
-0.712821	-0.447036	-0.777412
-0.764907	-0.318553	-0.819795
-0.738418	-0.380184	-0.922245
-0.641315	-0.504700	-0.939559
-0.737646	-0.531436	-1.023073
-0.749560	-0.633495	-0.923840
-0.867755	-0.516122	-0.913090
-0.981339	-0.613552	-0.865594
-0.948445	-0.723626	-0.952512
-0.939073	-0.716005	-1.102902
-0.970784	-0.574737	-1.084966
-1.099749	-0.625060	-1.150683
-1.137332	-0.647163	-1.011037
-1.227108	-0.541783	-1.050829
-1.125570	-0.481067	-0.965269
-1.132757	-0.448334	-1.141118
-1.008911	-0.403953	-1.087830
-0.952771	-0.229682	-1.032226
-0.946707	-0.136804	-0.946052
-0.976009	-0.069804	-1.047755
-1.044837	-0.154081	-1.127317
-1.119895	-0.138653	-1.013672
-1.132171	-0.270386	-1.041865
-1.072113	-0.296648	-0.905687
-1.063571	-0.236412	-0.770012
-1.168704	-0.346860	-0.749220
-1.251484	-0.304631	-0.838136
-1.240617	-0.184652	-0.766574
-1.293969	-0.192221	-0.659563
-1.387171	-0.204152	-0.768177
-1.430541	-0.092995	-0.702404
-1.450633	0.009433	-0.768357
-1.439325	-0.093734	-0.860307
-1.321800	-0.050783	-0.846856
-1.256233	0.015321	-0.703520
-1.282208	0.158892	-0.713988
-1.252880	0.137535	-0.829780
-1.133609	0.114784	-0.854187
-1.143893	0.234709	-0.816368
-1.055201	0.319574	-0.781472
-1.068239	0.220064	-0.661594
-0.973689	0.164791	-0.720774
-1.053998	0.029133	-0.670960
-0.955528	-0.013245	-0.711369
-0.986584	-0.080137	-0.580515
-0.917855	0.056174	-0.544774
-0.839319	0.112859	-0.438803
-0.939943	0.151010	-0.471274
-0.848662	0.239867	-0.555690
-0.834896	0.347846	-0.494549
-0.940702	0.405826	-0.514735
-0.980765	0.370651	-0.416574
-1.086791	0.418845	-0.482838
-1.066027	0.474781	-0.386024
-0.978976	0.557571	-0.468371
-0.952207	0.567382	-0.353911
-0.832975	0.576590	-0.397280
-0.806781	0.485548	-0.350225
-0.782350	0.558433	-0.235347
-0.696556	0.592812	-0.167882
-0.706920	0.492605	-0.167362
-0.821854	0.531059	-0.105424
-0.874728	0.418797	-0.150341
-0.962978	0.424659	-0.064181
-0.951917	0.324199	-0.106637
-0.854814	0.367429	-0.029235
-0.797062	0.261610	-0.025765
-0.721081	0.279839	-0.112273
-0.799149	0.225915	-0.172933
-0.695721	0.149073	-0.190702
-0.713046	0.115511	-0.084333
-0.728596	-0.013020	-0.097261
-0.707838	-0.022541	0.020227
-0.804575	0.039905	0.018148
-0.847951	-0.064838	-0.036529
-0.873920	-0.066298	-0.152897
-0.903122	0.041472	-0.128509
-1.005782	0.041504	-0.018341
-1.038415	-0.035901	0.072650
-1.062783	-0.076390	-0.040362
-1.145647	0.013835	-0.022495
-1.114413	0.076760	-0.118218
-1.219422	0.161772	-0.088418
-1.176485	0.221502	-0.162813
-1.233274	0.131514	-0.203089
-1.168619	0.093022	-0.310918
-1.237298	-0.028442	-0.251761
-1.122484	-0.057564	-0.287055
-1.193864	-0.158613	-0.357227
-1.113488	-0.243758	-0.332408
-1.254751	-0.290225	-0.292566
-1.284091	-0.334919	-0.420830
-1.407840	-0.291999	-0.373970
-1.394216	-0.401910	-0.296304
-1.433570	-0.448171	-0.435625
-1.332069	-0.563543	-0.420504
-1.438225	-0.654234	-0.372370
-1.485978	-0.624507	-0.512858
-1.366166	-0.603750	-0.601892
-1.400154	-0.752503	-0.565861
-1.314948	-0.778358	-0.446188
-1.228149	-0.742924	-0.570801
-1.156934	-0.715542	-0.447806
-1.173651	-0.599107	-0.522328
-1.072347	-0.485937	-0.458368
-0.988289	-0.474597	-0.349888
-1.109796	-0.528202	-0.328286
-1.084720	-0.643482	-0.247300
-1.209059	-0.695433	-0.203922
-1.202755	-0.565491	-0.178206
-1.051486	-0.446019	-0.163742
-1.094190	-0.444307	-0.048336
-1.011365	-0.575602	-0.031589
-1.074459	-0.671060	0.038903
-1.173438	-0.567817	0.069251
-1.066376	-0.532703	0.144662
-0.793706	-0.429307	0.153822
-0.870744	-0.347166	0.093665
-0.829024	-0.412490	-0.016993
-0.688324	-0.426296	-0.065604
-0.751195	-0.455209	-0.169258
-0.722577	-0.601030	-0.120346
-0.735842	-0.733041	-0.035363
-0.512905	-0.858586	-0.083573
-0.559048	-0.687972	-0.105743
-0.569457	-0.587158	-0.228174
-0.645266	-0.694055	-0.253981
-0.732598	-0.588296	-0.327786
-0.815874	-0.706489	-0.346406
-0.889842	-0.778834	-0.456105
-0.768694	-0.860100	-0.424992
-0.841847	-0.934395	-0.551794
-0.856070	-1.018039	-0.421152
-1.006736	-0.960695	-0.481290
-1.014245	-1.129929	-0.460371
-1.016628	-0.980197	-0.273033
-0.924738	-0.868691	-0.230789
