-3.389619	2.882822	-2.275466
-2.973089	3.786015	2.477084
-1.624582	0.907050	1.166445
-1.147541	0.684301	0.793158
-1.099364	0.582793	0.841170
-1.144438	0.540391	0.748346
-1.041131	0.472766	0.718008
-1.023480	0.321673	0.715477
-1.098552	0.332681	0.809354
-1.081132	0.220365	0.795018
-0.985111	0.183156	0.735720
-0.976231	0.222416	0.944221
-0.943511	0.281827	0.865622
-0.943023	0.189151	0.846754
-0.870044	0.220280	0.771210
-0.786504	0.121588	0.796605
-0.791698	0.024304	0.736622
-0.892342	0.061362	0.754937
-0.809075	-0.009207	0.840357
-0.888600	-0.064933	0.799317
-0.912986	-0.071128	0.900668
-0.955780	0.026317	0.863264
-0.882444	0.039384	0.947104
-0.785203	0.079148	0.938161
-0.751016	0.199406	0.937082
-0.691162	0.275025	0.888913
-0.740213	0.371805	0.916366
-0.650385	0.389132	0.996768
-0.667186	0.414728	1.100318
-0.753326	0.361891	1.075336
-0.750743	0.455618	1.034317
-0.675881	0.534185	0.985883
-0.627526	0.650931	1.019917
-0.731710	0.627512	1.040246
-0.822389	0.601464	0.965608
-0.755216	0.679080	0.897427
-0.762005	0.595059	0.826742
-0.745219	0.667527	0.745768
-0.636800	0.655235	0.783239
-0.594730	0.560270	0.810931
-0.521141	0.560085	0.727137
-0.620032	0.546061	0.668436
-0.600729	0.419640	0.720992
-0.689158	0.442858	0.707163
-0.658690	0.402591	0.580312
-0.735622	0.327770	0.624914
-0.646022	0.290556	0.624681
-0.671415	0.275296	0.503136
-0.716492	0.167976	0.533455
-0.657939	0.116665	0.425267
-0.759251	0.119958	0.399691
-0.734914	-0.000834	0.471740
-1.383222	-0.330155	0.646584
-0.912921	-0.114013	0.508632
-0.933955	-0.014933	0.423481
-0.902970	0.034405	0.531484
-1.030341	0.014198	0.538507
-1.017457	0.112433	0.618237
-1.045056	0.141751	0.494238
-0.951725	0.153358	0.444726
-0.938362	0.215830	0.553692
-0.917261	0.297661	0.477980
-0.843286	0.356354	0.395706
-0.912492	0.446995	0.383145
-0.845045	0.483737	0.472442
-0.929036	0.554415	0.494806
-0.828928	0.651662	0.514437
-0.864653	0.759223	0.412367
-0.749745	0.763111	0.412300
-0.761799	0.739382	0.318073
-0.724875	0.630097	0.332710
-0.658242	0.635741	0.251850
-0.659856	0.541543	0.285882
-0.565799	0.574689	0.298551
-0.610189	0.582203	0.393055
-0.595195	0.679337	0.387296
-0.562128	0.688157	0.475425
-0.456725	0.636812	0.431689
-0.454653	0.725881	0.392915
-0.416553	0.687660	0.294745
-0.474627	0.728093	0.221576
-0.408993	0.803370	0.244347
-0.523300	0.844219	0.274535
-0.540645	0.915043	0.189511
-0.576775	0.958344	0.289759
-0.466030	0.980972	0.296436
-0.491384	0.948104	0.397019
-0.445341	1.043571	0.425585
-0.332758	0.984643	0.375771
-0.350887	0.901558	0.417066
-0.266468	0.933190	0.467135
-0.314154	0.998068	0.522685
-0.366809	0.895363	0.571533
-0.386284	0.987544	0.638026
-0.490511	0.955845	0.612688
-0.476803	0.856637	0.677658
-0.382739	0.802351	0.717830
-0.396250	0.854137	0.804759
-0.309713	0.786103	0.824067
-0.260550	0.895282	0.789180
-0.184925	0.847553	0.824064
-0.122460	0.917216	0.713840
-0.092373	0.808697	0.719607
-0.172849	0.810491	0.653378
-0.189277	0.698564	0.685120
-0.212944	0.686375	0.582352
-0.084499	0.648127	0.578131
-0.060059	0.734410	0.529769
-0.014866	0.695812	0.425310
-0.088984	0.748617	0.373694
-0.155259	0.676368	0.397564
-0.137239	0.611160	0.295853
-0.048186	0.535870	0.312708
-0.051783	0.493254	0.431417
-0.176553	0.488853	0.399243
-0.149652	0.379966	0.337196
-0.257569	0.391531	0.312579
-0.279134	0.282551	0.361725
-0.326627	0.253588	0.273955
-0.387994	0.337883	0.306552
-0.435868	0.251799	0.324177
-0.374154	0.189588	0.391306
-0.389191	0.290199	0.440675
-0.351472	0.400130	0.464392
-0.357713	0.360572	0.584389
-0.314007	0.457138	0.594670
-0.223141	0.404103	0.565487
-0.207563	0.381099	0.663783
-0.138760	0.308748	0.600218
-0.219773	0.232321	0.610736
-0.185977	0.163977	0.518578
-0.190750	0.095074	0.602552
-0.298371	0.076030	0.593777
-0.375192	0.020280	0.531935
-0.378298	-0.079610	0.618372
-0.449860	-0.172887	0.637061
-0.384100	-0.151076	0.728848
-0.493954	-0.141693	0.762920
-0.501439	-0.059225	0.682915
-0.414927	0.030842	0.728189
-0.481615	0.107977	0.802600
-0.430844	0.182382	0.716907
-0.397438	0.230416	0.826765
-0.299619	0.174426	0.788586
-0.180830	0.166301	0.821920
-0.189371	0.059935	0.822471
-0.291523	-0.004778	0.872052
-0.361120	0.007346	0.945006
-0.301497	-0.074772	0.958812
-0.228361	0.001478	0.964385
-0.250449	0.121125	0.965702
-0.153983	0.120189	1.026221
-0.230296	0.039328	1.110524
-0.324989	-0.001670	1.133068
-0.354542	0.092255	1.093159
-0.273814	0.148014	1.153681
-0.183887	0.248327	1.159101
-0.271884	0.308685	1.190764
-0.271647	0.292673	1.070820
-0.302274	0.406777	1.047574
-0.183987	0.445661	1.066078
-0.199951	0.510360	0.979798
-0.190510	0.401812	0.917596
-0.103266	0.454748	0.870033
-0.045360	0.340544	0.897498
-0.016702	0.404371	0.989606
0.045804	0.324830	1.052147
0.113830	0.322730	0.971573
0.152685	0.390128	1.058272
0.110568	0.499578	1.041903
0.189196	0.466996	0.958417
0.108624	0.548171	0.902275
0.109122	0.476139	0.830504
0.153271	0.552179	0.765390
0.229394	0.475576	0.771239
0.205647	0.471849	0.663739
0.098897	0.422885	0.665688
0.144935	0.342345	0.606672
0.124361	0.314967	0.703255
0.222275	0.277796	0.786021
0.285498	0.231291	0.697760
0.275685	0.163511	0.784250
0.172677	0.122468	0.723795
0.079920	0.146701	0.793436
0.159457	0.084976	0.860285
0.063284	-0.026382	0.830990
0.108764	-0.107474	0.885550
0.063175	-0.191554	0.998657
-0.037779	-0.181439	0.921872
-0.030232	-0.196708	0.786436
-0.121238	-0.254830	0.781885
-0.029405	-0.330850	0.838811
-0.127088	-0.393246	0.880413
-0.108408	-0.381279	1.015416
-0.012291	-0.470724	0.953787
0.076529	-0.413919	1.027667
-0.006220	-0.498048	1.107291
0.083490	-0.588866	1.067617
-0.043037	-0.621498	1.010345
0.054893	-0.634398	0.918191
0.158052	-0.542989	0.936207
0.110284	-0.456145	0.842306
0.183463	-0.337216	0.846008
0.117698	-0.321754	0.700623
0.236314	-0.292197	0.713219
0.204706	-0.164871	0.668197
0.097514	-0.175678	0.590241
0.118210	-0.051034	0.602306
0.185746	-0.062034	0.492931
0.187388	0.057073	0.503872
0.165155	0.040539	0.384854
0.066060	0.110092	0.422370
0.017903	0.022728	0.462651
-0.014850	0.005197	0.332940
0.023021	-0.097192	0.326924
-0.100383	-0.098342	0.348094
-0.045069	-0.187818	0.424902
-0.106814	-0.149261	0.497020
-0.180743	-0.189797	0.413519
-0.125659	-0.261140	0.342688
-0.155334	-0.346781	0.433924
-0.288912	-0.351617	0.418874
-0.311886	-0.353170	0.300031
-0.207369	-0.419509	0.284656
-0.308245	-0.494658	0.290187
-0.352933	-0.471795	0.406653
-0.224207	-0.477742	0.415604
-0.248204	-0.630834	0.390547
-0.346332	-0.673708	0.473413
-0.342895	-0.768276	0.388974
-0.211156	-0.787337	0.384775
-0.259782	-0.871077	0.472968
-0.295966	-0.791279	0.568744
-0.174659	-0.748996	0.531774
-0.174086	-0.612583	0.565440
-0.159865	-0.478593	0.624342
-0.267645	-0.502976	0.660550
-0.166470	-0.573265	0.729260
-0.256921	-0.646346	0.687588
-0.117667	-0.731475	0.679443
-0.053554	-0.861802	0.656198
-0.002706	-0.851152	0.525591
0.095384	-0.844320	0.613714
0.042972	-0.717480	0.607909
0.119116	-0.600306	0.654496
0.028465	-0.567047	0.577294
0.135885	-0.639931	0.517403
0.025725	-0.668371	0.444946
0.023233	-0.537390	0.398993
0.053287	-0.434774	0.450760
0.186650	-0.410915	0.499412
0.221748	-0.504066	0.393511
0.254085	-0.534556	0.277564
0.136462	-0.467251	0.274600
0.170168	-0.314605	0.327649
0.251535	-0.223599	0.322064
0.297605	-0.332515	0.326639
0.221547	-0.345945	0.193794
0.112169	-0.315664	0.155120
0.194302	-0.204601	0.132978
0.248727	-0.292442	0.048716
0.374396	-0.332081	0.083269
0.324304	-0.453403	0.073629
0.293184	-0.419505	-0.063044
0.153489	-0.376899	-0.085290
0.149015	-0.464277	0.021435
0.220029	-0.549680	-0.081153
0.242593	-0.627032	0.053401
0.161577	-0.697209	-0.025507
0.038225	-0.623153	-0.013551
0.050343	-0.625655	0.132250
-0.066784	-0.688048	0.125365
-0.004155	-0.785288	0.057757
0.056662	-0.794449	0.174129
-0.057682	-0.907732	0.181222
0.020840	-0.987030	0.084987
-0.037173	-1.061014	0.206851
0.102466	-1.087266	0.200226
0.084153	-0.956046	0.272691
0.194378	-0.952972	0.133658
0.272797	-0.828800	0.190821
0.234841	-0.786996	0.325831
0.284347	-0.943444	0.316774
0.231988	-1.018592	0.425049
0.394703	-1.041487	0.400363
0.330325	-1.177249	0.349077
0.387528	-1.081442	0.224198
0.368861	-1.213984	0.159716
0.499076	-1.244007	0.264652
0.585580	-1.162448	0.369740
0.575988	-1.068249	0.236565
0.691676	-1.169512	0.189608
0.563482	-1.163904	0.074578
0.674058	-1.041048	0.054869
0.534319	-1.014729	-0.030533
0.500814	-0.938969	0.096652
0.541887	-0.800316	-0.027201
0.678334	-0.841694	0.047599
0.574133	-0.797571	0.166112
0.732481	-0.896278	0.235652
0.707290	-0.775698	0.298293
0.695329	-0.907821	0.415153
0.567623	-0.862290	0.364752
0.507321	-0.706864	0.381252
0.451790	-0.743966	0.510704
0.536692	-0.848418	0.537821
0.637547	-0.780157	0.590561
0.626849	-0.687062	0.495799
0.544486	-0.626750	0.589633
0.461962	-0.539889	0.501214
0.472908	-0.478987	0.614388
0.399753	-0.581264	0.676819
0.458097	-0.715493	0.740324
0.405072	-0.856181	0.696096
0.530461	-0.857820	0.767970
0.434767	-0.941893	0.873699
0.471713	-0.818122	0.943740
0.586507	-0.931755	0.957734
0.574604	-1.074486	0.902605
0.573701	-1.075360	0.750574
0.687508	-0.978756	0.780447
0.780421	-1.080954	0.871484
0.836869	-1.089260	0.707302
0.917393	-0.988954	0.810725
0.835805	-0.877563	0.735091
0.797233	-0.890259	0.904313
0.722743	-0.746967	0.853698
0.718179	-0.741826	1.011552
0.869202	-0.798255	1.030863
0.895017	-0.723983	0.884911
1.019586	-0.814635	0.893131
1.037177	-0.708447	1.014904
1.065906	-0.622449	0.889027
0.949976	-0.574975	1.116871
0.908900	-0.535637	0.952264
0.765417	-0.520617	1.012630
0.673011	-0.394121	1.021048
0.585293	-0.503609	1.004677
0.560435	-0.416878	0.897505
0.685274	-0.493500	0.854305
0.702184	-0.343658	0.818928
0.678327	-0.414244	0.674282
0.752090	-0.316387	0.650009
0.852382	-0.397540	0.736501
0.818604	-0.543594	0.718914
0.952281	-0.529200	0.653201
0.847088	-0.557052	0.551488
0.889729	-0.412661	0.508886
1.014055	-0.517208	0.488246
0.967707	-0.660876	0.453158
1.087248	-0.673717	0.533419
1.077129	-0.760935	0.430864
1.120565	-0.621738	0.390583
1.015890	-0.662817	0.291836
0.996287	-0.513291	0.317383
0.849262	-0.544490	0.307827
0.960775	-0.526327	0.134042
0.833692	-0.540122	0.141961
0.717257	-0.448149	0.175275
0.701751	-0.405457	0.312337
0.846480	-0.362506	0.231779
0.980328	-0.335633	0.212899
0.891397	-0.293304	0.103699
0.779808	-0.195680	0.119561
0.885346	-0.185777	0.233551
0.834845	-0.237392	0.358096
0.639740	-0.240829	0.425426
0.658685	-0.210339	0.312668
0.752483	-0.126669	0.439373
0.706792	-0.050324	0.327294
0.578016	-0.072298	0.359712
0.609312	0.045634	0.459985
0.502973	-0.016238	0.522960
0.601152	-0.062896	0.613271
0.521299	-0.026104	0.708324
0.568780	0.076400	0.654766
0.646933	0.106112	0.774211
0.700785	0.168566	0.696048
0.783770	0.060060	0.633310
0.779358	-0.004141	0.744920
0.863773	-0.078967	0.685117
1.021824	-0.182216	0.713569
1.144980	-0.238368	0.659453
1.129114	-0.312082	0.782565
1.238635	-0.211817	0.806589
1.127940	-0.216150	0.931332
1.219175	-0.104238	0.943735
1.102037	-0.069070	0.847992
0.969680	-0.073485	0.922230
1.031404	-0.024859	1.049998
1.106912	0.074951	0.968742
0.950912	0.093384	0.923829
1.039847	0.192776	0.832299
1.016163	0.077255	0.763685
1.199578	0.083313	0.799730
1.336052	0.006921	0.769002
1.293941	-0.050125	0.639371
1.367615	0.074077	0.605153
1.224392	0.116883	0.619465
1.102107	-0.001368	0.555248
0.986280	0.038396	0.483130
1.092368	0.132155	0.466621
1.224787	0.063053	0.411802
1.129411	-0.030233	0.364514
1.144347	-0.190814	0.408465
1.289114	-0.128702	0.385002
1.464492	-0.098643	0.372381
1.429751	-0.222327	0.493097
1.585349	-0.187318	0.487130
1.572589	-0.271228	0.347211
1.545402	-0.380275	0.481295
1.514681	-0.455113	0.345856
1.354129	-0.422026	0.433116
1.366163	-0.326764	0.317750
1.350386	-0.464234	0.207210
1.351995	-0.197040	0.158364
1.451340	-0.062184	0.126701
1.553167	-0.188285	0.090085
1.484078	-0.332250	0.035408
1.366721	-0.216767	-0.027862
1.333202	-0.366310	-0.088678
1.473932	-0.286141	-0.166434
1.509763	-0.123327	-0.117639
1.390412	-0.126271	-0.234586
1.262656	-0.232499	-0.236840
1.180164	-0.191646	-0.106368
1.209947	-0.055159	-0.195438
1.327057	0.020487	-0.105883
1.237844	-0.036777	0.012387
1.138342	0.077207	-0.052599
1.095535	0.089090	0.086046
1.036706	-0.055272	0.023088
0.953162	0.007266	-0.061686
0.914304	0.206432	-0.133020
0.785850	0.066804	0.012550
0.646176	0.094789	0.059262
0.546291	0.113126	0.157789
0.499463	0.202486	0.092468
0.495141	0.297321	0.167466
0.503403	0.276448	0.275192
0.631829	0.292100	0.216680
0.667908	0.351720	0.134383
0.769831	0.270831	0.153686
0.869801	0.287441	0.063975
0.933791	0.283393	0.201905
0.884693	0.221411	0.294147
0.778835	0.270881	0.359268
0.842663	0.385948	0.310993
0.917872	0.378774	0.404041
0.802262	0.413157	0.450798
0.675485	0.435680	0.419678
0.719900	0.550272	0.467048
0.603051	0.588728	0.416913
0.577639	0.690418	0.346861
0.596778	0.579165	0.283039
0.737687	0.646675	0.312623
0.771204	0.577303	0.204470
0.756502	0.711243	0.179232
0.717175	0.653718	0.051021
0.876489	0.696512	0.062930
0.869074	0.552609	0.041557
0.923923	0.476633	-0.045163
0.994871	0.608980	0.000539
1.040512	0.526978	0.099542
1.064702	0.650030	0.159849
0.994130	0.587944	0.238530
1.023917	0.723062	0.301089
1.010406	0.659016	0.412285
1.142854	0.657228	0.372391
1.127212	0.534723	0.421554
1.260885	0.532854	0.359513
1.185796	0.446277	0.286683
1.278383	0.344144	0.181920
1.414042	0.328354	0.240146
1.410026	0.291003	0.094579
1.472234	0.423325	0.105301
1.370073	0.504213	0.170962
1.301533	0.455988	0.031347
1.314524	0.615447	0.013237
1.375980	0.769251	0.084795
1.429158	1.018725	0.091516
1.655831	0.899330	0.439081
1.688724	1.267803	0.235636
2.068757	0.881841	0.240386
1.905279	0.637366	-0.079315
1.616746	0.732839	-0.252404
1.635079	0.527827	-0.333626
-3.651039	3.527231	0.599550
0.903025	0.303219	-0.083159
1.243907	-1.379405	0.647091
1.300436	-1.551902	0.721653
1.423026	-1.384583	0.529330
-1.993502	-1.994439	0.127853
-2.349226	-1.783583	-0.075928
0.304899	0.824883	-0.818586
0.437575	1.067011	-1.132178
0.260282	0.690171	-0.738563
-0.106587	2.028627	-0.847501
0.703543	2.186620	-0.017323
0.399764	1.860475	0.180188
0.489110	1.393438	0.133209
0.434999	1.141949	0.020605
0.276136	1.103903	-0.018750
0.225178	1.242046	-0.008803
0.738878	1.334900	-0.912851
0.890405	1.173182	-0.586447
0.794202	1.008012	-0.775386
0.726107	0.937027	-0.575706
0.594499	1.017952	-0.638192
0.592913	1.073255	-0.493182
0.492850	1.130641	-0.567021
0.552904	1.337971	-0.420423
0.338755	1.260954	-0.375098
0.234993	1.682209	-0.378687
1.023619	1.785759	-0.466189
0.870604	1.558410	-0.132375
0.559254	1.803882	-0.866359
0.273869	1.495540	-0.863679
0.005852	1.082502	-0.361437
-0.012566	1.048048	-0.232741
-0.088550	0.913950	-0.269866
-0.074745	0.836938	-0.167315
0.036959	0.872849	-0.162259
0.045027	0.786940	-0.265528
0.067610	0.764379	-0.381503
0.131498	0.856089	-0.384265
0.163077	0.787659	-0.478441
0.291344	0.790720	-0.436677
0.361299	0.863728	-0.492856
0.399501	0.881485	-0.376571
0.473644	0.789537	-0.419902
0.503932	0.803969	-0.309641
0.394623	0.727588	-0.285879
0.272693	0.710231	-0.259691
0.264223	0.796046	-0.150032
0.340675	0.694856	-0.112287
0.245709	0.626939	-0.118015
0.239841	0.620733	-0.005796
0.168067	0.681700	-0.026157
0.115990	0.591066	-0.048302
0.110400	0.461297	0.013906
0.135632	0.459948	-0.089537
0.017022	0.469922	-0.126119
0.039924	0.541229	-0.201874
0.078059	0.474882	-0.275105
0.160073	0.513703	-0.319294
0.186907	0.500346	-0.416554
0.282678	0.513409	-0.511903
0.355456	0.457491	-0.593911
0.424150	0.496410	-0.685886
0.377808	0.617436	-0.665417
0.443263	0.599052	-0.562662
0.538490	0.612567	-0.699041
0.610922	0.615134	-0.594442
0.608630	0.504050	-0.643647
0.537271	0.472433	-0.519336
0.638535	0.453355	-0.445482
0.572094	0.536628	-0.398352
0.507964	0.419893	-0.397227
0.397862	0.461414	-0.355340
0.395367	0.368486	-0.296618
0.365851	0.313823	-0.388175
0.260035	0.308525	-0.383175
0.246710	0.301872	-0.264233
0.251404	0.190731	-0.261668
0.379070	0.129916	-0.240291
0.432150	0.124023	-0.368185
0.542461	0.156548	-0.336192
0.539453	0.188298	-0.444210
0.569560	0.052269	-0.449178
0.680150	0.123345	-0.493439
0.684048	0.035784	-0.575711
0.687442	0.150092	-0.643763
0.755169	0.112177	-0.762601
0.836332	0.135776	-0.672948
0.838660	0.236367	-0.754103
0.839044	0.269605	-0.614773
0.717288	0.292123	-0.572648
0.738011	0.319456	-0.699113
0.671486	0.231306	-0.772366
0.578885	0.303032	-0.739104
0.522705	0.258945	-0.648765
0.497409	0.142795	-0.653169
0.521727	0.147826	-0.775199
0.515580	0.227773	-0.856567
0.413459	0.261648	-0.794884
0.357821	0.157938	-0.741231
0.328263	0.229098	-0.649391
0.343386	0.133917	-0.580204
0.225659	0.139496	-0.596763
0.210878	0.098273	-0.473260
0.187204	-0.003858	-0.539485
0.287866	-0.038156	-0.605491
0.267837	-0.156179	-0.581421
0.323662	-0.213852	-0.499103
0.306914	-0.105796	-0.460060
0.402113	-0.108431	-0.551139
0.405445	-0.180166	-0.670616
0.470219	-0.073463	-0.701740
0.574719	-0.181590	-0.722741
0.601763	-0.086504	-0.793658
0.495351	-0.174564	-0.837964
0.577989	-0.126272	-0.918908
0.513185	-0.010458	-0.907658
0.396997	-0.012166	-0.842379
0.261130	-0.010497	-0.823986
0.278877	-0.136269	-0.833649
0.184933	-0.130203	-0.928362
0.263535	-0.217211	-0.947082
0.327245	-0.112090	-0.984400
0.283238	-0.133520	-1.119415
0.393683	-0.142830	-1.122932
0.375531	-0.021281	-1.096298
0.292821	0.016194	-1.174973
0.229212	0.007700	-1.060162
0.313150	0.078973	-1.011259
0.448480	0.133299	-1.059688
0.405554	0.163247	-1.165393
0.418887	0.286121	-1.050058
0.290626	0.241911	-1.066294
0.277480	0.308275	-1.163170
0.212418	0.221551	-1.197968
0.145241	0.209105	-1.102846
0.169683	0.243609	-0.987023
0.129037	0.334342	-1.178073
0.075481	0.360989	-1.080264
0.189827	0.389713	-1.065914
0.163719	0.487771	-1.136532
0.158432	0.510654	-1.026195
0.280990	0.492203	-1.053029
0.257221	0.432682	-0.944133
0.195386	0.339347	-0.827647
0.121440	0.419890	-0.870234
0.142082	0.465951	-0.765591
0.148819	0.581838	-0.800231
0.030312	0.530452	-0.743657
0.000492	0.524282	-0.856270
-0.036349	0.404823	-0.883516
-0.070244	0.397434	-0.771670
-0.052259	0.397761	-0.654724
0.043658	0.345862	-0.656811
-0.021755	0.246316	-0.589626
-0.067104	0.246294	-0.694361
0.031556	0.201647	-0.705715
0.007523	0.222782	-0.816934
-0.072669	0.210846	-0.906667
0.008060	0.157273	-0.949954
0.015666	0.085755	-0.846774
-0.065387	0.055587	-0.905060
-0.153220	0.100024	-0.829803
-0.117937	0.085664	-0.719340
-0.149687	0.096084	-0.597236
-0.054945	0.025904	-0.616570
-0.148224	-0.046220	-0.615054
-0.171862	-0.072528	-0.726168
-0.050024	-0.091372	-0.756652
0.022629	-0.129840	-0.669860
-0.072285	-0.184093	-0.645022
-0.120055	-0.237101	-0.767126
0.009876	-0.254900	-0.784252
-0.034923	-0.349307	-0.692376
-0.050571	-0.377878	-0.798794
-0.142153	-0.333745	-0.902187
-0.031504	-0.302040	-0.935915
-0.099193	-0.165788	-0.955062
-0.190891	-0.076308	-0.997852
-0.243900	-0.182461	-0.981160
-0.155407	-0.211154	-1.115770
-0.058364	-0.111331	-1.158268
0.021689	-0.214431	-1.130340
-0.055875	-0.324750	-1.169717
0.027456	-0.292968	-1.274492
0.014750	-0.153058	-1.305149
-0.115276	-0.206863	-1.278914
-0.109224	-0.236834	-1.413566
-0.189212	-0.337341	-1.325872
-0.278591	-0.233335	-1.385204
-0.312904	-0.266594	-1.237615
-0.390033	-0.158270	-1.306128
-0.325201	-0.116576	-1.188908
-0.232600	-0.096489	-1.298907
-0.247179	-0.018526	-1.434827
-0.103830	0.001033	-1.404390
-0.141275	0.118663	-1.484196
-0.024654	0.147132	-1.403977
-0.077864	0.117553	-1.274425
-0.139384	0.238412	-1.338327
-0.255752	0.171806	-1.375587
-0.238714	0.110947	-1.253501
-0.240532	0.108333	-1.105762
-0.228466	0.237515	-1.124534
-0.341064	0.205246	-1.033658
-0.404744	0.227477	-1.166762
-0.494102	0.193776	-1.077575
-0.446370	0.083139	-1.141623
-0.556828	0.135469	-1.203827
-0.447192	0.151359	-1.293723
-0.565974	0.144725	-1.366556
-0.476502	0.234405	-1.430025
-0.432459	0.331658	-1.339898
-0.570902	0.355935	-1.382055
-0.648431	0.280539	-1.290705
-0.543927	0.344290	-1.213544
-0.642991	0.446257	-1.225000
-0.561784	0.474259	-1.117751
-0.499573	0.520516	-1.231154
-0.340011	0.492896	-1.207593
-0.381432	0.441491	-1.079656
-0.392717	0.590559	-1.082545
-0.238166	0.565956	-1.029832
-0.302669	0.517194	-0.934609
-0.268414	0.646623	-0.897519
-0.294713	0.728438	-1.001411
-0.542178	0.810463	-0.997616
-0.459512	0.715049	-0.879267
-0.584283	0.668243	-0.881394
-0.503452	0.571696	-0.914042
-0.475562	0.588070	-0.774482
-0.427142	0.659446	-0.679141
-0.328757	0.602890	-0.717919
-0.367660	0.496440	-0.736025
-0.408779	0.527383	-0.610452
-0.325118	0.567358	-0.540588
-0.290847	0.482139	-0.574590
-0.321572	0.424569	-0.490830
-0.259743	0.468748	-0.410541
-0.197736	0.401316	-0.426729
-0.213988	0.306248	-0.397387
-0.307749	0.296781	-0.378700
-0.265083	0.265440	-0.291969
-0.218053	0.355943	-0.262788
-0.328554	0.389614	-0.270652
-0.377273	0.362238	-0.190708
-0.308489	0.361307	-0.128019
-0.268341	0.459305	-0.152527
-0.344228	0.502264	-0.123020
-0.335286	0.549553	-0.207677
-0.456017	0.512087	-0.186406
-0.458535	0.587889	-0.240375
-0.441004	0.537801	-0.318419
-0.523600	0.588849	-0.341329
-0.566828	0.518816	-0.289370
-0.564442	0.402660	-0.295945
-0.538723	0.417215	-0.387229
-0.686015	0.445663	-0.378236
-0.650053	0.499465	-0.460157
-0.622567	0.412663	-0.507443
-0.723533	0.359730	-0.501276
-0.773844	0.445687	-0.529933
-0.694969	0.473533	-0.625188
-0.658684	0.362646	-0.664764
-0.752940	0.292864	-0.696454
-0.790254	0.372538	-0.783699
-0.791701	0.273049	-0.844730
-0.799590	0.335281	-0.942745
-0.713961	0.391467	-0.898027
-0.668350	0.279673	-0.906200
-0.611367	0.337340	-0.818191
-0.613192	0.224139	-0.769742
-0.500602	0.212748	-0.826052
-0.495322	0.163725	-0.721276
-0.462718	0.269235	-0.666490
-0.374444	0.240176	-0.719113
-0.402709	0.153429	-0.647210
-0.437882	0.205885	-0.538003
-0.545978	0.196463	-0.549639
-0.577670	0.178645	-0.444225
-0.502613	0.080317	-0.468969
-0.553852	0.053560	-0.555690
-0.650535	0.042998	-0.506999
-0.688721	0.102181	-0.592411
-0.633294	0.035152	-0.705410
-0.586243	0.023211	-0.838311
-0.621453	0.000711	-0.947279
-0.691330	0.077227	-0.902031
-0.708605	-0.023278	-0.840126
-0.769423	-0.030997	-0.728413
-0.823334	0.044985	-0.792813
-0.875973	-0.029572	-0.890814
-0.858087	0.066764	-0.953212
-0.796877	-0.000356	-1.033924
-0.769186	-0.110058	-0.954144
-0.846816	-0.155869	-1.064561
-0.885128	-0.214207	-0.947173
-0.879068	-0.304466	-1.046564
-0.811763	-0.339852	-0.937684
-0.730251	-0.265907	-1.042264
-0.722909	-0.390987	-1.052414
-0.607495	-0.333285	-1.062766
-0.577908	-0.230924	-0.991157
-0.647064	-0.370418	-0.931528
-0.682118	-0.254480	-0.890548
-0.564329	-0.181840	-0.780806
-0.534264	-0.165653	-0.667404
-0.438847	-0.151155	-0.732706
-0.460495	-0.271815	-0.712690
-0.456641	-0.247947	-0.836825
-0.540902	-0.335030	-0.819313
-0.645987	-0.302525	-0.755803
-0.705667	-0.248828	-0.650936
-0.784275	-0.353088	-0.681995
-0.735224	-0.438736	-0.736670
-0.660902	-0.422628	-0.634726
-0.580146	-0.494449	-0.675777
-0.678639	-0.554160	-0.627457
-0.710360	-0.511576	-0.515674
-0.667626	-0.604049	-0.441267
-0.581365	-0.573041	-0.535853
-0.573679	-0.464515	-0.519211
-0.610126	-0.424638	-0.384291
-0.703750	-0.351848	-0.446541
-0.603085	-0.311714	-0.472635
-0.651827	-0.212765	-0.475335
-0.641956	-0.244393	-0.365945
-0.603974	-0.132817	-0.361905
-0.506830	-0.223075	-0.366673
-0.462144	-0.168632	-0.449288
-0.429343	-0.298937	-0.487179
-0.343703	-0.275644	-0.438095
-0.380780	-0.390975	-0.390958
-0.390365	-0.304394	-0.283079
-0.371985	-0.278083	-0.160246
-0.466434	-0.282673	-0.201939
-0.441159	-0.155027	-0.221780
-0.426689	-0.049800	-0.254057
-0.344878	-0.044741	-0.323328
-0.287605	-0.104250	-0.266299
-0.210820	-0.033263	-0.309089
-0.271906	0.037051	-0.261344
-0.211868	-0.018695	-0.171846
-0.298138	-0.055839	-0.134943
-0.340609	0.047038	-0.138755
-0.272550	0.075733	-0.078021
-0.342618	0.017049	0.002933
-0.390100	-0.074323	0.029269
-0.404426	-0.005847	0.089632
-0.446641	0.073401	0.018192
-0.488178	-0.009348	-0.051532
-0.564739	-0.038932	0.030853
-0.589607	-0.062285	-0.064174
-0.585975	0.050406	-0.026911
-0.571189	0.069617	-0.134620
-0.551133	0.161386	-0.173944
-0.511403	0.187983	-0.087949
-0.595978	0.210183	-0.015319
-0.659906	0.183871	-0.091095
-0.697257	0.288294	-0.119915
-0.723680	0.220061	-0.202401
-0.804198	0.273498	-0.163797
-0.794605	0.248849	-0.052913
-0.787529	0.145140	-0.025048
-0.864255	0.160993	-0.095998
-0.781021	0.078767	-0.161618
-0.735115	0.020170	-0.248174
-0.828168	0.074260	-0.267159
-0.871678	0.002947	-0.192544
-0.798822	-0.044918	-0.123407
-0.895737	-0.051102	-0.038983
-0.820854	-0.048698	0.021322
-0.828761	-0.140210	-0.029983
-0.764958	-0.208038	-0.107568
-0.898741	-0.200353	-0.149676
-0.828827	-0.173902	-0.232056
-0.936246	-0.218356	-0.293465
-0.886755	-0.323024	-0.277970
-0.938339	-0.320702	-0.404190
-1.044172	-0.347897	-0.341766
-0.985347	-0.452970	-0.372169
-1.097092	-0.457882	-0.408226
-1.024768	-0.434993	-0.518364
-1.119513	-0.338672	-0.525406
-1.225674	-0.403576	-0.527882
-1.152712	-0.449387	-0.634300
-1.266085	-0.396898	-0.671019
-1.203617	-0.290327	-0.649080
-1.150269	-0.339854	-0.760544
-1.044815	-0.349637	-0.693174
-1.076025	-0.222468	-0.705935
-1.008367	-0.251281	-0.609612
-1.028962	-0.181851	-0.485934
-0.950542	-0.085577	-0.509311
-1.062265	-0.086725	-0.558926
-1.182705	-0.113650	-0.547341
-1.279700	-0.173668	-0.500652
-1.186319	-0.170911	-0.426501
-1.071177	-0.034673	-0.389385
-1.144151	-0.068677	-0.307779
-1.219608	0.016919	-0.394989
-1.308159	-0.039610	-0.336919
-1.284224	0.079175	-0.289524
-1.246509	-0.000405	-0.208669
-1.111626	0.266582	-0.206251
-1.110299	0.153976	-0.195468
-1.038401	0.160872	-0.292567
-1.112934	0.191181	-0.391804
-1.017317	0.250321	-0.420595
-1.125787	0.307367	-0.483700
-1.266613	0.332970	-0.460883
-1.357300	0.354322	-0.650474
-1.214231	0.322441	-0.623476
-1.196509	0.200661	-0.563439
-1.087559	0.257330	-0.615685
-1.038641	0.140841	-0.567848
-1.082724	0.101732	-0.681219
-1.207088	0.052147	-0.683675
-1.183961	0.117821	-0.790642
-1.299967	0.067048	-0.827488
-1.359166	0.007676	-0.727236
-1.275687	-0.083672	-0.782334
-1.361734	-0.077793	-0.896116
-1.171152	-0.047431	-0.904645
-1.083996	-0.032063	-0.804877
