-3.913368	-0.730664	-7.443827
-0.734511	-1.096042	1.450193
-3.383183	1.499658	1.903475
-1.171656	-1.009865	1.484102
-0.877765	-1.042666	1.417446
-1.062157	-0.865058	1.256968
-1.185414	-0.718527	1.106428
-1.193983	-0.505006	0.920502
-1.146682	-0.374549	1.080432
-1.163346	-0.231064	0.947378
-1.260644	-0.326106	0.795006
-1.341913	-0.344939	0.657770
-1.216962	-0.192813	0.624517
-1.332997	-0.126355	0.733407
-1.494620	-0.045610	0.647382
-1.639863	-0.169400	0.769290
-1.558218	-0.310499	0.903708
-1.722488	-0.403482	0.858334
-1.815087	-0.237944	0.903957
-1.895543	-0.330334	1.047306
-1.755448	-0.414864	1.136200
-1.682107	-0.248236	1.149925
-1.819640	-0.115669	1.131393
-1.687699	-0.036670	1.022088
-1.588564	0.134318	0.928405
-1.550851	0.274076	0.800065
-1.732992	0.355178	0.797202
-1.851959	0.260467	0.660430
-2.008554	0.257398	0.761571
-1.992465	0.413938	0.821050
-2.000884	0.408953	0.645032
-1.872056	0.503255	0.524540
-1.991893	0.692747	0.483484
-1.822067	0.686221	0.461632
-1.668156	0.671475	0.584840
-1.787857	0.741014	0.729536
-1.708185	0.897662	0.748679
-1.851544	1.014992	0.674363
-1.854737	1.046710	0.869262
-2.024188	1.005743	0.943861
-1.984156	0.844508	1.042378
-1.932953	0.977354	1.177226
-1.730903	1.057890	1.250216
-1.684558	0.948583	1.155111
-1.705871	0.797712	1.335379
-1.529814	0.776095	1.431674
-1.504568	0.744472	1.276895
-1.606577	0.589678	1.181492
-1.678656	0.433647	1.294365
-1.883728	0.437600	1.376673
-1.801658	0.446588	1.520870
-1.949516	0.274091	1.559984
-2.039114	-0.166081	2.369700
-1.772394	0.023388	1.708579
-1.674750	0.086518	1.532224
-1.557343	0.204698	1.651652
-1.467296	0.007889	1.731036
-1.447688	-0.095364	1.555199
-1.334030	0.076093	1.539374
-1.418145	0.078754	1.373242
-1.367978	0.269849	1.397655
-1.301819	0.346036	1.251137
-1.243402	0.423911	1.059918
-1.238363	0.609905	0.993097
-1.084450	0.584298	0.866081
-1.173738	0.583472	0.696620
-1.228825	0.818836	0.643890
-1.324333	1.045741	0.501535
-1.321166	1.219108	0.592901
-1.333506	1.167733	0.749357
-1.297590	1.336351	0.843172
-1.379815	1.290429	0.991669
-1.288889	1.425111	1.043960
-1.240319	1.293103	1.152370
-1.114125	1.290009	1.015413
-1.152739	1.129860	1.003121
-1.026728	1.044811	1.035152
-0.871904	1.145378	0.926278
-0.878834	1.016537	0.834382
-0.934468	1.123913	0.684051
-0.835183	1.030392	0.575160
-0.724691	1.152336	0.599578
-0.850863	1.239260	0.445099
-0.720378	1.303236	0.327358
-0.870467	1.421367	0.326630
-0.787361	1.536130	0.449766
-0.951825	1.565313	0.521856
-0.934555	1.732760	0.596911
-0.880569	1.542342	0.746649
-0.828789	1.655618	0.846431
-0.684354	1.645447	0.749514
-0.628892	1.508471	0.812472
-0.477890	1.487511	0.670096
-0.368501	1.518684	0.810489
-0.367648	1.695112	0.750878
-0.351327	1.764561	0.945031
-0.463355	1.839882	1.068147
-0.590526	1.789670	1.156417
-0.490541	1.636335	1.189257
-0.423030	1.677021	1.360125
-0.268380	1.665699	1.316718
-0.077473	1.520346	1.350108
-0.170009	1.431743	1.193509
-0.264555	1.361449	1.327202
-0.314757	1.204113	1.227854
-0.461488	1.241610	1.134843
-0.606593	1.165879	1.278295
-0.667355	1.311787	1.316633
-0.822013	1.312175	1.452893
-0.763331	1.433816	1.561124
-0.726235	1.330598	1.684845
-0.533134	1.267285	1.670375
-0.483133	1.078672	1.649020
-0.610650	1.030114	1.805173
-0.736174	0.967396	1.649895
-0.934392	0.937140	1.722834
-0.892373	0.805491	1.836240
-0.792790	0.642871	1.895645
-0.810882	0.474600	1.970496
-0.935275	0.572797	2.069348
-1.032255	0.581647	1.923933
-1.026031	0.388610	1.898338
-0.922639	0.477669	1.748073
-0.958487	0.612630	1.593680
-0.884210	0.697502	1.419150
-0.736678	0.608149	1.461295
-0.627964	0.716083	1.364690
-0.694541	0.764644	1.209447
-0.579441	0.630518	1.137423
-0.696507	0.499858	1.095404
-0.747415	0.322229	1.049034
-0.797698	0.314180	1.216673
-0.811645	0.151695	1.287736
-0.866410	-0.030716	1.253866
-0.857667	-0.063622	1.499088
-0.899073	-0.157199	1.674911
-0.789732	-0.003431	1.713146
-0.686749	-0.165051	1.783341
-0.669178	-0.173004	1.584769
-0.577713	0.005317	1.461685
-0.395948	0.006294	1.360871
-0.476628	0.070938	1.198387
-0.330680	0.208294	1.188522
-0.407267	0.329890	1.323154
-0.278519	0.361163	1.481719
-0.408111	0.387681	1.580509
-0.407225	0.225473	1.731853
-0.265411	0.132491	1.771965
-0.382310	0.140916	1.900311
-0.338999	0.315082	1.894535
-0.329680	0.499793	1.838624
-0.176264	0.537050	1.736059
-0.069264	0.393634	1.907093
0.005291	0.261287	1.808200
0.126579	0.347320	1.912610
0.085174	0.489785	1.775212
0.067255	0.692867	1.844799
0.183872	0.783532	1.744987
0.009276	0.844704	1.682192
-0.062778	0.822498	1.496030
0.102350	0.850695	1.385054
0.225694	0.727686	1.397904
0.095540	0.578190	1.343682
-0.036108	0.635322	1.221396
0.032821	0.488389	1.086149
0.137502	0.625533	1.024991
0.337503	0.607462	1.062353
0.350903	0.621526	0.888354
0.418356	0.777756	0.964763
0.302214	0.908167	1.032084
0.274537	0.900321	0.843030
0.075256	0.937973	0.915295
0.042855	0.938778	0.750652
-0.132316	0.964501	0.768516
-0.160647	0.788305	0.767260
-0.162692	0.806682	0.580305
-0.009866	0.681019	0.575958
-0.012301	0.525265	0.657227
-0.122590	0.516967	0.533625
-0.344938	0.496399	0.525788
-0.393132	0.499879	0.722560
-0.458560	0.357620	0.646999
-0.296150	0.244573	0.704352
-0.273420	0.153503	0.537339
-0.430818	0.079581	0.604892
-0.327998	-0.090881	0.750372
-0.300812	-0.235369	0.660298
-0.365618	-0.435323	0.540863
-0.487874	-0.418741	0.705634
-0.362772	-0.425413	0.877759
-0.441622	-0.561252	0.940667
-0.265635	-0.658386	0.849742
-0.397803	-0.759782	0.741379
-0.400307	-0.967076	0.834673
-0.211029	-0.966314	0.707695
-0.217483	-0.900795	0.516372
-0.312069	-1.114022	0.530986
-0.103019	-1.150699	0.480666
-0.162230	-1.270798	0.683090
0.062267	-1.256659	0.652573
0.018807	-1.083329	0.794495
0.055105	-0.904821	0.646701
0.035210	-0.717993	0.755299
0.228372	-0.591974	0.699268
0.100731	-0.556684	0.556986
0.067118	-0.369791	0.676015
0.250092	-0.278296	0.663553
0.147354	-0.165563	0.527936
0.313939	-0.044490	0.531891
0.214135	0.104521	0.515611
0.133923	0.106386	0.683327
0.327287	0.163884	0.748584
0.336214	0.026186	0.856666
0.185019	0.100585	0.991743
0.238800	0.053588	1.154116
0.045069	-0.017503	1.124984
0.057205	-0.196203	1.044860
0.196671	-0.262976	1.109232
0.099938	-0.210202	1.274842
-0.065270	-0.274966	1.231413
-0.050416	-0.479183	1.246763
-0.079989	-0.513167	1.452631
-0.209850	-0.472406	1.574466
-0.304238	-0.491506	1.411640
-0.348633	-0.650444	1.515783
-0.168759	-0.718208	1.530728
-0.184195	-0.684818	1.335944
-0.228102	-0.936395	1.323687
-0.290091	-1.119877	1.230381
-0.091290	-1.164104	1.220410
-0.083168	-1.335778	1.338286
-0.272207	-1.297520	1.430344
-0.166530	-1.135535	1.518829
-0.580773	-1.115964	1.458652
0.074969	-0.914835	1.332414
0.235550	-0.744412	1.285314
0.259295	-0.793801	1.120236
0.383868	-0.901906	1.250121
0.248421	-1.016237	1.195236
0.232749	-1.100506	1.434558
0.254767	-1.290831	1.562388
0.126126	-1.218938	1.734426
0.331235	-1.229935	1.793988
0.300973	-1.012597	1.724264
0.373391	-0.819162	1.628763
0.189610	-0.782309	1.646548
0.156820	-0.832926	1.834582
0.352378	-0.753544	1.883128
0.249304	-0.555398	1.867033
0.220183	-0.402504	1.771413
0.363002	-0.430851	1.581608
0.537611	-0.442853	1.746970
0.580886	-0.381255	1.935398
0.695514	-0.269148	1.807815
0.489106	-0.134412	1.752861
0.413610	-0.028527	1.620231
0.572507	0.020595	1.679330
0.610078	-0.194981	1.518711
0.773978	-0.111709	1.515059
0.662562	-0.020098	1.349566
0.764734	-0.172198	1.255479
0.621678	-0.206292	1.106780
0.613278	-0.351483	1.249927
0.670684	-0.512198	1.112173
0.705131	-0.441916	0.919293
0.876687	-0.385000	1.050876
0.902953	-0.470024	1.259171
0.930656	-0.701850	1.212888
0.765376	-0.738119	1.329850
0.788036	-0.620567	1.508839
1.009899	-0.646406	1.563015
0.949837	-0.727771	1.733113
0.860621	-0.893255	1.648849
1.043750	-0.956013	1.634873
0.989758	-1.059611	1.871377
1.116832	-1.244417	1.822703
0.901548	-1.299362	1.935091
0.902838	-1.448993	1.753382
0.828040	-1.237752	1.678144
1.046056	-1.305731	1.532542
0.974275	-1.161498	1.334768
0.770179	-1.098658	1.253589
0.729122	-1.335780	1.371337
0.818915	-1.544181	1.389970
0.791130	-1.457477	1.141130
0.558074	-1.585372	1.179414
0.623031	-1.672203	0.957374
0.727971	-1.834408	1.136265
0.915361	-1.703670	0.995062
0.892234	-1.893355	0.831057
1.133275	-1.913624	0.934000
1.068787	-1.936271	1.187348
1.181107	-1.729329	1.290518
1.377169	-1.779730	1.115267
1.402573	-1.522022	1.172077
1.188143	-1.499970	1.065868
1.349985	-1.597363	0.847924
1.150093	-1.571118	0.722845
1.202952	-1.338016	0.827034
0.993830	-1.180393	0.861354
0.824173	-1.288663	0.781191
0.856544	-1.426049	0.545280
0.983704	-1.244880	0.540055
0.854106	-1.011289	0.559892
0.653572	-1.023186	0.472745
0.678504	-1.204595	0.338335
0.866640	-1.148515	0.255522
0.727739	-0.985763	0.195796
0.810378	-0.836975	0.327882
0.708216	-0.643236	0.363341
0.860125	-0.647580	0.499190
1.001688	-0.573870	0.343232
1.147436	-0.764767	0.350309
1.223687	-0.975244	0.437807
1.186159	-0.981463	0.210097
1.320589	-0.918634	0.007538
1.452938	-0.816428	0.146906
1.479054	-1.065120	0.200638
1.390034	-1.236340	0.021764
1.387113	-1.350485	0.232314
1.623908	-1.347763	0.127069
1.754055	-1.180339	-0.012567
1.807275	-1.060899	0.177934
1.942558	-1.255849	0.184791
1.836845	-1.402665	0.336968
1.660048	-1.292467	0.457519
1.815267	-1.091272	0.494051
1.612078	-1.043665	0.609717
1.708101	-1.200721	0.776947
1.866883	-1.379731	0.722195
1.970436	-1.217541	0.880739
2.117584	-1.210878	0.658063
2.167558	-0.999338	0.546641
2.254561	-0.972456	0.862959
2.005221	-0.890111	0.801918
1.867125	-0.745665	0.645681
1.786176	-0.632191	0.455313
1.682929	-0.456220	0.460603
1.720006	-0.491697	0.673506
1.553198	-0.642931	0.622188
1.410110	-0.473301	0.607718
1.293372	-0.366873	0.790878
1.422891	-0.429043	0.916339
1.299966	-0.639807	0.910831
1.402429	-0.840788	0.885494
1.505267	-0.893836	1.089409
1.611939	-0.707709	1.053760
1.469544	-0.575277	1.228229
1.601758	-0.744755	1.334518
1.715622	-0.636576	1.506865
1.575499	-0.757550	1.619670
1.766053	-0.763456	1.691408
1.768476	-0.894759	1.499860
1.962746	-0.793037	1.457037
1.898419	-0.763935	1.239687
1.875319	-0.544121	1.206399
2.162277	-0.554157	1.241107
2.082653	-0.438917	1.091582
1.879268	-0.299402	1.063867
1.711147	-0.203922	1.165627
1.894005	-0.247856	1.363320
2.097434	-0.277324	1.434019
1.965023	-0.259853	1.615436
1.884420	-0.047458	1.563327
1.745291	-0.181721	1.682795
1.614874	-0.179556	1.505627
1.393551	-0.032673	1.609191
1.469949	0.117875	1.569231
1.529549	0.058488	1.341795
1.346316	-0.067985	1.315599
1.255384	0.119135	1.334233
1.200813	0.091022	1.106969
1.317961	0.195104	0.966454
1.210688	0.376525	0.912828
1.055094	0.419393	1.047208
1.220810	0.455057	1.125422
1.359078	0.624546	1.175235
1.441757	0.513661	1.276411
1.580120	0.469449	1.059083
1.678854	0.413252	1.216209
1.798095	0.285949	1.135113
2.118843	0.136870	1.101627
2.287026	-0.034324	1.110282
2.418608	0.135167	1.041637
2.488681	0.177888	1.257753
2.270057	0.171567	1.369469
2.346228	0.352700	1.472332
2.130703	0.395937	1.368769
2.284381	0.480144	1.206725
2.270460	0.670885	1.354502
2.404060	0.681536	1.157410
2.187450	0.754154	1.095948
2.003837	0.645059	1.204116
1.993883	0.590883	1.012010
2.204000	0.434123	0.928090
2.433731	0.483784	0.825818
2.383684	0.302778	0.691545
2.369830	0.468800	0.541339
2.153714	0.477999	0.629606
1.891255	0.375618	0.669136
1.753778	0.226219	0.729807
1.822370	0.166291	0.534618
2.061581	0.171066	0.467621
2.045488	0.061119	0.654594
2.056932	-0.143276	0.548988
2.293245	-0.079549	0.583643
2.505730	0.003623	0.411510
2.692421	-0.003737	0.584776
2.782695	-0.152832	0.401210
2.693695	-0.296691	0.603914
2.650511	-0.454970	0.392535
2.426703	-0.411672	0.477472
2.370545	-0.470357	0.179867
2.368163	-0.237685	0.206048
2.630588	-0.289438	0.076275
2.662825	0.063549	0.002282
2.398441	0.122059	0.032519
2.517150	0.344670	-0.048019
2.342705	0.345081	-0.294002
2.592983	0.201522	-0.363441
2.558148	-0.054450	-0.426336
2.368025	0.098216	-0.577323
1.360844	0.906802	-2.053414
2.246273	-0.204578	-0.524633
2.257313	-0.117229	-0.259026
2.048556	-0.278749	-0.238905
1.922234	-0.120344	-0.407928
2.021017	0.110646	-0.390294
2.011381	0.048173	-0.130613
1.883085	0.273310	-0.139687
1.820592	0.251461	0.072184
1.664751	0.093109	-0.137986
1.646421	0.008528	0.056238
1.338542	-0.038765	-0.040611
1.379783	0.088680	0.190454
1.305633	0.216267	0.371488
1.094243	0.205508	0.411741
0.972794	0.264494	0.274672
0.966500	0.442867	0.355675
0.894172	0.543244	0.228395
1.117839	0.529630	0.175968
1.141110	0.612335	0.026789
1.325007	0.512299	-0.018727
1.473151	0.497353	0.109745
1.590893	0.644151	-0.014248
1.480785	0.800241	-0.011721
1.366829	0.876311	0.148446
1.576209	0.841681	0.235726
1.614883	0.694403	0.359881
1.430939	0.762136	0.416467
1.250012	0.765259	0.497269
1.152377	0.911672	0.398348
1.052217	0.941255	0.581549
0.945524	1.098078	0.530853
1.027823	1.109584	0.713202
1.203868	1.202819	0.575433
1.321936	1.239816	0.754810
1.427412	1.134150	0.602466
1.502069	1.024165	0.755108
1.709886	1.091195	0.652478
1.681042	1.263163	0.819669
1.835739	1.329002	0.743151
1.654362	1.428884	0.657871
1.724446	1.359239	0.475344
1.648686	1.544767	0.401494
1.464727	1.534914	0.415599
1.476239	1.375778	0.236370
1.547782	1.487579	0.077536
1.584179	1.286879	0.026001
1.753025	1.246926	0.134977
1.866507	1.342673	-0.045776
1.879526	1.127104	-0.074852
2.164771	1.105750	-0.118439
2.394267	1.122779	-0.071750
2.351978	0.910367	-0.159964
2.342154	0.874727	0.077923
2.102357	0.853468	0.026439
2.145512	1.039441	0.206163
2.225996	1.245580	0.311282
2.310088	1.513152	0.299018
2.576511	1.751788	0.465060
2.447104	2.141161	0.059598
2.720536	2.486192	0.550248
3.506310	2.020010	-0.311883
2.751364	1.907849	-0.433417
2.476677	1.160798	-0.793111
2.264219	0.824947	-0.752895
2.139906	0.664406	-0.608507
1.180062	0.893357	-2.056101
3.764032	0.682951	-1.367820
3.376625	0.578423	-1.317828
3.960429	1.195198	-3.350568
4.116152	0.504804	-3.232435
1.691594	1.444634	-1.432616
2.032218	1.440370	-1.684650
1.843819	2.113998	-1.630245
2.019002	2.396212	-1.759116
1.166656	3.292485	-2.356323
0.920530	2.632141	-2.726838
-0.224925	2.583545	-0.905353
-0.196977	2.109357	-0.820189
-0.170789	1.926913	-1.008926
-0.223197	2.031258	-1.216058
1.045783	2.663298	-0.898260
1.384961	1.972689	-0.966713
1.121957	2.153355	-1.166837
0.940444	1.943673	-0.927780
0.961807	1.771494	-1.144398
0.712106	1.783043	-1.165591
0.784729	1.816507	-1.364214
0.516256	2.230604	-1.173153
0.397617	2.141124	-1.531254
0.406969	2.478018	-1.870294
-0.056454	3.414389	-1.865534
-0.432731	2.797935	-1.707682
0.318791	3.092853	-0.862768
0.604796	2.478486	-0.310650
0.265152	1.889838	-0.403409
0.123751	1.734110	-0.325811
-0.049253	1.658951	-0.502417
-0.092744	1.476101	-0.409781
-0.097964	1.421471	-0.586841
0.103608	1.365403	-0.592327
0.274996	1.455829	-0.606692
0.294492	1.454444	-0.785999
0.459753	1.413718	-0.724104
0.663302	1.425043	-0.729042
0.809477	1.401232	-0.848319
0.931792	1.420820	-0.672930
1.005681	1.241257	-0.756489
0.982381	1.192527	-0.577365
0.765844	1.176048	-0.541448
0.561184	1.175903	-0.498737
0.524042	1.283356	-0.288946
0.530775	1.071491	-0.250868
0.346384	1.044207	-0.290521
0.281856	0.995055	-0.133399
0.210272	1.124087	-0.128454
0.092004	1.068295	-0.238284
-0.018433	0.825563	-0.235127
-0.096298	0.943556	-0.328099
-0.058621	0.920055	-0.528414
0.105758	0.915053	-0.564723
0.160612	0.748636	-0.557691
0.310122	0.685808	-0.525668
0.423568	0.571846	-0.576891
0.584987	0.453355	-0.658560
0.653825	0.262359	-0.713892
0.748028	0.300276	-0.902953
0.900723	0.234071	-0.782843
0.930311	0.391196	-0.694496
1.140139	0.293589	-0.818279
1.193806	0.423215	-0.973411
1.011368	0.368525	-1.023744
0.953544	0.568961	-0.902604
1.098496	0.677040	-0.802780
1.009085	0.792609	-0.915520
0.869400	0.738022	-0.751269
0.665954	0.773929	-0.748793
0.621093	0.809604	-0.908664
0.554666	0.681672	-0.996173
0.391730	0.704810	-0.967281
0.328787	0.875715	-0.903975
0.351932	1.019686	-1.003281
0.496476	1.145425	-1.141458
0.664777	1.005899	-1.190171
0.776138	1.029242	-1.340474
0.893761	0.961059	-1.233782
0.817720	0.769906	-1.294520
1.026055	0.730308	-1.311539
1.117624	0.803701	-1.456165
1.154487	0.590555	-1.464157
1.229688	0.449311	-1.620812
1.241913	0.336951	-1.454584
1.117481	0.243922	-1.594238
1.039233	0.206144	-1.403081
0.862788	0.280655	-1.473664
0.973075	0.424563	-1.421470
0.982419	0.452482	-1.644219
0.955999	0.644163	-1.696652
0.785129	0.603262	-1.610306
0.665470	0.549292	-1.742108
0.809500	0.483724	-1.890018
0.799238	0.664888	-1.944528
1.000378	0.834412	-1.981617
0.710443	0.852235	-1.786193
0.587391	0.852054	-1.642879
0.481430	0.722168	-1.559101
0.428374	0.851406	-1.443803
0.267017	0.836764	-1.352878
0.225175	1.016264	-1.415448
0.281000	1.051662	-1.586996
0.181982	1.136523	-1.713326
0.028895	1.105643	-1.784934
0.043142	1.017417	-1.641410
0.166800	0.925475	-1.766095
0.314388	0.938369	-1.906175
0.219297	0.782654	-1.986436
0.427593	0.742121	-2.079901
0.311591	0.712713	-2.238299
0.411450	0.533775	-2.191370
0.227130	0.539997	-2.101631
0.359142	0.493613	-1.935603
0.207257	0.552587	-1.797119
0.079643	0.617046	-1.632408
0.012318	0.627970	-1.453651
-0.121055	0.788887	-1.387898
-0.174971	0.645487	-1.335388
-0.230391	0.581799	-1.507563
-0.328494	0.761092	-1.644691
-0.444201	0.700607	-1.544254
-0.425170	0.551635	-1.668319
-0.389780	0.597796	-1.843415
-0.225283	0.552443	-1.755366
-0.253773	0.381667	-1.685162
-0.261102	0.240105	-1.891963
-0.153513	0.357196	-1.981093
-0.044941	0.272924	-1.788232
0.012006	0.137879	-1.968067
0.164115	0.138625	-2.072121
0.173296	-0.046045	-2.051604
0.160239	-0.008443	-1.864058
0.225378	0.168544	-1.800983
0.383233	0.128674	-1.961837
0.457974	-0.005045	-2.071597
0.441722	-0.091429	-1.902140
0.433587	-0.132252	-1.717312
0.607523	-0.133820	-1.766958
0.632020	0.039243	-1.839359
0.514214	0.077753	-1.690347
0.506497	0.093205	-1.471387
0.336315	0.152199	-1.499414
0.372264	0.330662	-1.452301
0.202459	0.311568	-1.409364
0.308277	0.374696	-1.251530
0.426066	0.243892	-1.212578
0.296962	0.097182	-1.204373
0.210168	0.198564	-1.070861
0.049152	0.270175	-1.017318
-0.023365	0.306525	-1.169465
-0.156510	0.125808	-1.119676
-0.161721	0.139529	-1.288429
-0.028909	0.040036	-1.272864
-0.074866	-0.059255	-1.416458
0.096897	-0.069750	-1.511947
0.033149	-0.208837	-1.589536
0.041504	-0.276863	-1.401545
0.207184	-0.273876	-1.428716
0.202472	-0.194476	-1.249247
0.070418	-0.216465	-1.121371
-0.049008	-0.208102	-0.967110
0.096956	-0.099318	-0.928461
0.264110	-0.140477	-0.880466
0.199474	-0.271664	-0.774835
0.259854	-0.389584	-0.928981
0.292104	-0.526197	-0.804809
0.406584	-0.405502	-0.783478
0.508242	-0.477582	-0.977672
0.590409	-0.306292	-0.965120
0.540470	-0.270798	-1.166466
0.670031	-0.377480	-1.163852
0.618407	-0.593870	-1.225589
0.534561	-0.487879	-1.344756
0.328521	-0.573893	-1.249638
0.215285	-0.714537	-1.167019
0.130187	-0.640397	-1.307954
0.260461	-0.746557	-1.485394
0.213539	-0.944832	-1.545471
0.180884	-1.028085	-1.362519
0.375664	-0.960489	-1.332560
0.408748	-1.117087	-1.480085
0.586136	-0.984115	-1.445606
0.501492	-0.838721	-1.584667
0.556206	-1.009593	-1.720817
0.354985	-0.997085	-1.788602
0.456566	-0.901178	-1.978965
0.585525	-0.757188	-1.861860
0.476121	-0.577370	-1.770843
0.402000	-0.607166	-1.977983
0.275423	-0.719674	-1.820002
0.050791	-0.813615	-1.839970
0.020083	-0.904755	-2.041018
0.112366	-0.736436	-2.168715
-0.037244	-0.581133	-2.249955
-0.147952	-0.684729	-2.097428
0.033791	-0.537123	-2.007851
-0.157568	-0.427185	-1.994449
-0.144247	-0.576028	-1.821757
-0.201120	-0.551658	-1.597034
-0.303867	-0.378287	-1.594905
-0.437877	-0.532564	-1.636626
-0.601513	-0.550744	-1.781428
-0.509102	-0.402716	-1.895888
-0.676082	-0.491545	-1.984347
-0.512605	-0.600372	-2.055606
-0.468805	-0.730464	-1.891936
-0.463381	-0.900649	-2.027913
-0.675222	-0.868524	-2.060993
-0.765752	-0.845160	-1.866719
-0.663854	-1.044981	-1.832028
-0.628688	-0.894265	-1.672654
-0.420280	-0.995798	-1.751978
-0.365277	-0.911677	-1.554597
-0.296997	-1.112713	-1.521065
-0.491652	-1.148425	-1.503511
-0.493352	-1.181445	-1.250355
-0.535293	-0.963345	-1.269394
-0.335137	-0.957939	-1.194685
-0.431306	-0.754166	-1.070023
-0.276721	-0.692618	-1.143977
-0.197208	-0.740578	-0.946993
-0.127195	-0.928754	-0.973765
-0.384588	-1.193458	-0.597653
-0.311749	-0.980625	-0.702405
-0.437620	-1.047970	-0.851399
-0.555221	-0.940563	-0.727089
-0.442671	-0.743665	-0.708966
-0.459616	-0.647418	-0.544347
-0.293899	-0.594756	-0.602266
-0.374066	-0.510255	-0.732277
-0.452302	-0.405265	-0.567786
-0.430483	-0.327653	-0.417452
-0.312077	-0.268210	-0.490656
-0.382942	-0.112871	-0.541104
-0.250225	-0.031211	-0.613553
-0.297974	0.098328	-0.565381
-0.195875	0.172885	-0.454882
-0.148937	0.100711	-0.321289
-0.253093	0.217053	-0.251251
-0.363589	0.076857	-0.239133
-0.474849	0.215923	-0.168035
-0.590419	0.106358	-0.110728
-0.616890	0.017473	-0.241130
-0.701327	0.167725	-0.288591
-0.706404	0.144820	-0.429714
-0.585253	0.215089	-0.492089
-0.683898	0.376204	-0.486503
-0.590151	0.440596	-0.391429
-0.550517	0.568671	-0.463967
-0.427554	0.483921	-0.538038
-0.498173	0.529072	-0.669914
-0.508675	0.381048	-0.783929
-0.488529	0.488447	-0.898548
-0.688988	0.608896	-0.918653
-0.770689	0.466028	-0.876992
-0.846970	0.461179	-1.018300
-0.763018	0.297962	-1.022584
-0.687680	0.351803	-1.153058
-0.874374	0.311461	-1.224415
-0.915720	0.122075	-1.222574
-0.953365	0.093314	-1.411183
-1.044414	-0.062981	-1.482099
-0.981912	-0.222528	-1.542797
-0.947710	-0.154496	-1.709814
-0.841707	-0.042855	-1.622885
-0.757376	-0.188165	-1.538687
-0.738649	-0.060714	-1.409603
-0.842871	-0.177525	-1.281249
-0.687323	-0.300291	-1.250209
-0.700557	-0.199247	-1.105089
-0.558662	-0.068361	-1.116600
-0.474489	-0.211688	-1.102409
-0.570405	-0.174052	-0.955856
-0.685373	-0.006235	-0.910904
-0.743136	-0.100218	-0.781322
-0.854575	-0.092438	-0.655378
-0.959278	0.015082	-0.792395
-0.964140	-0.102180	-0.896024
-1.024128	-0.241490	-0.820944
-0.888495	-0.352262	-0.840900
-0.948119	-0.426502	-1.041448
-0.977792	-0.506717	-1.233919
-0.975296	-0.646528	-1.353902
-0.811410	-0.648714	-1.282169
-0.904645	-0.678398	-1.127260
-0.936252	-0.647680	-0.925911
-1.059878	-0.755472	-0.968167
-0.931614	-0.927454	-1.023409
-1.099184	-0.992455	-1.045499
-1.023177	-0.964005	-1.230916
-1.182022	-0.813150	-1.186231
-1.377967	-0.916236	-1.215964
-1.313879	-1.047609	-1.353073
-1.228774	-0.886636	-1.467635
-1.390837	-0.946693	-1.570132
-1.519109	-0.831647	-1.447153
-1.511218	-0.727784	-1.622824
-1.325139	-0.663671	-1.578403
-1.380793	-0.481130	-1.530797
-1.550362	-0.599767	-1.423944
-1.383030	-0.628806	-1.321341
-1.304498	-0.364556	-1.171318
-1.290164	-0.240114	-1.050580
-1.462600	-0.232194	-1.066680
-1.383955	-0.177812	-1.228085
-1.490986	-0.311578	-1.294755
-1.538415	-0.456778	-1.190373
-1.416618	-0.546869	-1.055815
-1.468950	-0.470660	-0.870500
-1.665573	-0.562831	-0.946346
-1.583788	-0.720606	-0.947857
-1.595990	-0.662620	-0.753850
-1.750436	-0.692550	-0.696399
-1.643557	-0.862160	-0.732613
-1.672437	-0.886892	-0.539312
-1.543860	-0.775070	-0.506866
-1.481511	-0.947824	-0.576022
-1.404549	-0.839305	-0.686681
-1.333767	-0.632592	-0.607935
-1.165372	-0.714241	-0.513767
-1.250032	-0.730314	-0.363004
-1.347579	-0.590276	-0.307622
-1.177900	-0.535485	-0.320466
-1.004729	-0.485515	-0.342395
-1.116757	-0.349591	-0.477049
-1.278163	-0.308074	-0.518732
-1.492379	-0.247507	-0.526547
-1.541069	-0.386752	-0.458275
-1.572872	-0.292432	-0.287778
-1.356656	-0.235665	-0.246147
-1.142897	-0.208009	-0.164811
-1.265888	-0.112008	-0.160443
-1.175701	-0.009308	-0.329404
-1.284879	0.083652	-0.435213
-1.386298	0.173172	-0.328431
-1.517854	0.100182	-0.375583
-1.575561	0.277157	-0.318659
-1.656357	0.166651	-0.234502
-1.513533	0.098242	-0.108762
-1.548646	0.250925	-0.038078
-1.354248	0.267064	-0.050958
-1.400267	0.419626	-0.086642
-1.201735	0.456078	-0.043119
-1.065202	0.526875	0.025929
-1.141221	0.612134	-0.069874
-1.056489	0.462403	-0.182596
-1.192584	0.486298	-0.312726
-1.220436	0.512444	-0.478834
-1.072740	0.467773	-0.463305
-1.093764	0.634090	-0.386740
-1.236376	0.733034	-0.348662
-1.158296	0.881727	-0.352653
-1.084510	0.866102	-0.492976
-1.212894	0.820007	-0.627578
-1.319587	0.903666	-0.543705
-1.472145	0.809049	-0.488733
-1.615325	0.864189	-0.421026
-1.516661	0.990794	-0.438074
-1.555059	0.964458	-0.608230
-1.520116	0.862873	-0.739659
-1.680883	0.849972	-0.695323
-1.631896	0.651528	-0.637234
-1.798335	0.596874	-0.603739
-1.675597	0.480264	-0.598149
-1.664398	0.524511	-0.773602
-1.495205	0.522626	-0.768995
-1.306348	0.530704	-0.819786
-1.347757	0.588482	-0.951099
-1.389470	0.430360	-0.935172
-1.310921	0.268566	-0.872183
-1.491759	0.227183	-0.780058
-1.540727	0.205725	-0.946409
-1.668358	0.071035	-0.861475
-1.793811	0.140107	-0.775530
-1.847419	-0.066039	-0.836200
-2.025566	-0.001377	-0.780601
-1.991797	-0.161249	-0.668376
-2.159074	-0.182571	-0.745666
-2.037966	-0.288785	-0.881477
-2.168463	-0.193051	-1.019841
-2.368698	-0.209901	-1.002554
-2.311827	-0.416438	-1.006805
-2.142833	-0.471259	-1.108343
-2.304275	-0.441985	-1.250078
-2.316997	-0.233767	-1.263319
-2.182103	-0.262937	-1.401807
-2.031865	-0.380976	-1.341639
-2.024999	-0.218988	-1.243804
-1.898591	-0.044413	-1.159866
-1.812349	0.083858	-1.271386
-1.989820	0.044347	-1.319500
-2.168104	0.092799	-1.204066
-2.279488	0.104540	-1.372179
-2.143895	0.233009	-1.366560
-1.983449	0.265317	-1.112062
-1.947642	0.409765	-1.195198
-2.105732	0.489023	-1.067110
-2.234250	0.505124	-1.209563
-2.107364	0.665734	-1.245695
-2.103427	0.569520	-1.405755
-1.709590	0.882196	-1.301353
-1.732790	0.753999	-1.176432
-1.694016	0.638995	-1.324690
-1.599631	0.453543	-1.320101
-1.452553	0.518260	-1.395319
-1.533099	0.539996	-1.591773
-1.466372	0.634418	-1.787698
-1.806697	0.611900	-1.984119
-1.750103	0.542691	-1.764417
-1.740631	0.385847	-1.615812
-1.587232	0.341528	-1.728145
-1.531897	0.222107	-1.546115
-1.646692	0.075928	-1.642088
-1.857329	0.056464	-1.681889
-1.768163	-0.007034	-1.862655
-1.978252	0.073631	-1.918947
-2.088188	-0.068281	-1.792676
-1.989568	-0.175577	-1.984318
-2.169740	-0.321904	-1.926607
-1.886822	-0.349396	-1.759827
-1.747389	-0.244294	-1.642605
