-0.389626	-0.734988	-0.487670
-5.052150	1.949885	-1.245453
-1.525665	0.136147	1.749235
-0.708817	0.100312	0.836806
-0.760850	0.010860	0.900954
-0.812982	-0.062143	0.860971
-0.774362	-0.137912	0.793468
-0.734826	-0.113334	0.681037
-0.727048	-0.022361	0.662585
-0.684722	0.054526	0.707014
-0.668331	0.140298	0.749904
-0.685649	0.088821	0.553518
-0.693270	0.151374	0.623340
-0.751179	0.154964	0.561512
-0.760727	0.168172	0.473789
-0.807168	0.248788	0.415187
-0.824161	0.341142	0.445944
-0.813858	0.345074	0.354777
-0.904616	0.322410	0.364229
-0.900193	0.417952	0.389054
-0.993147	0.409515	0.403281
-0.948156	0.380567	0.485085
-0.997255	0.302628	0.448006
-0.924294	0.252533	0.480856
-0.914868	0.148914	0.444371
-0.875186	0.062082	0.435447
-0.871079	0.030354	0.344214
-0.970774	0.045112	0.323305
-0.950709	0.097818	0.251107
-0.901701	0.032993	0.219233
-0.986793	0.008505	0.227931
-0.958439	-0.083258	0.265141
-0.983124	-0.183469	0.226692
-1.051955	-0.133705	0.257464
-1.091376	-0.098723	0.346009
-1.006271	-0.131992	0.389601
-1.028093	-0.219158	0.412662
-0.936578	-0.250246	0.403698
-0.912882	-0.187676	0.478025
-0.903982	-0.241049	0.554641
-0.992593	-0.221845	0.590295
-0.936097	-0.138380	0.613892
-1.027179	-0.076516	0.575553
-1.023258	-0.065953	0.651018
-0.942875	0.020916	0.623100
-1.016395	0.091588	0.615809
-0.989289	0.090911	0.693750
-0.903780	0.150201	0.675588
-0.879856	0.246148	0.710686
-0.780589	0.302642	0.699223
-0.728485	0.243071	0.749457
-0.816714	0.381445	0.801975
-0.911569	0.579132	0.899871
-0.761651	0.550569	0.695152
-0.675662	0.474220	0.674616
-0.739003	0.467271	0.589542
-0.663640	0.552689	0.559239
-0.674115	0.495579	0.475563
-0.586480	0.461862	0.523326
-0.635384	0.383050	0.545486
-0.608237	0.356880	0.454782
-0.585407	0.268441	0.442481
-0.583786	0.193934	0.364467
-0.573002	0.100235	0.385755
-0.623722	0.068511	0.304274
-0.545930	0.027021	0.265120
-0.543724	-0.074113	0.335399
-0.641885	-0.113728	0.425671
-0.623165	-0.205012	0.397338
-0.710478	-0.218377	0.378371
-0.696002	-0.177969	0.278038
-0.719348	-0.255366	0.242183
-0.741406	-0.216124	0.172508
-0.663872	-0.176051	0.164791
-0.637067	-0.261435	0.159038
-0.568307	-0.237925	0.197055
-0.542566	-0.283955	0.255138
-0.597252	-0.373341	0.275355
-0.563825	-0.404565	0.204273
-0.645058	-0.433251	0.164633
-0.731594	-0.441807	0.155778
-0.735749	-0.444302	0.241932
-0.718940	-0.546663	0.226036
-0.637830	-0.584955	0.267676
-0.715540	-0.622759	0.308345
-0.770218	-0.557532	0.352331
-0.711467	-0.564984	0.421863
-0.644908	-0.495798	0.412417
-0.748452	-0.445133	0.442760
-0.750065	-0.468100	0.517986
-0.687647	-0.401714	0.516024
-0.682740	-0.406953	0.597348
-0.590831	-0.458363	0.576856
-0.643405	-0.526406	0.624931
-0.559773	-0.533980	0.666897
-0.552333	-0.624552	0.615756
-0.549273	-0.644958	0.521097
-0.498614	-0.584556	0.493022
-0.458477	-0.658077	0.447375
-0.407338	-0.690447	0.527960
-0.339114	-0.653537	0.497741
-0.299897	-0.619332	0.606121
-0.351022	-0.534968	0.598704
-0.286598	-0.517957	0.540369
-0.345377	-0.481309	0.471587
-0.300358	-0.515724	0.399846
-0.378545	-0.473910	0.331880
-0.314016	-0.429334	0.295135
-0.248002	-0.368177	0.340773
-0.267024	-0.295289	0.292045
-0.342637	-0.273428	0.323458
-0.322936	-0.267902	0.426212
-0.408287	-0.320576	0.445467
-0.443168	-0.248536	0.510302
-0.351180	-0.279495	0.568187
-0.422561	-0.302706	0.644939
-0.372020	-0.255274	0.710952
-0.416923	-0.294205	0.793935
-0.499538	-0.249607	0.789362
-0.484448	-0.260449	0.881170
-0.416536	-0.206485	0.863038
-0.490154	-0.137948	0.852221
-0.432383	-0.141892	0.770742
-0.467799	-0.136765	0.675304
-0.456929	-0.079683	0.587097
-0.365728	-0.090282	0.597781
-0.371600	-0.067272	0.506003
-0.288681	-0.088042	0.487057
-0.318904	-0.056291	0.398038
-0.277248	0.025625	0.409372
-0.326877	0.091407	0.346797
-0.352536	0.125015	0.430685
-0.310452	0.211993	0.425042
-0.353140	0.283994	0.471114
-0.322566	0.390042	0.499907
-0.391771	0.413511	0.575551
-0.332967	0.494011	0.560034
-0.335636	0.469803	0.662136
-0.270993	0.407309	0.614799
-0.261893	0.292470	0.595047
-0.207231	0.212972	0.641113
-0.209509	0.168165	0.549471
-0.214044	0.075651	0.595996
-0.280472	0.080573	0.673721
-0.376225	0.116729	0.630663
-0.400552	0.128289	0.714254
-0.406652	0.241961	0.719597
-0.345554	0.258064	0.781603
-0.412969	0.316520	0.786080
-0.460446	0.240665	0.803856
-0.538563	0.156613	0.794265
-0.449531	0.121041	0.864954
-0.399749	0.202790	0.945656
-0.329191	0.263846	0.938187
-0.305537	0.199578	1.000854
-0.304299	0.138521	0.919241
-0.346551	0.037223	0.950299
-0.265539	0.001654	0.984619
-0.256372	-0.001817	0.878965
-0.161776	0.038686	0.855195
-0.103061	0.000992	0.933971
-0.042682	-0.055252	0.895163
-0.123906	-0.128541	0.907788
-0.147973	-0.116801	0.810013
-0.144662	-0.220766	0.792060
-0.050806	-0.197135	0.771724
0.015341	-0.223353	0.846746
-0.034452	-0.293945	0.874162
0.052617	-0.323645	0.836400
0.056474	-0.309546	0.735850
-0.003741	-0.387599	0.758716
-0.082791	-0.353607	0.695230
-0.032674	-0.381546	0.630201
-0.086968	-0.362920	0.559164
-0.012543	-0.313220	0.536626
-0.065153	-0.240017	0.576857
-0.089202	-0.222873	0.482048
-0.023470	-0.207008	0.420399
-0.020861	-0.144700	0.480156
0.085734	-0.151744	0.518324
0.151006	-0.141467	0.593955
0.073843	-0.108656	0.627003
0.038707	-0.025362	0.575256
-0.047037	-0.005980	0.624054
0.024001	0.028900	0.683484
-0.007292	0.155176	0.683880
0.001862	0.209452	0.756546
0.007436	0.293221	0.866188
-0.074763	0.319751	0.797099
-0.033663	0.347077	0.689767
0.027075	0.407748	0.720813
-0.070776	0.464838	0.730655
-0.043807	0.483518	0.832329
0.036366	0.571564	0.823842
-0.079649	0.617340	0.804170
-0.130382	0.647945	0.714999
-0.121863	0.746922	0.786132
-0.018891	0.736572	0.844841
0.003983	0.818985	0.761660
-0.034670	0.775055	0.657170
0.052715	0.696564	0.707954
-0.003362	0.615601	0.641701
-0.052908	0.555212	0.558831
0.015779	0.446220	0.527068
-0.045928	0.478209	0.447576
-0.040904	0.361616	0.425313
0.028124	0.283250	0.465187
-0.051491	0.221788	0.421530
-0.014362	0.213472	0.322853
-0.069837	0.134730	0.303457
-0.027304	0.076110	0.374939
0.013526	0.019247	0.294221
0.079709	0.080436	0.277433
0.139902	0.052193	0.368313
0.162874	0.141027	0.381650
0.136541	0.116505	0.481767
0.229457	0.065549	0.499548
0.270058	0.141653	0.493159
0.235670	0.115757	0.591779
0.192784	0.201784	0.578587
0.255537	0.249076	0.649167
0.220709	0.214137	0.750440
0.235242	0.181855	0.842204
0.327371	0.180410	0.790021
0.315666	0.267515	0.857281
0.333881	0.299335	0.758076
0.234366	0.327250	0.778262
0.293311	0.432683	0.838689
0.256976	0.493516	0.927655
0.366317	0.525138	0.908854
0.313260	0.620463	0.947893
0.256394	0.616454	0.848661
0.361476	0.655747	0.827033
0.372881	0.565672	0.756759
0.256982	0.543246	0.696141
0.214696	0.474018	0.601689
0.277088	0.427550	0.546407
0.336886	0.447358	0.637406
0.336063	0.532937	0.583318
0.339324	0.646550	0.635237
0.295403	0.757310	0.673748
0.398875	0.788785	0.619176
0.304365	0.837325	0.571418
0.323547	0.733045	0.506412
0.268668	0.745138	0.399071
0.180354	0.738162	0.460504
0.219620	0.640534	0.490468
0.306121	0.609704	0.419369
0.201030	0.610442	0.344134
0.142073	0.529606	0.343406
0.219424	0.436483	0.378089
0.302994	0.490174	0.295298
0.346326	0.542946	0.214752
0.245728	0.513645	0.174324
0.207008	0.396643	0.222170
0.128281	0.336391	0.214063
0.160989	0.380865	0.129481
0.291397	0.339612	0.127008
0.262387	0.245742	0.144119
0.287485	0.260716	0.256600
0.382992	0.228656	0.216345
0.427501	0.339356	0.211297
0.504063	0.261735	0.202574
0.516867	0.265542	0.321311
0.443218	0.191501	0.376727
0.407827	0.304338	0.386796
0.473589	0.400756	0.345275
0.591568	0.406274	0.390832
0.523831	0.397768	0.483252
0.588778	0.297077	0.498755
0.513182	0.248029	0.582483
0.511084	0.340131	0.638221
0.588270	0.290703	0.701183
0.631646	0.385706	0.677879
0.702206	0.381015	0.797600
0.607990	0.435390	0.857205
0.713962	0.457595	0.923339
0.674876	0.573525	0.882283
0.759603	0.521978	0.792298
0.634546	0.558176	0.735849
0.703470	0.537427	0.611765
0.600516	0.567756	0.544639
0.630081	0.682494	0.624359
0.659630	0.749524	0.723902
0.773118	0.709627	0.638821
0.835912	0.741134	0.763778
0.924050	0.650346	0.706830
0.925418	0.696557	0.581508
0.977056	0.805471	0.674067
0.868328	0.898668	0.681910
0.959157	0.948377	0.583742
0.994580	0.845499	0.494176
0.854988	0.841952	0.488304
0.878937	0.955014	0.410636
0.787818	1.005212	0.511544
0.711207	0.905988	0.557904
0.620279	0.949326	0.454199
0.705442	0.910258	0.369123
0.669042	0.793986	0.440572
0.769863	0.707196	0.365815
0.659942	0.694757	0.317985
0.679520	0.809375	0.219641
0.795648	0.774861	0.204975
0.759355	0.749037	0.066476
0.731021	0.637557	0.019921
0.716546	0.630871	0.142088
0.609862	0.672347	0.099516
0.611620	0.559613	0.146768
0.624756	0.533767	0.029596
0.685514	0.443503	-0.027474
0.612332	0.401043	0.042552
0.712837	0.367893	0.106065
0.792863	0.453018	0.159201
0.841094	0.526284	0.256715
0.915462	0.534629	0.158818
0.956758	0.537362	0.032909
0.928530	0.420859	0.023147
1.036577	0.405301	0.100754
1.115781	0.490834	0.011559
1.196091	0.440620	0.099871
1.109478	0.526785	0.163549
1.144036	0.648736	0.120195
1.079799	0.657158	0.237718
1.213341	0.661404	0.252128
1.229682	0.532034	0.266220
1.146578	0.576234	0.370255
1.072425	0.463814	0.315903
1.025478	0.496039	0.434126
1.131805	0.409951	0.446719
1.201537	0.484559	0.527504
1.295319	0.451716	0.436431
1.262580	0.340701	0.355680
1.271689	0.295294	0.502064
1.312035	0.182299	0.370552
1.165167	0.206194	0.402719
1.074047	0.260973	0.317617
0.969347	0.217097	0.249825
0.855696	0.225235	0.267353
0.905727	0.318036	0.323200
0.942357	0.230163	0.405192
0.823944	0.217875	0.436361
0.850019	0.342536	0.497686
0.851667	0.276555	0.582142
0.968516	0.324391	0.612307
1.015146	0.212051	0.582053
1.021004	0.184774	0.707900
0.904447	0.180504	0.717709
0.798798	0.121220	0.624389
0.807642	0.069360	0.736680
0.720851	0.004603	0.798184
0.687078	-0.019655	0.682776
0.678373	-0.105206	0.752713
0.798643	-0.098339	0.748603
0.863978	-0.035283	0.832253
0.939555	-0.035078	0.731312
0.915497	-0.020492	0.610824
1.063239	-0.014572	0.584680
1.028169	-0.120019	0.592239
0.903060	-0.171487	0.572446
0.816392	-0.121532	0.508578
0.937504	-0.137388	0.430562
1.047893	-0.112229	0.411393
0.988496	-0.011186	0.381055
0.871829	0.007291	0.398644
0.897405	-0.061631	0.296157
0.791557	-0.111470	0.329583
0.693188	-0.006711	0.299784
0.657248	0.006073	0.388631
0.666222	-0.114579	0.429700
0.615554	-0.149239	0.323901
0.527708	-0.110059	0.388562
0.495517	-0.050139	0.280264
0.464166	-0.151280	0.233770
0.372464	-0.121332	0.164577
0.423689	-0.036644	0.113832
0.449344	-0.123696	0.071680
0.560707	-0.165483	0.070629
0.569018	-0.103050	-0.002028
0.617092	0.002467	0.064040
0.694304	-0.067576	0.081625
0.773216	0.002683	0.074872
0.943044	0.011619	0.072097
1.055935	0.042371	0.113857
1.083937	-0.049991	0.038549
1.143315	0.047923	-0.014762
1.032822	0.123248	-0.048518
1.078443	0.067332	-0.151217
0.971167	0.009678	-0.109612
0.866745	0.085985	-0.108109
0.906558	0.077844	-0.234765
0.792417	0.023282	-0.204486
0.881806	-0.071997	-0.225278
0.776936	-0.130767	-0.170868
0.820114	-0.087771	-0.077852
0.951713	-0.147426	-0.082542
1.061117	-0.167631	-0.166390
1.086146	-0.245440	-0.068613
1.065036	-0.324546	-0.163062
0.944642	-0.303217	-0.124689
0.814260	-0.320598	-0.051809
0.791520	-0.270600	0.054121
0.810751	-0.388106	0.069172
0.949095	-0.398079	0.042707
0.930414	-0.346872	0.144387
0.988216	-0.231967	0.149469
1.084511	-0.289531	0.208602
1.208930	-0.229857	0.147709
1.288246	-0.213957	0.259535
1.367559	-0.189753	0.144519
1.389339	-0.325172	0.174322
1.319510	-0.325602	0.040663
1.340867	-0.454943	0.068497
1.188571	-0.454740	0.077443
1.215490	-0.423407	0.195848
1.286712	-0.559439	0.216700
1.357967	-0.428290	0.363035
1.227803	-0.382552	0.404197
1.331548	-0.303771	0.475832
1.222717	-0.342467	0.571234
1.314746	-0.422933	0.661660
1.387150	-0.480457	0.549260
1.335123	-0.601073	0.617254
1.284987	-0.612538	0.475264
1.198246	-0.518747	0.551345
1.169492	-0.570714	0.691696
1.126333	-0.664900	0.587426
1.012329	-0.609920	0.648067
1.029560	-0.471131	0.664490
1.029079	-0.478392	0.527362
0.997127	-0.586611	0.437804
0.879207	-0.568788	0.471424
0.949470	-0.461832	0.374607
0.844221	-0.424843	0.409312
0.790025	-0.523262	0.280116
0.697696	-0.422333	0.312885
0.585771	-0.441704	0.258814
0.484638	-0.409592	0.208996
0.417669	-0.454429	0.267807
0.400547	-0.369024	0.322349
0.332870	-0.392197	0.379119
0.433367	-0.399041	0.442581
0.523240	-0.395885	0.449792
0.514875	-0.398789	0.560989
0.598841	-0.407161	0.623284
0.655746	-0.467225	0.535831
0.657582	-0.560358	0.576029
0.563642	-0.586430	0.514171
0.565141	-0.646751	0.615625
0.524956	-0.583447	0.685616
0.438873	-0.626991	0.629585
0.363772	-0.569042	0.569628
0.390743	-0.602374	0.471071
0.283986	-0.635957	0.458369
0.228060	-0.641693	0.370367
0.327617	-0.675389	0.348576
0.298059	-0.773851	0.428334
0.368204	-0.813058	0.509127
0.388410	-0.864031	0.410383
0.468365	-0.787082	0.403235
0.541060	-0.839345	0.494986
0.535590	-0.947571	0.437312
0.545211	-0.933160	0.339533
0.640557	-0.901241	0.397810
0.694384	-0.799108	0.403933
0.666454	-0.803453	0.284242
0.613009	-0.715248	0.297822
0.542918	-0.787591	0.208868
0.503258	-0.698506	0.164802
0.580601	-0.741880	0.095033
0.642264	-0.649471	0.103991
0.714474	-0.719847	0.029165
0.775682	-0.717061	0.124196
0.921942	-0.740313	0.149519
1.027581	-0.774753	0.095674
1.028679	-0.807881	0.223780
0.986993	-0.913472	0.158146
0.868462	-0.886424	0.204632
0.869709	-0.882898	0.062340
0.764509	-0.968313	0.059436
0.720016	-1.088471	0.127225
0.764204	-1.273091	0.030769
0.748742	-1.454333	0.313165
0.768551	-1.615018	0.134815
1.168636	-1.480256	-0.136959
1.016747	-1.538715	0.358793
1.076678	-1.268452	0.497189
1.188506	-1.217485	0.338959
-2.444248	-1.087210	4.203060
-2.826805	-3.250641	3.651646
1.823836	-1.160891	-0.362877
1.600087	-1.049451	-0.380179
1.177345	-1.745930	-1.329540
0.816742	-1.715967	-1.549235
0.637022	-0.967522	-0.573707
0.786842	-1.102548	-0.672801
0.219899	-0.614297	-0.281936
-0.757261	-1.543403	-0.593569
-1.173148	-1.880011	-0.628238
-0.669085	-1.431917	-0.081804
-0.333963	-1.273055	0.086335
-0.244257	-1.031561	0.048731
-0.156201	-0.933877	0.107934
-0.109495	-1.003182	0.196835
0.141351	-1.489385	-0.465280
0.249471	-1.239526	-0.583630
0.390731	-1.134222	-0.366012
0.273108	-0.990524	-0.308524
0.322360	-0.860229	-0.285580
0.270348	-0.705057	-0.240277
0.306559	-0.804862	-0.156433
0.235817	-1.175460	-0.085683
0.166283	-1.002864	0.008552
-0.041659	-1.777110	0.367075
0.190563	-1.980402	-0.053479
-0.327627	-1.869818	-0.156506
-0.115053	-1.772044	-0.577923
-0.245237	-1.418172	-0.502743
0.170726	-0.496355	0.049632
0.066739	-0.441293	0.034210
-0.048428	-0.501998	0.071643
0.000774	-0.601420	0.077172
-0.073460	-0.629687	0.017512
-0.012201	-0.601249	-0.068363
0.069366	-0.601652	-0.130811
0.142293	-0.629396	-0.215882
0.057484	-0.698620	-0.184347
0.026031	-0.793602	-0.230597
0.003366	-0.886623	-0.207653
0.022241	-0.910689	-0.309896
-0.060985	-0.890304	-0.371831
-0.113139	-0.922408	-0.296185
-0.141822	-0.809565	-0.283471
-0.143041	-0.728528	-0.210275
-0.212617	-0.773372	-0.115363
-0.228536	-0.664657	-0.116105
-0.315456	-0.678911	-0.161775
-0.320647	-0.614646	-0.228925
-0.379152	-0.587284	-0.185721
-0.322696	-0.540342	-0.137729
-0.362650	-0.423940	-0.170538
-0.322025	-0.430763	-0.087550
-0.231966	-0.383591	-0.121757
-0.175122	-0.448709	-0.109991
-0.144024	-0.468934	-0.193344
-0.125720	-0.518708	-0.261561
-0.080120	-0.557444	-0.326447
-0.038904	-0.613181	-0.414949
0.034493	-0.679376	-0.451212
-0.012448	-0.759479	-0.506612
0.073068	-0.731066	-0.569322
0.022396	-0.652827	-0.598286
0.040827	-0.748809	-0.696945
-0.043307	-0.811923	-0.651260
-0.085510	-0.731230	-0.710028
-0.116649	-0.666643	-0.607029
-0.219142	-0.635307	-0.625422
-0.207424	-0.661273	-0.530315
-0.149568	-0.562457	-0.549525
-0.185194	-0.508712	-0.469899
-0.204560	-0.428728	-0.427045
-0.137002	-0.375935	-0.460909
-0.072662	-0.385380	-0.400253
-0.114231	-0.325955	-0.331277
-0.046523	-0.311981	-0.270152
0.070293	-0.312397	-0.226923
0.096078	-0.225871	-0.306153
0.185454	-0.249105	-0.342223
0.132721	-0.285747	-0.411025
0.220304	-0.307373	-0.480355
0.274689	-0.406736	-0.523509
0.326841	-0.427789	-0.605814
0.327958	-0.535826	-0.566778
0.413799	-0.601371	-0.622502
0.337395	-0.674045	-0.606981
0.399209	-0.681906	-0.513460
0.287918	-0.651091	-0.485342
0.274235	-0.619834	-0.361504
0.366380	-0.573571	-0.433511
0.455780	-0.555970	-0.504531
0.509116	-0.478804	-0.553047
0.503377	-0.437716	-0.456943
0.435698	-0.375995	-0.494147
0.529979	-0.324433	-0.539073
0.481290	-0.350694	-0.626473
0.422071	-0.260786	-0.596744
0.392010	-0.249870	-0.491046
0.367975	-0.289918	-0.399742
0.329783	-0.366000	-0.343511
0.242856	-0.420545	-0.347472
0.196446	-0.530046	-0.311897
0.129738	-0.464952	-0.413573
0.112884	-0.452834	-0.513763
0.054522	-0.452551	-0.594848
0.005597	-0.376133	-0.622190
0.073063	-0.342637	-0.570331
0.129777	-0.381545	-0.646768
0.171886	-0.481812	-0.684494
0.230878	-0.418747	-0.751856
0.334041	-0.421953	-0.812357
0.393016	-0.502056	-0.843764
0.295278	-0.547463	-0.799916
0.295426	-0.544255	-0.909933
0.234999	-0.450779	-0.921759
0.147943	-0.502841	-0.861131
0.060756	-0.438662	-0.804257
-0.012225	-0.513724	-0.804971
-0.090732	-0.433981	-0.760322
-0.127451	-0.488022	-0.825837
-0.083952	-0.416358	-0.887197
-0.052493	-0.500299	-0.972808
-0.096607	-0.435541	-1.015345
0.014986	-0.410515	-0.985398
-0.000956	-0.337205	-1.051771
-0.053898	-0.305795	-0.960685
0.027535	-0.300566	-0.902587
0.101958	-0.222852	-0.984926
0.167445	-0.297789	-0.979934
0.145584	-0.253998	-0.860340
0.214213	-0.157402	-0.888718
0.289498	-0.181902	-0.948022
0.366552	-0.224838	-0.909695
0.302542	-0.241056	-0.834265
0.268822	-0.177657	-0.755719
0.378122	-0.139968	-0.821309
0.351019	-0.076416	-0.900180
0.410461	-0.025192	-0.840115
0.403866	-0.023091	-0.735688
0.369389	0.060909	-0.776251
0.289391	0.027473	-0.834888
0.279824	-0.022461	-0.746225
0.294639	-0.033170	-0.624991
0.236062	0.052326	-0.635438
0.180158	0.058552	-0.553407
0.255855	0.034274	-0.498831
0.164356	-0.019837	-0.474563
0.198310	-0.091027	-0.532512
0.142426	-0.102544	-0.622119
0.067617	-0.129363	-0.562374
0.018173	-0.072444	-0.490809
-0.051989	-0.090662	-0.544190
-0.076928	0.024733	-0.549294
0.002759	0.037214	-0.593398
-0.050861	0.013652	-0.660738
0.030159	0.018660	-0.716520
0.072628	-0.064438	-0.761252
0.059390	-0.018136	-0.837435
-0.043392	-0.034374	-0.806579
-0.026766	-0.117592	-0.830380
-0.045681	-0.154054	-0.733165
-0.137039	-0.116349	-0.723108
-0.194616	-0.075547	-0.649779
-0.179192	-0.172357	-0.625885
-0.273093	-0.171910	-0.656157
-0.272265	-0.270356	-0.650437
-0.231422	-0.266358	-0.751005
-0.314802	-0.322622	-0.779835
-0.345187	-0.236608	-0.762734
-0.262066	-0.204236	-0.860963
-0.318204	-0.118764	-0.845084
-0.426122	-0.143706	-0.871498
-0.378754	-0.201729	-0.924182
-0.279843	-0.199277	-1.006429
-0.340403	-0.123603	-1.023919
-0.256920	-0.039774	-0.973497
-0.170630	0.015745	-0.936922
-0.139808	-0.062362	-0.993714
-0.148360	0.047639	-1.077414
-0.194228	-0.030678	-1.152930
-0.278884	0.043057	-1.147866
-0.194173	0.115004	-1.186721
-0.236967	0.058558	-1.276138
-0.166990	-0.032979	-1.284758
-0.092896	0.075247	-1.276368
-0.029277	-0.021120	-1.305143
-0.042263	-0.076961	-1.204013
-0.011583	0.038640	-1.149809
0.030098	-0.047827	-1.088948
0.130079	0.003001	-1.121108
0.112981	-0.065679	-1.210639
0.092872	0.058035	-1.239353
0.040996	0.188991	-1.213989
0.144814	0.238226	-1.245291
0.236271	0.169783	-1.188228
0.241279	0.276716	-1.130893
0.249730	0.211455	-1.028910
0.151290	0.175132	-1.083865
0.097927	0.289220	-1.092490
0.037434	0.209877	-1.028840
0.061542	0.163205	-0.909906
-0.037251	0.202587	-0.896119
0.019606	0.265489	-0.812139
0.109436	0.317016	-0.874506
0.172389	0.274541	-0.792101
0.123071	0.366137	-0.755728
0.199192	0.402949	-0.837731
0.079937	0.451402	-0.848440
0.158662	0.529951	-0.892546
0.143538	0.449100	-0.985537
0.109515	0.555841	-1.022019
0.007177	0.549781	-0.956779
-0.001417	0.489503	-1.066386
-0.017887	0.407563	-0.976012
-0.114864	0.432730	-0.922180
-0.171267	0.478313	-1.010622
-0.143318	0.384029	-1.057818
-0.278219	0.355002	-1.070225
-0.229296	0.278297	-0.994490
-0.296519	0.344174	-0.927006
-0.217039	0.292087	-0.824488
-0.313168	0.272797	-0.799911
-0.277285	0.166066	-0.836951
-0.227131	0.178363	-0.736595
-0.542464	0.223544	-1.034846
-0.459016	0.239399	-0.907791
-0.423576	0.141638	-0.945998
-0.518014	0.126899	-0.887918
-0.445658	0.130604	-0.790919
-0.454688	0.143583	-0.683368
-0.498764	0.039367	-0.706654
-0.385087	0.048908	-0.703124
-0.420866	0.035721	-0.597982
-0.338207	0.052789	-0.551344
-0.394281	0.062992	-0.496112
-0.382992	-0.011189	-0.446667
-0.320108	0.010465	-0.384670
-0.287799	-0.060491	-0.399885
-0.310942	-0.131344	-0.354616
-0.371541	-0.163075	-0.398943
-0.403710	-0.186653	-0.321077
-0.458848	-0.112716	-0.333411
-0.426693	-0.055396	-0.262380
-0.452155	-0.112691	-0.203703
-0.375039	-0.131713	-0.182985
-0.399633	-0.084589	-0.107882
-0.401658	-0.007744	-0.118069
-0.343664	0.010263	-0.171440
-0.275971	-0.013753	-0.098079
-0.241986	-0.060982	-0.150121
-0.173852	-0.023649	-0.158185
-0.195898	-0.009291	-0.239166
-0.219207	0.067593	-0.226375
-0.247918	0.143036	-0.171149
-0.194752	0.143858	-0.107890
-0.080177	0.152882	-0.136124
-0.110366	0.185724	-0.211622
-0.061033	0.132119	-0.260230
-0.026618	0.223706	-0.278946
0.011953	0.175166	-0.341101
-0.087951	0.186530	-0.387178
-0.077917	0.263185	-0.457437
0.013940	0.305314	-0.465947
0.020833	0.362776	-0.553140
0.099713	0.418505	-0.524995
0.040209	0.490562	-0.565567
0.055770	0.517581	-0.474299
0.038353	0.434809	-0.420836
-0.055240	0.436214	-0.467013
-0.094361	0.498460	-0.394425
-0.064169	0.437890	-0.307519
-0.141101	0.386033	-0.338348
-0.235026	0.426531	-0.338420
-0.204354	0.477835	-0.271929
-0.193613	0.385059	-0.245243
-0.272028	0.317470	-0.273024
-0.252938	0.265634	-0.346253
-0.335010	0.217654	-0.337591
-0.350417	0.310437	-0.399324
-0.328478	0.243659	-0.454788
-0.256652	0.277049	-0.497157
-0.323502	0.330926	-0.540978
-0.226298	0.390583	-0.567631
-0.161547	0.428531	-0.650288
-0.122133	0.519602	-0.662023
-0.204532	0.512709	-0.715399
-0.234948	0.517596	-0.621639
-0.293664	0.507269	-0.528651
-0.260463	0.595857	-0.525378
-0.150460	0.624749	-0.540559
-0.198384	0.708780	-0.562896
-0.142592	0.681862	-0.651393
-0.272195	0.660146	-0.657599
-0.225595	0.705336	-0.766829
-0.263394	0.794709	-0.702202
-0.289729	0.817072	-0.810886
-0.387324	0.806601	-0.747078
-0.410026	0.773377	-0.861051
-0.341599	0.687933	-0.864241
-0.395658	0.679899	-0.765681
-0.503206	0.694118	-0.788598
-0.453873	0.631082	-0.878011
-0.391527	0.565531	-0.815931
-0.432520	0.457442	-0.719244
-0.465849	0.409917	-0.639886
-0.498948	0.362618	-0.718380
-0.561974	0.439498	-0.701643
-0.530920	0.457642	-0.798594
-0.523955	0.547000	-0.747686
-0.465182	0.575239	-0.660915
-0.513149	0.546148	-0.561116
-0.520590	0.659876	-0.565981
-0.584827	0.672879	-0.634469
-0.641119	0.600816	-0.580736
-0.680195	0.639269	-0.505933
-0.730830	0.672009	-0.591578
-0.738932	0.627269	-0.687352
-0.749952	0.542409	-0.652374
-0.829691	0.604319	-0.629507
-0.803688	0.582754	-0.541150
-0.729366	0.491130	-0.516936
-0.816046	0.427918	-0.482182
-0.818814	0.411014	-0.573411
-0.741185	0.376060	-0.613683
-0.794956	0.300991	-0.581459
-0.720379	0.236418	-0.604838
-0.697540	0.284007	-0.492764
-0.609820	0.291036	-0.526982
-0.600184	0.400594	-0.488952
-0.639795	0.409857	-0.411202
-0.533758	0.418818	-0.392074
-0.557996	0.301057	-0.384733
-0.539435	0.193439	-0.406570
-0.552074	0.226813	-0.327726
-0.656117	0.197932	-0.347323
-0.758205	0.208069	-0.359126
-0.776703	0.111521	-0.352031
-0.805796	0.105813	-0.429452
-0.703251	0.081258	-0.442965
-0.758730	0.015668	-0.462386
-0.776359	-0.019050	-0.367682
-0.690769	-0.039055	-0.384330
-0.672899	0.004148	-0.298959
-0.678676	-0.071599	-0.270498
-0.747137	-0.044411	-0.198263
-0.800503	0.016233	-0.165153
-0.771083	-0.033149	-0.111098
-0.676184	-0.002827	-0.131829
-0.692602	0.078925	-0.079065
-0.641622	0.153697	-0.067918
-0.597792	0.109956	-0.126035
-0.680569	0.137083	-0.161150
-0.724187	0.213656	-0.149022
-0.807703	0.186466	-0.161707
-0.824391	0.179172	-0.078537
-0.776718	0.259012	-0.040868
-0.821504	0.304507	-0.097529
-0.827358	0.337779	-0.190135
-0.884670	0.390178	-0.134901
-0.837988	0.436672	-0.198972
-0.777170	0.422621	-0.121812
-0.718333	0.456200	-0.182654
-0.698221	0.371354	-0.184292
-0.653331	0.387146	-0.084205
-0.633701	0.475099	-0.054073
-0.683091	0.425327	0.005537
-0.617005	0.361190	0.012763
-0.544185	0.371906	-0.038873
-0.472143	0.325219	0.026543
-0.490566	0.256854	-0.018042
-0.458434	0.311643	-0.076237
-0.398985	0.388868	-0.094894
-0.473357	0.398256	-0.183033
-0.465282	0.482197	-0.142490
-0.494649	0.538359	-0.228451
-0.409207	0.558023	-0.254659
-0.473176	0.621205	-0.323201
-0.421444	0.707113	-0.293576
-0.381307	0.709905	-0.388572
-0.479941	0.731898	-0.403115
-0.436105	0.832766	-0.381481
-0.526377	0.852518	-0.455033
-0.454873	0.932704	-0.477804
-0.566326	0.965484	-0.495404
-0.508519	1.044080	-0.434289
-0.530692	0.971168	-0.352913
-0.631936	1.016310	-0.387363
-0.663347	0.943839	-0.312803
-0.691596	0.892251	-0.408121
-0.625738	0.838178	-0.347419
-0.684824	0.778972	-0.250340
-0.626491	0.693563	-0.233982
-0.579070	0.780649	-0.223671
-0.517689	0.870632	-0.210967
-0.534030	0.957412	-0.153876
-0.604169	0.888855	-0.133081
-0.506791	0.788759	-0.090195
-0.557421	0.708877	-0.070459
-0.666257	0.716208	-0.038678
-0.661100	0.802906	0.013041
-0.602408	0.729522	0.074579
-0.544514	0.811417	0.072709
-0.436418	0.602001	0.158261
-0.463290	0.570881	0.071494
-0.414771	0.658285	0.049530
-0.364580	0.629378	-0.044414
-0.283594	0.600136	-0.001728
-0.255345	0.708889	0.011025
-0.177286	0.760445	0.082850
-0.247488	0.962650	0.076626
-0.293294	0.851370	0.017674
-0.208977	0.809883	-0.059957
-0.306084	0.780375	-0.089579
-0.236772	0.705008	-0.150239
-0.244996	0.783925	-0.227882
-0.187208	0.880274	-0.225740
-0.294294	0.919793	-0.218896
-0.287453	0.970761	-0.322575
-0.196754	1.022380	-0.259367
-0.294216	1.091735	-0.276254
-0.227517	1.109549	-0.391019
-0.167657	0.943775	-0.415370
-0.190322	0.836179	-0.381043
